\relax 
\providecommand\hyper@newdestlabel[2]{}
\providecommand\zref@newlabel[2]{}
\providecommand\babel@aux[2]{}
\@nameuse{bbl@beforestart}
\catcode `"\active 
\providecommand\HyperFirstAtBeginDocument{\AtBeginDocument}
\HyperFirstAtBeginDocument{\ifx\hyper@anchor\@undefined
\global\let\oldcontentsline\contentsline
\gdef\contentsline#1#2#3#4{\oldcontentsline{#1}{#2}{#3}}
\global\let\oldnewlabel\newlabel
\gdef\newlabel#1#2{\newlabelxx{#1}#2}
\gdef\newlabelxx#1#2#3#4#5#6{\oldnewlabel{#1}{{#2}{#3}}}
\AtEndDocument{\ifx\hyper@anchor\@undefined
\let\contentsline\oldcontentsline
\let\newlabel\oldnewlabel
\fi}
\fi}
\global\let\hyper@last\relax 
\gdef\HyperFirstAtBeginDocument#1{#1}
\providecommand\HyField@AuxAddToFields[1]{}
\providecommand\HyField@AuxAddToCoFields[2]{}
\citation{abnt-url-package=url}
\providecommand\pbs@newkey[2]{}
\providecommand\pbs@seq@push@cx[2]{}
\providecommand\mix@newkey[2]{}
\providecommand \oddpage@label [2]{}
\babel@aux{portuguese}{}
\@writefile{@@@}{\chapterbegin }
\@writefile{toc}{\contentsline {chapter}{Lista de S\'imbolos}{1}{section*.2}\protected@file@percent }
\@writefile{@@@}{\chapterbegin }
\@input{chapters/introduction.aux}
\@input{chapters/cenarios.aux}
\@input{chapters/metodologia.aux}
\@input{chapters/configuracao.aux}
\@input{chapters/HCMA.aux}
\@input{chapters/Accupulse.aux}
\@input{chapters/Accupulse_OnOff.aux}
\@input{chapters/SSV.aux}
\@input{chapters/resultados_HCMA.aux}
\@input{chapters/resultados_accupulse8.aux}
\@input{chapters/resultados_SSV.aux}
\@input{chapters/resultados_ICV_onOff.aux}
\@input{chapters/conclusao.aux}
\bibstyle{abntex2-alf.bst}
\bibdata{abntex2-options,documentBeginEnd/Bibliography}
\bibcite{Neumann2003}{Arendt e Warma 2003}
\bibciteEXPL{Neumann2003}{Arendt e Warma}
\bibciteIMPL{Neumann2003}{ARENDT; WARMA}
\bibciteYEAR{Neumann2003}{2003}
\bibcite{userGuideOF}{CFDDirect 2023}
\bibciteEXPL{userGuideOF}{CFDDirect}
\bibciteIMPL{userGuideOF}{CFDDIRECT}
\bibciteYEAR{userGuideOF}{2023}
\bibcite{fox2020fox}{Fox, McDonald e Mitchell 2020}
\bibciteEXPL{fox2020fox}{Fox, McDonald e Mitchell}
\bibciteIMPL{fox2020fox}{FOX; MCDONALD; MITCHELL}
\bibciteYEAR{fox2020fox}{2020}
\bibcite{holzmann}{Holzmann 2019}
\bibciteEXPL{holzmann}{Holzmann}
\bibciteIMPL{holzmann}{HOLZMANN}
\bibciteYEAR{holzmann}{2019}
\bibcite{Huber2009}{Huber 2009}
\bibciteEXPL{Huber2009}{Huber}
\bibciteIMPL{Huber2009}{HUBER}
\bibciteYEAR{Huber2009}{2009}
\bibcite{Menter1994}{Menter 1994}
\bibciteEXPL{Menter1994}{Menter}
\bibciteIMPL{Menter1994}{MENTER}
\bibciteYEAR{Menter1994}{1994}
\bibcite{PowerBI}{Microsoft 2023}
\bibciteEXPL{PowerBI}{Microsoft}
\bibciteIMPL{PowerBI}{MICROSOFT}
\bibciteYEAR{PowerBI}{2023}
\bibcite{kLowReWallFunction}{OpenCFD}
\bibciteEXPL{kLowReWallFunction}{OpenCFD}
\bibciteIMPL{kLowReWallFunction}{OPENCFD}
\bibciteYEAR{kLowReWallFunction}{a}
\bibcite{nutkWallFunction}{OpenCFD}
\bibciteEXPL{nutkWallFunction}{OpenCFD}
\bibciteIMPL{nutkWallFunction}{OPENCFD}
\bibciteYEAR{nutkWallFunction}{b}
\bibcite{omegaWallfunction}{OpenCFD}
\bibciteEXPL{omegaWallfunction}{OpenCFD}
\bibciteIMPL{omegaWallfunction}{OPENCFD}
\bibciteYEAR{omegaWallfunction}{c}
\bibcite{simpleFoam}{OpenCFD}
\bibciteEXPL{simpleFoam}{OpenCFD}
\bibciteIMPL{simpleFoam}{OPENCFD}
\bibciteYEAR{simpleFoam}{d}
\bibcite{rhoSimpleFoam}{OpenFOAM 2023}
\bibciteEXPL{rhoSimpleFoam}{OpenFOAM}
\bibciteIMPL{rhoSimpleFoam}{OPENFOAM}
\bibciteYEAR{rhoSimpleFoam}{2023}
\@writefile{toc}{\contentsline {chapter}{Refer\^encias}{137}{section*.188}\protected@file@percent }
\@writefile{@@@}{\chapterbegin }
\bibcite{Owen2006}{Owen 2006}
\bibciteEXPL{Owen2006}{Owen}
\bibciteIMPL{Owen2006}{OWEN}
\bibciteYEAR{Owen2006}{2006}
\bibcite{sklearn2022}{Scikit-learn 2023}
\bibciteEXPL{sklearn2022}{Scikit-learn}
\bibciteIMPL{sklearn2022}{SCIKIT-LEARN}
\bibciteYEAR{sklearn2022}{2023}
\bibcite{SciPy}{SciPy 2023}
\bibciteEXPL{SciPy}{SciPy}
\bibciteIMPL{SciPy}{SCIPY}
\bibciteYEAR{SciPy}{2023}
\bibcite{smith1950introduction}{Smith 1950}
\bibciteEXPL{smith1950introduction}{Smith}
\bibciteIMPL{smith1950introduction}{SMITH}
\bibciteYEAR{smith1950introduction}{1950}
\bibcite{isa75}{STANDARD 2009}
\bibciteEXPL{isa75}{STANDARD}
\bibciteIMPL{isa75}{STANDARD}
\bibciteYEAR{isa75}{2009}
\@input{chapters/apdx_insumos.aux}
\@input{chapters/apdx_pressoes.aux}
\@input{chapters/apdx_propag_desv.aux}
\@input{chapters/apdx_sym.aux}
\@input{chapters/apdx_malha.aux}
\@input{chapters/apdx_esquemas.aux}
\@input{chapters/apdx_algoritmos.aux}
\@input{chapters/apdx_resultados.aux}
\@input{chapters/apdx_PowerBI.aux}
\global\mtcsecondpartfalse
\gdef \@abspage@last{208}
