\relax 
\providecommand\hyper@newdestlabel[2]{}
\providecommand\zref@newlabel[2]{}
\@writefile{toc}{\contentsline {chapter}{\numberline {6}\textit  {HS-ICV com Accupulse 45 - Ciclo 8}}{44}{chapter.6}\protected@file@percent }
\@writefile{lof}{\addvspace {10\p@ }}
\@writefile{lot}{\addvspace {10\p@ }}
\@writefile{lof}{\contentsline {xchapter}{\textit  {HS-ICV com Accupulse 45 - Ciclo 8}}{44}{chapter.6}\protected@file@percent }
\@writefile{lot}{\contentsline {xchapter}{\textit  {HS-ICV com Accupulse 45 - Ciclo 8}}{44}{chapter.6}\protected@file@percent }
\newlabel{chap:Accupulse_geom_mesh}{{6}{44}{\textit {HS-ICV com Accupulse 45 - Ciclo 8}}{chapter.6}{}}
\@writefile{toc}{\contentsline {section}{\numberline {6.1}Geometria}{44}{section.6.1}\protected@file@percent }
\@writefile{lot}{\contentsline {table}{\numberline {6.1}{\ignorespaces Posi\IeC {\c c}\IeC {\~a}o \textit  {vs.} \IeC {\'a}rea de abertura para \textit  {HS-ICV com Accupulse 45 - Ciclo 8.}\relax }}{44}{table.caption.55}\protected@file@percent }
\newlabel{tab:posiAbert_Accupulse}{{6.1}{44}{Posição \textit {vs.} área de abertura para \textit {HS-ICV com Accupulse 45 - Ciclo 8.}\relax }{table.caption.55}{}}
\@writefile{lof}{\contentsline {figure}{\numberline {6.1}{\ignorespaces Detalhes das comunica\IeC {\c c}\IeC {\~o}es e parte m\IeC {\'o}vel interna da v\IeC {\'a}lvula multiposi\IeC {\c c}\IeC {\~a}o (\textit  {Accupulse 45 - Ciclo 8}).\relax }}{45}{figure.caption.56}\protected@file@percent }
\newlabel{fig:accupulse8_detail}{{6.1}{45}{Detalhes das comunicações e parte móvel interna da válvula multiposição (\textit {Accupulse 45 - Ciclo 8}).\relax }{figure.caption.56}{}}
\newlabel{fig:accupulse8_chock_ext}{{6.2a}{45}{Detalhe da parte externa da comunicação.\relax }{figure.caption.57}{}}
\newlabel{sub@fig:accupulse8_chock_ext}{{a}{45}{Detalhe da parte externa da comunicação.\relax }{figure.caption.57}{}}
\newlabel{fig:accupulse8_chock_int}{{6.2b}{45}{Detalhe da parte interna da comunicação.\relax }{figure.caption.57}{}}
\newlabel{sub@fig:accupulse8_chock_int}{{b}{45}{Detalhe da parte interna da comunicação.\relax }{figure.caption.57}{}}
\@writefile{lof}{\contentsline {figure}{\numberline {6.2}{\ignorespaces CAD da \textit  {Acupulse - ciclo 8}.\relax }}{45}{figure.caption.57}\protected@file@percent }
\newlabel{valve_orig_accupulseciclo8}{{6.2}{45}{CAD da \textit {Acupulse - ciclo 8}.\relax }{figure.caption.57}{}}
\citation{isa75}
\@writefile{lof}{\contentsline {figure}{\numberline {6.3}{\ignorespaces V\IeC {\'a}lvula posicionada no po\IeC {\c c}o de 8,5" (\textit  {Accupulse 45 - Ciclo 8}).\relax }}{46}{figure.caption.58}\protected@file@percent }
\newlabel{fig:accupulse8_poco}{{6.3}{46}{Válvula posicionada no poço de 8,5" (\textit {Accupulse 45 - Ciclo 8}).\relax }{figure.caption.58}{}}
\@writefile{lof}{\contentsline {figure}{\numberline {6.4}{\ignorespaces Raios das entradas do anular e da coluna (\textit  {Accupulse 45 - Ciclo 8}).\relax }}{46}{figure.caption.59}\protected@file@percent }
\newlabel{fig:accupulse8_cota}{{6.4}{46}{Raios das entradas do anular e da coluna (\textit {Accupulse 45 - Ciclo 8}).\relax }{figure.caption.59}{}}
\@writefile{toc}{\contentsline {subsection}{\numberline {6.1.1}Simetria}{46}{subsection.6.1.1}\protected@file@percent }
\@writefile{toc}{\contentsline {section}{\numberline {6.2}Malha Computacional}{46}{section.6.2}\protected@file@percent }
\@writefile{lof}{\contentsline {figure}{\numberline {6.5}{\ignorespaces Representa\IeC {\c c}\IeC {\~a}o da simetria usada (\textit  {Accupulse 45 - Ciclo 8}).\relax }}{47}{figure.caption.60}\protected@file@percent }
\newlabel{fig:accupulse8_simetria}{{6.5}{47}{Representação da simetria usada (\textit {Accupulse 45 - Ciclo 8}).\relax }{figure.caption.60}{}}
\@writefile{lof}{\contentsline {figure}{\numberline {6.6}{\ignorespaces Malha computacional da v\IeC {\'a}lvula \textit  {ICV Accupulse - ciclo 8} - posi\IeC {\c c}\IeC {\~a}o 3 utilizada para baterias de simula\IeC {\c c}\IeC {\~o}es.\relax }}{47}{figure.caption.61}\protected@file@percent }
\newlabel{fig:malha_pos3_accupulse}{{6.6}{47}{Malha computacional da válvula \textit {ICV Accupulse - ciclo 8} - posição 3 utilizada para baterias de simulações.\relax }{figure.caption.61}{}}
\@writefile{lof}{\contentsline {figure}{\numberline {6.7}{\ignorespaces Malha computacional da v\IeC {\'a}lvula \textit  {ICV Accupulse - ciclo 8} - posi\IeC {\c c}\IeC {\~a}o 4 utilizada para baterias de simula\IeC {\c c}\IeC {\~o}es.\relax }}{48}{figure.caption.62}\protected@file@percent }
\newlabel{fig:malha_pos4_accupulse}{{6.7}{48}{Malha computacional da válvula \textit {ICV Accupulse - ciclo 8} - posição 4 utilizada para baterias de simulações.\relax }{figure.caption.62}{}}
\@writefile{lof}{\contentsline {figure}{\numberline {6.8}{\ignorespaces Malha computacional da v\IeC {\'a}lvula \textit  {ICV Accupulse - ciclo 8} - posi\IeC {\c c}\IeC {\~a}o 5 utilizada para baterias de simula\IeC {\c c}\IeC {\~o}es.\relax }}{48}{figure.caption.63}\protected@file@percent }
\newlabel{fig:malha_pos5_accupulse}{{6.8}{48}{Malha computacional da válvula \textit {ICV Accupulse - ciclo 8} - posição 5 utilizada para baterias de simulações.\relax }{figure.caption.63}{}}
\@writefile{lof}{\contentsline {figure}{\numberline {6.9}{\ignorespaces Malha computacional da v\IeC {\'a}lvula \textit  {ICV Accupulse - ciclo 8} - posi\IeC {\c c}\IeC {\~a}o 6 utilizada para baterias de simula\IeC {\c c}\IeC {\~o}es.\relax }}{49}{figure.caption.64}\protected@file@percent }
\newlabel{fig:malha_pos6_accupulse}{{6.9}{49}{Malha computacional da válvula \textit {ICV Accupulse - ciclo 8} - posição 6 utilizada para baterias de simulações.\relax }{figure.caption.64}{}}
\@writefile{lof}{\contentsline {figure}{\numberline {6.10}{\ignorespaces Malha computacional da v\IeC {\'a}lvula \textit  {ICV Accupulse - ciclo 8} - posi\IeC {\c c}\IeC {\~a}o 7 utilizada para baterias de simula\IeC {\c c}\IeC {\~o}es.\relax }}{49}{figure.caption.65}\protected@file@percent }
\newlabel{fig:malha_pos7_accupulse}{{6.10}{49}{Malha computacional da válvula \textit {ICV Accupulse - ciclo 8} - posição 7 utilizada para baterias de simulações.\relax }{figure.caption.65}{}}
\@writefile{lof}{\contentsline {figure}{\numberline {6.11}{\ignorespaces Malha computacional da v\IeC {\'a}lvula \textit  {ICV Accupulse - ciclo 8} - posi\IeC {\c c}\IeC {\~a}o 8 utilizada para baterias de simula\IeC {\c c}\IeC {\~o}es.\relax }}{50}{figure.caption.66}\protected@file@percent }
\newlabel{fig:malha_pos8_accupulse}{{6.11}{50}{Malha computacional da válvula \textit {ICV Accupulse - ciclo 8} - posição 8 utilizada para baterias de simulações.\relax }{figure.caption.66}{}}
\@writefile{lof}{\contentsline {figure}{\numberline {6.12}{\ignorespaces Malha computacional da v\IeC {\'a}lvula \textit  {ICV Accupulse - ciclo 8} - posi\IeC {\c c}\IeC {\~a}o 9 utilizada para baterias de simula\IeC {\c c}\IeC {\~o}es.\relax }}{50}{figure.caption.67}\protected@file@percent }
\newlabel{fig:malha_pos9_accupulse}{{6.12}{50}{Malha computacional da válvula \textit {ICV Accupulse - ciclo 8} - posição 9 utilizada para baterias de simulações.\relax }{figure.caption.67}{}}
\@writefile{lof}{\contentsline {figure}{\numberline {6.13}{\ignorespaces Malha computacional da v\IeC {\'a}lvula \textit  {ICV Accupulse - ciclo 8} - posi\IeC {\c c}\IeC {\~a}o 10 utilizada para baterias de simula\IeC {\c c}\IeC {\~o}es.\relax }}{51}{figure.caption.68}\protected@file@percent }
\newlabel{fig:malha_pos10_accupulse}{{6.13}{51}{Malha computacional da válvula \textit {ICV Accupulse - ciclo 8} - posição 10 utilizada para baterias de simulações.\relax }{figure.caption.68}{}}
\@writefile{lot}{\contentsline {table}{\numberline {6.2}{\ignorespaces \textit  {Software} de gera\IeC {\c c}\IeC {\~a}o e n\IeC {\'u}mero de elementos de cada malha gerada para \textit  {ICV Accupulse - ciclo 8}.\relax }}{51}{table.caption.69}\protected@file@percent }
\newlabel{tab:soft_nElementos_accupulse}{{6.2}{51}{\textit {Software} de geração e número de elementos de cada malha gerada para \textit {ICV Accupulse - ciclo 8}.\relax }{table.caption.69}{}}
\@writefile{lot}{\contentsline {table}{\numberline {6.3}{\ignorespaces Tabela comparativa dos Cv's experimentais e simulados para \textit  {ICV Accupulse - ciclo 8}.\relax }}{52}{table.caption.70}\protected@file@percent }
\newlabel{tab:compa_Cv_Accupulse8}{{6.3}{52}{Tabela comparativa dos Cv's experimentais e simulados para \textit {ICV Accupulse - ciclo 8}.\relax }{table.caption.70}{}}
\@writefile{lof}{\contentsline {figure}{\numberline {6.14}{\ignorespaces Gr\IeC {\'a}fico comparativo dos Cv's experimentais e simulados para Accupulse - ciclo 8.\relax }}{53}{figure.caption.71}\protected@file@percent }
\newlabel{fig:compa_Cv_Accupulse8}{{6.14}{53}{Gráfico comparativo dos Cv's experimentais e simulados para Accupulse - ciclo 8.\relax }{figure.caption.71}{}}
\@setckpt{chapters/Accupulse}{
\setcounter{page}{54}
\setcounter{equation}{0}
\setcounter{enumi}{2}
\setcounter{enumii}{0}
\setcounter{enumiii}{0}
\setcounter{enumiv}{0}
\setcounter{footnote}{0}
\setcounter{mpfootnote}{0}
\setcounter{part}{0}
\setcounter{chapter}{6}
\setcounter{section}{2}
\setcounter{subsection}{0}
\setcounter{subsubsection}{0}
\setcounter{paragraph}{0}
\setcounter{subparagraph}{0}
\setcounter{figure}{14}
\setcounter{table}{3}
\setcounter{parentequation}{0}
\setcounter{caption@flags}{0}
\setcounter{continuedfloat}{0}
\setcounter{subfigure}{0}
\setcounter{subtable}{0}
\setcounter{lstnumber}{1}
\setcounter{mtc}{6}
\setcounter{minitocdepth}{1}
\setcounter{ptc}{0}
\setcounter{parttocdepth}{2}
\setcounter{Item}{9}
\setcounter{Hfootnote}{0}
\setcounter{bookmark@seq@number}{26}
\setcounter{ABCIaux}{0}
\setcounter{ABCImax}{0}
\setcounter{FancyVerbLine}{0}
\setcounter{linenumber}{1}
\setcounter{LN@truepage}{59}
\setcounter{FV@TrueTabGroupLevel}{0}
\setcounter{FV@TrueTabCounter}{0}
\setcounter{FV@HighlightLinesStart}{0}
\setcounter{FV@HighlightLinesStop}{0}
\setcounter{FancyVerbLineBreakLast}{0}
\setcounter{float@type}{16}
\setcounter{minted@FancyVerbLineTemp}{0}
\setcounter{minted@pygmentizecounter}{0}
\setcounter{listing}{0}
\setcounter{mdf@globalstyle@cnt}{0}
\setcounter{mdfcountframes}{0}
\setcounter{mdf@env@i}{0}
\setcounter{mdf@env@ii}{0}
\setcounter{mdf@zref@counter}{0}
\setcounter{AM@survey}{0}
\setcounter{lstlisting}{0}
\setcounter{section@level}{1}
}
