\relax 
\providecommand\hyper@newdestlabel[2]{}
\providecommand\zref@newlabel[2]{}
\@writefile{toc}{\contentsline {chapter}{\numberline {7}\textit  {ICV Accupulse - On-Off} da \textit  {Halliburton}}{54}{chapter.7}\protected@file@percent }
\@writefile{lof}{\addvspace {10\p@ }}
\@writefile{lot}{\addvspace {10\p@ }}
\@writefile{lof}{\contentsline {xchapter}{\textit  {ICV Accupulse - On-Off} da \textit  {Halliburton}}{54}{chapter.7}\protected@file@percent }
\@writefile{lot}{\contentsline {xchapter}{\textit  {ICV Accupulse - On-Off} da \textit  {Halliburton}}{54}{chapter.7}\protected@file@percent }
\newlabel{chap:Accupulse_geo_mesh_onoff}{{7}{54}{\textit {ICV Accupulse - On-Off} da \textit {Halliburton}}{chapter.7}{}}
\@writefile{toc}{\contentsline {section}{\numberline {7.1}Geometria}{54}{section.7.1}\protected@file@percent }
\@writefile{lof}{\contentsline {figure}{\numberline {7.1}{\ignorespaces Detalhes das comunica\IeC {\c c}\IeC {\~o}es e parte m\IeC {\'o}vel interna da v\IeC {\'a}lvula (\textit  {ICV Accupulse - On-Off}).\relax }}{54}{figure.caption.72}\protected@file@percent }
\newlabel{fig:accupulse_OnOff_detail}{{7.1}{54}{Detalhes das comunicações e parte móvel interna da válvula (\textit {ICV Accupulse - On-Off}).\relax }{figure.caption.72}{}}
\newlabel{fig:accupulse_OnOff_chock_ext}{{7.2a}{55}{Detalhe da parte externa da comunicação.\relax }{figure.caption.73}{}}
\newlabel{sub@fig:accupulse_OnOff_chock_ext}{{a}{55}{Detalhe da parte externa da comunicação.\relax }{figure.caption.73}{}}
\newlabel{fig:accupulse_OnOff_chock_int}{{7.2b}{55}{Detalhe da parte interna da comunicação.\relax }{figure.caption.73}{}}
\newlabel{sub@fig:accupulse_OnOff_chock_int}{{b}{55}{Detalhe da parte interna da comunicação.\relax }{figure.caption.73}{}}
\@writefile{lof}{\contentsline {figure}{\numberline {7.2}{\ignorespaces CAD da Acupulse - On-Off.\relax }}{55}{figure.caption.73}\protected@file@percent }
\newlabel{valve_orig_onoff_accupulse}{{7.2}{55}{CAD da Acupulse - On-Off.\relax }{figure.caption.73}{}}
\@writefile{lof}{\contentsline {figure}{\numberline {7.3}{\ignorespaces V\IeC {\'a}lvula posicionada no po\IeC {\c c}o de 8,5" (\textit  {ICV Accupulse - On-Off}).\relax }}{55}{figure.caption.74}\protected@file@percent }
\newlabel{fig:accupulse_OnOff_poco}{{7.3}{55}{Válvula posicionada no poço de 8,5" (\textit {ICV Accupulse - On-Off}).\relax }{figure.caption.74}{}}
\@writefile{lof}{\contentsline {figure}{\numberline {7.4}{\ignorespaces Raios das entradas do anular e da coluna (\textit  {ICV Accupulse - On-Off}).\relax }}{55}{figure.caption.75}\protected@file@percent }
\newlabel{fig:accupulse_OnOff_cota}{{7.4}{55}{Raios das entradas do anular e da coluna (\textit {ICV Accupulse - On-Off}).\relax }{figure.caption.75}{}}
\citation{isa75}
\@writefile{toc}{\contentsline {subsection}{\numberline {7.1.1}Simetria}{56}{subsection.7.1.1}\protected@file@percent }
\@writefile{lof}{\contentsline {figure}{\numberline {7.5}{\ignorespaces Representa\IeC {\c c}\IeC {\~a}o da simetria usada (\textit  {ICV Accupulse - On-Off}).\relax }}{56}{figure.caption.76}\protected@file@percent }
\newlabel{fig:accupulse_OnOff_simetria}{{7.5}{56}{Representação da simetria usada (\textit {ICV Accupulse - On-Off}).\relax }{figure.caption.76}{}}
\@writefile{toc}{\contentsline {section}{\numberline {7.2}Malha Computacional}{56}{section.7.2}\protected@file@percent }
\@writefile{lof}{\contentsline {figure}{\numberline {7.6}{\ignorespaces Malha computacional da v\IeC {\'a}lvula \textit  {ICV Accupulse - On-Off} utilizada para baterias de simula\IeC {\c c}\IeC {\~o}es.\relax }}{57}{figure.caption.77}\protected@file@percent }
\newlabel{fig:malha_OnOff_accupulse}{{7.6}{57}{Malha computacional da válvula \textit {ICV Accupulse - On-Off} utilizada para baterias de simulações.\relax }{figure.caption.77}{}}
\@setckpt{chapters/Accupulse_OnOff}{
\setcounter{page}{58}
\setcounter{equation}{0}
\setcounter{enumi}{2}
\setcounter{enumii}{0}
\setcounter{enumiii}{0}
\setcounter{enumiv}{0}
\setcounter{footnote}{0}
\setcounter{mpfootnote}{0}
\setcounter{part}{0}
\setcounter{chapter}{7}
\setcounter{section}{2}
\setcounter{subsection}{0}
\setcounter{subsubsection}{0}
\setcounter{paragraph}{0}
\setcounter{subparagraph}{0}
\setcounter{figure}{6}
\setcounter{table}{0}
\setcounter{parentequation}{0}
\setcounter{caption@flags}{0}
\setcounter{continuedfloat}{0}
\setcounter{subfigure}{0}
\setcounter{subtable}{0}
\setcounter{lstnumber}{1}
\setcounter{mtc}{7}
\setcounter{minitocdepth}{1}
\setcounter{ptc}{0}
\setcounter{parttocdepth}{2}
\setcounter{Item}{9}
\setcounter{Hfootnote}{0}
\setcounter{bookmark@seq@number}{30}
\setcounter{ABCIaux}{0}
\setcounter{ABCImax}{0}
\setcounter{FancyVerbLine}{0}
\setcounter{linenumber}{1}
\setcounter{LN@truepage}{63}
\setcounter{FV@TrueTabGroupLevel}{0}
\setcounter{FV@TrueTabCounter}{0}
\setcounter{FV@HighlightLinesStart}{0}
\setcounter{FV@HighlightLinesStop}{0}
\setcounter{FancyVerbLineBreakLast}{0}
\setcounter{float@type}{16}
\setcounter{minted@FancyVerbLineTemp}{0}
\setcounter{minted@pygmentizecounter}{0}
\setcounter{listing}{0}
\setcounter{mdf@globalstyle@cnt}{0}
\setcounter{mdfcountframes}{0}
\setcounter{mdf@env@i}{0}
\setcounter{mdf@env@ii}{0}
\setcounter{mdf@zref@counter}{0}
\setcounter{AM@survey}{0}
\setcounter{lstlisting}{0}
\setcounter{section@level}{1}
}
