\relax 
\providecommand\hyper@newdestlabel[2]{}
\providecommand\zref@newlabel[2]{}
\citation{holzmann}
\@writefile{toc}{\contentsline {chapter}{\numberline {G}Compara\IeC {\c c}\IeC {\~a}o entre Algortimos de Acoplamento}{xxxi}{appendix.G}\protected@file@percent }
\@writefile{lof}{\addvspace {10\p@ }}
\@writefile{lot}{\addvspace {10\p@ }}
\@writefile{lof}{\contentsline {xchapter}{Compara\IeC {\c c}\IeC {\~a}o entre Algortimos de Acoplamento}{xxxi}{appendix.G}\protected@file@percent }
\@writefile{lot}{\contentsline {xchapter}{Compara\IeC {\c c}\IeC {\~a}o entre Algortimos de Acoplamento}{xxxi}{appendix.G}\protected@file@percent }
\newlabel{apdx:algoritmos}{{G}{xxxi}{Comparação entre Algortimos de Acoplamento}{appendix.G}{}}
\@writefile{lof}{\contentsline {figure}{\numberline {G.1}{\ignorespaces Compara\IeC {\c c}\IeC {\~a}o entre regimes permanente (\texttt  {SimpleFoam}) e transiente (\texttt  {PimpleFoam}).\relax }}{xxxi}{figure.caption.229}\protected@file@percent }
\newlabel{fig:compara_regimes}{{G.1}{xxxi}{Comparação entre regimes permanente (\code {SimpleFoam}) e transiente (\code {PimpleFoam}).\relax }{figure.caption.229}{}}
\@writefile{lot}{\contentsline {table}{\numberline {G.1}{\ignorespaces Discretiza\IeC {\c c}\IeC {\~a}o dos Operadores Matem\IeC {\'a}ticos.\relax }}{xxxii}{table.caption.230}\protected@file@percent }
\newlabel{table032}{{G.1}{xxxii}{Discretização dos Operadores Matemáticos.\relax }{table.caption.230}{}}
\@setckpt{chapters/apdx_algoritmos}{
\setcounter{page}{33}
\setcounter{equation}{0}
\setcounter{enumi}{5}
\setcounter{enumii}{0}
\setcounter{enumiii}{0}
\setcounter{enumiv}{0}
\setcounter{footnote}{0}
\setcounter{mpfootnote}{0}
\setcounter{part}{0}
\setcounter{chapter}{7}
\setcounter{section}{0}
\setcounter{subsection}{0}
\setcounter{subsubsection}{0}
\setcounter{paragraph}{0}
\setcounter{subparagraph}{0}
\setcounter{figure}{1}
\setcounter{table}{1}
\setcounter{parentequation}{0}
\setcounter{caption@flags}{0}
\setcounter{continuedfloat}{0}
\setcounter{subfigure}{0}
\setcounter{subtable}{0}
\setcounter{lstnumber}{1}
\setcounter{mtc}{28}
\setcounter{minitocdepth}{1}
\setcounter{ptc}{0}
\setcounter{parttocdepth}{2}
\setcounter{Item}{14}
\setcounter{Hfootnote}{0}
\setcounter{bookmark@seq@number}{90}
\setcounter{ABCIaux}{0}
\setcounter{ABCImax}{0}
\setcounter{FancyVerbLine}{0}
\setcounter{linenumber}{1}
\setcounter{LN@truepage}{175}
\setcounter{FV@TrueTabGroupLevel}{0}
\setcounter{FV@TrueTabCounter}{0}
\setcounter{FV@HighlightLinesStart}{0}
\setcounter{FV@HighlightLinesStop}{0}
\setcounter{FancyVerbLineBreakLast}{0}
\setcounter{float@type}{16}
\setcounter{minted@FancyVerbLineTemp}{0}
\setcounter{minted@pygmentizecounter}{0}
\setcounter{listing}{0}
\setcounter{mdf@globalstyle@cnt}{0}
\setcounter{mdfcountframes}{0}
\setcounter{mdf@env@i}{0}
\setcounter{mdf@env@ii}{0}
\setcounter{mdf@zref@counter}{0}
\setcounter{AM@survey}{0}
\setcounter{lstlisting}{0}
\setcounter{section@level}{1}
}
