\relax 
\providecommand\hyper@newdestlabel[2]{}
\providecommand\zref@newlabel[2]{}
\@writefile{toc}{\contentsline {chapter}{\numberline {F}Varia\IeC {\c c}\IeC {\~a}o da configura\IeC {\c c}\IeC {\~a}o num\IeC {\'e}rica - estudo de impacto}{xxvii}{appendix.F}\protected@file@percent }
\@writefile{lof}{\addvspace {10\p@ }}
\@writefile{lot}{\addvspace {10\p@ }}
\@writefile{lof}{\contentsline {xchapter}{Varia\IeC {\c c}\IeC {\~a}o da configura\IeC {\c c}\IeC {\~a}o num\IeC {\'e}rica - estudo de impacto}{xxvii}{appendix.F}\protected@file@percent }
\@writefile{lot}{\contentsline {xchapter}{Varia\IeC {\c c}\IeC {\~a}o da configura\IeC {\c c}\IeC {\~a}o num\IeC {\'e}rica - estudo de impacto}{xxvii}{appendix.F}\protected@file@percent }
\newlabel{apdx:esquemas}{{F}{xxvii}{Variação da configuração numérica - estudo de impacto}{appendix.F}{}}
\@writefile{lot}{\contentsline {table}{\numberline {F.1}{\ignorespaces Esquemas de discretiza\IeC {\c c}\IeC {\~a}o do divergente observados.\relax }}{xxvii}{table.caption.224}\protected@file@percent }
\newlabel{esquemaDisc}{{F.1}{xxvii}{Esquemas de discretização do divergente observados.\relax }{table.caption.224}{}}
\@writefile{lof}{\contentsline {figure}{\numberline {F.1}{\ignorespaces An\IeC {\'a}lise da converg\IeC {\^e}ncia da press\IeC {\~a}o para o m\IeC {\'e}todo \texttt  {upwind}.\relax }}{xxviii}{figure.caption.225}\protected@file@percent }
\newlabel{fig:conv_upwind}{{F.1}{xxviii}{Análise da convergência da pressão para o método \code {upwind}.\relax }{figure.caption.225}{}}
\@writefile{lof}{\contentsline {figure}{\numberline {F.2}{\ignorespaces An\IeC {\'a}lise da converg\IeC {\^e}ncia da press\IeC {\~a}o para o m\IeC {\'e}todo \texttt  {linearUpwind}.\relax }}{xxviii}{figure.caption.226}\protected@file@percent }
\newlabel{fig:conv_linUpwind}{{F.2}{xxviii}{Análise da convergência da pressão para o método \code {linearUpwind}.\relax }{figure.caption.226}{}}
\@writefile{lof}{\contentsline {figure}{\numberline {F.3}{\ignorespaces An\IeC {\'a}lise da converg\IeC {\^e}ncia da press\IeC {\~a}o para o m\IeC {\'e}todo \texttt  {Minmod}.\relax }}{xxix}{figure.caption.227}\protected@file@percent }
\newlabel{fig:conv_minmod}{{F.3}{xxix}{Análise da convergência da pressão para o método \code {Minmod}.\relax }{figure.caption.227}{}}
\@writefile{lof}{\contentsline {figure}{\numberline {F.4}{\ignorespaces Impacto da varia\IeC {\c c}\IeC {\~a}o do \textit  {setup} de operadores de discretiza\IeC {\c c}\IeC {\~a}o no $C_v$.\relax }}{xxix}{figure.caption.228}\protected@file@percent }
\newlabel{fig:CV_var}{{F.4}{xxix}{Impacto da variação do \textit {setup} de operadores de discretização no $C_v$.\relax }{figure.caption.228}{}}
\@setckpt{chapters/apdx_esquemas}{
\setcounter{page}{31}
\setcounter{equation}{0}
\setcounter{enumi}{5}
\setcounter{enumii}{0}
\setcounter{enumiii}{0}
\setcounter{enumiv}{0}
\setcounter{footnote}{0}
\setcounter{mpfootnote}{0}
\setcounter{part}{0}
\setcounter{chapter}{6}
\setcounter{section}{0}
\setcounter{subsection}{0}
\setcounter{subsubsection}{0}
\setcounter{paragraph}{0}
\setcounter{subparagraph}{0}
\setcounter{figure}{4}
\setcounter{table}{1}
\setcounter{parentequation}{0}
\setcounter{caption@flags}{0}
\setcounter{continuedfloat}{0}
\setcounter{subfigure}{0}
\setcounter{subtable}{0}
\setcounter{lstnumber}{1}
\setcounter{mtc}{27}
\setcounter{minitocdepth}{1}
\setcounter{ptc}{0}
\setcounter{parttocdepth}{2}
\setcounter{Item}{14}
\setcounter{Hfootnote}{0}
\setcounter{bookmark@seq@number}{89}
\setcounter{ABCIaux}{0}
\setcounter{ABCImax}{0}
\setcounter{FancyVerbLine}{0}
\setcounter{linenumber}{1}
\setcounter{LN@truepage}{173}
\setcounter{FV@TrueTabGroupLevel}{0}
\setcounter{FV@TrueTabCounter}{0}
\setcounter{FV@HighlightLinesStart}{0}
\setcounter{FV@HighlightLinesStop}{0}
\setcounter{FancyVerbLineBreakLast}{0}
\setcounter{float@type}{16}
\setcounter{minted@FancyVerbLineTemp}{0}
\setcounter{minted@pygmentizecounter}{0}
\setcounter{listing}{0}
\setcounter{mdf@globalstyle@cnt}{0}
\setcounter{mdfcountframes}{0}
\setcounter{mdf@env@i}{0}
\setcounter{mdf@env@ii}{0}
\setcounter{mdf@zref@counter}{0}
\setcounter{AM@survey}{0}
\setcounter{lstlisting}{0}
\setcounter{section@level}{1}
}
