\relax 
\providecommand\hyper@newdestlabel[2]{}
\providecommand\zref@newlabel[2]{}
\citation{PowerBI}
\@writefile{toc}{\contentsline {chapter}{\numberline {I}Manual para uso do Power BI}{lvi}{appendix.I}\protected@file@percent }
\@writefile{lof}{\addvspace {10\p@ }}
\@writefile{lot}{\addvspace {10\p@ }}
\@writefile{lof}{\contentsline {xchapter}{Manual para uso do Power BI}{lvi}{appendix.I}\protected@file@percent }
\@writefile{lot}{\contentsline {xchapter}{Manual para uso do Power BI}{lvi}{appendix.I}\protected@file@percent }
\newlabel{appx:powerBI}{{I}{lvi}{Manual para uso do Power BI}{appendix.I}{}}
\@writefile{toc}{\contentsline {section}{\numberline {I.1}Primeira se\IeC {\c c}\IeC {\~a}o do relat\IeC {\'o}rio ("Informa\IeC {\c c}\IeC {\~o}es gerais")}{lvi}{section.I.1}\protected@file@percent }
\@writefile{lof}{\contentsline {figure}{\numberline {I.1}{\ignorespaces P\IeC {\'a}gina inicial do relat\IeC {\'o}rio \texttt  {Power BI}.\relax }}{lvii}{figure.caption.263}\protected@file@percent }
\newlabel{fig:powerBI_principal}{{I.1}{lvii}{Página inicial do relatório \code {Power BI}.\relax }{figure.caption.263}{}}
\@writefile{lof}{\contentsline {figure}{\numberline {I.2}{\ignorespaces Se\IeC {\c c}\IeC {\~a}o de "Informa\IeC {\c c}\IeC {\~o}es gerais" do relat\IeC {\'o}rio \texttt  {Power BI}.\relax }}{lvii}{figure.caption.264}\protected@file@percent }
\newlabel{fig:powerBI_aba1}{{I.2}{lvii}{Seção de "Informações gerais" do relatório \code {Power BI}.\relax }{figure.caption.264}{}}
\@writefile{lof}{\contentsline {figure}{\numberline {I.3}{\ignorespaces Seletor do relat\IeC {\'o}rio \texttt  {Power BI}.\relax }}{lviii}{figure.caption.265}\protected@file@percent }
\newlabel{fig:powerBI_seletor}{{I.3}{lviii}{Seletor do relatório \code {Power BI}.\relax }{figure.caption.265}{}}
\@writefile{lof}{\contentsline {figure}{\numberline {I.4}{\ignorespaces Tabela de coeficientes do relat\IeC {\'o}rio \texttt  {Power BI}.\relax }}{lviii}{figure.caption.266}\protected@file@percent }
\newlabel{fig:powerBI_tabela_coeffs}{{I.4}{lviii}{Tabela de coeficientes do relatório \code {Power BI}.\relax }{figure.caption.266}{}}
\@writefile{toc}{\contentsline {section}{\numberline {I.2}Segunda se\IeC {\c c}\IeC {\~a}o do relat\IeC {\'o}rio ("Informa\IeC {\c c}\IeC {\~o}es ajuste")}{lviii}{section.I.2}\protected@file@percent }
\@writefile{lof}{\contentsline {figure}{\numberline {I.5}{\ignorespaces Gr\IeC {\'a}fico do ajuste de press\IeC {\~a}o no relat\IeC {\'o}rio \texttt  {Power BI}.\relax }}{lix}{figure.caption.267}\protected@file@percent }
\newlabel{fig:powerBI_sup_press\IeC {\~a}o}{{I.5}{lix}{Gráfico do ajuste de pressão no relatório \code {Power BI}.\relax }{figure.caption.267}{}}
\@writefile{lof}{\contentsline {figure}{\numberline {I.6}{\ignorespaces Figura da v\IeC {\'a}lvula no relat\IeC {\'o}rio \texttt  {Power BI}.\relax }}{lix}{figure.caption.268}\protected@file@percent }
\newlabel{fig:powerBI_valvula}{{I.6}{lix}{Figura da válvula no relatório \code {Power BI}.\relax }{figure.caption.268}{}}
\@writefile{lof}{\contentsline {figure}{\numberline {I.7}{\ignorespaces Se\IeC {\c c}\IeC {\~a}o de "Informa\IeC {\c c}\IeC {\~o}es ajuste" do relat\IeC {\'o}rio \texttt  {Power BI}.\relax }}{lx}{figure.caption.269}\protected@file@percent }
\newlabel{fig:powerBI_aba2}{{I.7}{lx}{Seção de "Informações ajuste" do relatório \code {Power BI}.\relax }{figure.caption.269}{}}
\@writefile{lof}{\contentsline {figure}{\numberline {I.8}{\ignorespaces Tabela de coeficientes e \texttt  {.csv}'s do relat\IeC {\'o}rio \texttt  {Power BI}.\relax }}{lx}{figure.caption.270}\protected@file@percent }
\newlabel{fig:powerBI_tabela2}{{I.8}{lx}{Tabela de coeficientes e \code {.csv}'s do relatório \code {Power BI}.\relax }{figure.caption.270}{}}
\@writefile{toc}{\contentsline {section}{\numberline {I.3}Interpolador}{lx}{section.I.3}\protected@file@percent }
\@writefile{lof}{\contentsline {figure}{\numberline {I.9}{\ignorespaces Gr\IeC {\'a}fico de MAPE \textit  {vs.} $R^2$ do relat\IeC {\'o}rio \texttt  {Power BI}.\relax }}{lxi}{figure.caption.271}\protected@file@percent }
\newlabel{fig:powerBI_mape_R2}{{I.9}{lxi}{Gráfico de MAPE \textit {vs.} $R^2$ do relatório \code {Power BI}.\relax }{figure.caption.271}{}}
\@writefile{lof}{\contentsline {figure}{\numberline {I.10}{\ignorespaces Formula\IeC {\c c}\IeC {\~a}o da press\IeC {\~a}o com vaz\IeC {\~a}o no relat\IeC {\'o}rio \texttt  {Power BI}.\relax }}{lxi}{figure.caption.272}\protected@file@percent }
\newlabel{fig:powerBI_valvula}{{I.10}{lxi}{Formulação da pressão com vazão no relatório \code {Power BI}.\relax }{figure.caption.272}{}}
\@writefile{toc}{\contentsline {section}{\numberline {I.4}Ap\IeC {\^e}ndice}{lxi}{section.I.4}\protected@file@percent }
\@writefile{lof}{\contentsline {figure}{\numberline {I.11}{\ignorespaces Se\IeC {\c c}\IeC {\~a}o do \texttt  {Power BI} em que se encontra o interpolador.\relax }}{lxii}{figure.caption.273}\protected@file@percent }
\newlabel{fig:aba_interpol}{{I.11}{lxii}{Seção do \code {Power BI} em que se encontra o interpolador.\relax }{figure.caption.273}{}}
\@writefile{lof}{\contentsline {figure}{\numberline {I.12}{\ignorespaces Selecion\IeC {\'a}veis do interpolador\relax }}{lxii}{figure.caption.274}\protected@file@percent }
\newlabel{fig:desc_interpol}{{I.12}{lxii}{Selecionáveis do interpolador\relax }{figure.caption.274}{}}
\@writefile{lof}{\contentsline {figure}{\numberline {I.13}{\ignorespaces Se\IeC {\c c}\IeC {\~a}o final da aplica\IeC {\c c}\IeC {\~a}o, em que os betas interpolados s\IeC {\~a}o expostos.\relax }}{lxiii}{figure.caption.275}\protected@file@percent }
\newlabel{fig:b_interpol}{{I.13}{lxiii}{Seção final da aplicação, em que os betas interpolados são expostos.\relax }{figure.caption.275}{}}
\@writefile{lof}{\contentsline {figure}{\numberline {I.14}{\ignorespaces Se\IeC {\c c}\IeC {\~a}o com a dedu\IeC {\c c}\IeC {\~a}o do equacionamento utilizado.\relax }}{lxiv}{figure.caption.276}\protected@file@percent }
\newlabel{fig:apendice_powerBI}{{I.14}{lxiv}{Seção com a dedução do equacionamento utilizado.\relax }{figure.caption.276}{}}
\@setckpt{chapters/apdx_PowerBI}{
\setcounter{page}{65}
\setcounter{equation}{0}
\setcounter{enumi}{5}
\setcounter{enumii}{0}
\setcounter{enumiii}{0}
\setcounter{enumiv}{0}
\setcounter{footnote}{0}
\setcounter{mpfootnote}{0}
\setcounter{part}{0}
\setcounter{chapter}{9}
\setcounter{section}{4}
\setcounter{subsection}{0}
\setcounter{subsubsection}{0}
\setcounter{paragraph}{0}
\setcounter{subparagraph}{0}
\setcounter{figure}{14}
\setcounter{table}{0}
\setcounter{parentequation}{0}
\setcounter{caption@flags}{0}
\setcounter{continuedfloat}{0}
\setcounter{subfigure}{0}
\setcounter{subtable}{0}
\setcounter{lstnumber}{1}
\setcounter{mtc}{30}
\setcounter{minitocdepth}{1}
\setcounter{ptc}{0}
\setcounter{parttocdepth}{2}
\setcounter{Item}{14}
\setcounter{Hfootnote}{0}
\setcounter{bookmark@seq@number}{114}
\setcounter{ABCIaux}{0}
\setcounter{ABCImax}{0}
\setcounter{FancyVerbLine}{0}
\setcounter{linenumber}{1}
\setcounter{LN@truepage}{207}
\setcounter{FV@TrueTabGroupLevel}{0}
\setcounter{FV@TrueTabCounter}{0}
\setcounter{FV@HighlightLinesStart}{0}
\setcounter{FV@HighlightLinesStop}{0}
\setcounter{FancyVerbLineBreakLast}{0}
\setcounter{float@type}{16}
\setcounter{minted@FancyVerbLineTemp}{0}
\setcounter{minted@pygmentizecounter}{0}
\setcounter{listing}{0}
\setcounter{mdf@globalstyle@cnt}{0}
\setcounter{mdfcountframes}{0}
\setcounter{mdf@env@i}{0}
\setcounter{mdf@env@ii}{0}
\setcounter{mdf@zref@counter}{0}
\setcounter{AM@survey}{0}
\setcounter{lstlisting}{0}
\setcounter{section@level}{1}
}
