\relax 
\providecommand\hyper@newdestlabel[2]{}
\providecommand\zref@newlabel[2]{}
\@writefile{toc}{\contentsline {chapter}{\numberline {E}Converg\IeC {\^e}ncia de malha}{xxii}{appendix.E}\protected@file@percent }
\@writefile{lof}{\addvspace {10\p@ }}
\@writefile{lot}{\addvspace {10\p@ }}
\@writefile{lof}{\contentsline {xchapter}{Converg\IeC {\^e}ncia de malha}{xxii}{appendix.E}\protected@file@percent }
\@writefile{lot}{\contentsline {xchapter}{Converg\IeC {\^e}ncia de malha}{xxii}{appendix.E}\protected@file@percent }
\newlabel{sec:mesh}{{E}{xxii}{Convergência de malha}{appendix.E}{}}
\@writefile{toc}{\contentsline {subsection}{\numberline {E.0.1}\textit  {HCM-A 45} - Posi\IeC {\c c}\IeC {\~a}o 1 - Abertura de 2\%}{xxii}{subsection.E.0.1}\protected@file@percent }
\@writefile{lot}{\contentsline {table}{\numberline {E.1}{\ignorespaces Par\IeC {\^a}metros de qualidade referentes das malhas geradas para a posi\IeC {\c c}\IeC {\~a}o 1, abertura de 2\%.\relax }}{xxii}{table.caption.216}\protected@file@percent }
\newlabel{tab:mesh_pos1}{{E.1}{xxii}{Parâmetros de qualidade referentes das malhas geradas para a posição 1, abertura de 2\%.\relax }{table.caption.216}{}}
\@writefile{toc}{\contentsline {subsection}{\numberline {E.0.2}\textit  {HCM-A 45} - Posi\IeC {\c c}\IeC {\~a}o 7 - Abertura de 82,3\%}{xxii}{subsection.E.0.2}\protected@file@percent }
\@writefile{lot}{\contentsline {table}{\numberline {E.2}{\ignorespaces Par\IeC {\^a}metros de qualidade referentes das malhas geradas para a posi\IeC {\c c}\IeC {\~a}o 7, abertura de 82,3\%.\relax }}{xxiii}{table.caption.217}\protected@file@percent }
\newlabel{tab:mesh_pos7}{{E.2}{xxiii}{Parâmetros de qualidade referentes das malhas geradas para a posição 7, abertura de 82,3\%.\relax }{table.caption.217}{}}
\@writefile{toc}{\contentsline {subsection}{\numberline {E.0.3}\textit  {ICV Halliburton - Accupulse 45 -ciclo 8} - Posi\IeC {\c c}\IeC {\~a}o 3 - Abertura de 2\%}{xxiii}{subsection.E.0.3}\protected@file@percent }
\@writefile{lot}{\contentsline {table}{\numberline {E.3}{\ignorespaces Par\IeC {\^a}metros de qualidade referentes das malhas geradas para a posi\IeC {\c c}\IeC {\~a}o 3, abertura de 2\%.\relax }}{xxiii}{table.caption.218}\protected@file@percent }
\newlabel{tab:mesh_pos3}{{E.3}{xxiii}{Parâmetros de qualidade referentes das malhas geradas para a posição 3, abertura de 2\%.\relax }{table.caption.218}{}}
\@writefile{toc}{\contentsline {subsection}{\numberline {E.0.4}\textit  {ICV Halliburton - Accupulse 45 -ciclo 8} - Posi\IeC {\c c}\IeC {\~a}o 10 - Abertura de 100\%}{xxiii}{subsection.E.0.4}\protected@file@percent }
\@writefile{lot}{\contentsline {table}{\numberline {E.4}{\ignorespaces Par\IeC {\^a}metros de qualidade referentes das malhas geradas para a posi\IeC {\c c}\IeC {\~a}o 10, abertura de 100\%.\relax }}{xxiv}{table.caption.219}\protected@file@percent }
\newlabel{tab:mesh_pos10}{{E.4}{xxiv}{Parâmetros de qualidade referentes das malhas geradas para a posição 10, abertura de 100\%.\relax }{table.caption.219}{}}
\@writefile{toc}{\contentsline {section}{\numberline {E.1}Converg\IeC {\^e}ncia de Malhas}{xxiv}{section.E.1}\protected@file@percent }
\@writefile{lot}{\contentsline {table}{\numberline {E.5}{\ignorespaces Condi\IeC {\c c}\IeC {\~o}es de contorno utilizadas para a an\IeC {\'a}lise de converg\IeC {\^e}ncia de malha.\relax }}{xxiv}{table.caption.220}\protected@file@percent }
\newlabel{tab:cc_conv}{{E.5}{xxiv}{Condições de contorno utilizadas para a análise de convergência de malha.\relax }{table.caption.220}{}}
\@writefile{lof}{\contentsline {figure}{\numberline {E.1}{\ignorespaces Esquem\IeC {\'a}tico com entradas, sa\IeC {\'\i }das e paredes do sistema.\relax }}{xxv}{figure.caption.221}\protected@file@percent }
\newlabel{fig:fronteiras_conv}{{E.1}{xxv}{Esquemático com entradas, saídas e paredes do sistema.\relax }{figure.caption.221}{}}
\@writefile{lot}{\contentsline {table}{\numberline {E.6}{\ignorespaces Discretiza\IeC {\c c}\IeC {\~a}o dos Operadores Matem\IeC {\'a}ticos.\relax }}{xxv}{table.caption.222}\protected@file@percent }
\newlabel{tab:esquemas_conv}{{E.6}{xxv}{Discretização dos Operadores Matemáticos.\relax }{table.caption.222}{}}
\@writefile{lof}{\contentsline {figure}{\numberline {E.2}{\ignorespaces Gr\IeC {\'a}fico de converg\IeC {\^e}ncia para a posi\IeC {\c c}\IeC {\~a}o 7 da v\IeC {\'a}lvula \textit  {HCM-A 45 - Baker Hughes}, abertura de 82,3\%.\relax }}{xxvi}{figure.caption.223}\protected@file@percent }
\newlabel{fig:conv_pos7}{{E.2}{xxvi}{Gráfico de convergência para a posição 7 da válvula \textit {HCM-A 45 - Baker Hughes}, abertura de 82,3\%.\relax }{figure.caption.223}{}}
\@setckpt{chapters/apdx_malha}{
\setcounter{page}{27}
\setcounter{equation}{0}
\setcounter{enumi}{5}
\setcounter{enumii}{0}
\setcounter{enumiii}{0}
\setcounter{enumiv}{0}
\setcounter{footnote}{0}
\setcounter{mpfootnote}{0}
\setcounter{part}{0}
\setcounter{chapter}{5}
\setcounter{section}{1}
\setcounter{subsection}{0}
\setcounter{subsubsection}{0}
\setcounter{paragraph}{0}
\setcounter{subparagraph}{0}
\setcounter{figure}{2}
\setcounter{table}{6}
\setcounter{parentequation}{0}
\setcounter{caption@flags}{0}
\setcounter{continuedfloat}{0}
\setcounter{subfigure}{0}
\setcounter{subtable}{0}
\setcounter{lstnumber}{1}
\setcounter{mtc}{26}
\setcounter{minitocdepth}{1}
\setcounter{ptc}{0}
\setcounter{parttocdepth}{2}
\setcounter{Item}{14}
\setcounter{Hfootnote}{0}
\setcounter{bookmark@seq@number}{88}
\setcounter{ABCIaux}{0}
\setcounter{ABCImax}{0}
\setcounter{FancyVerbLine}{0}
\setcounter{linenumber}{1}
\setcounter{LN@truepage}{169}
\setcounter{FV@TrueTabGroupLevel}{0}
\setcounter{FV@TrueTabCounter}{0}
\setcounter{FV@HighlightLinesStart}{0}
\setcounter{FV@HighlightLinesStop}{0}
\setcounter{FancyVerbLineBreakLast}{0}
\setcounter{float@type}{16}
\setcounter{minted@FancyVerbLineTemp}{0}
\setcounter{minted@pygmentizecounter}{0}
\setcounter{listing}{0}
\setcounter{mdf@globalstyle@cnt}{0}
\setcounter{mdfcountframes}{0}
\setcounter{mdf@env@i}{0}
\setcounter{mdf@env@ii}{0}
\setcounter{mdf@zref@counter}{0}
\setcounter{AM@survey}{0}
\setcounter{lstlisting}{0}
\setcounter{section@level}{1}
}
