\relax 
\providecommand\hyper@newdestlabel[2]{}
\providecommand\zref@newlabel[2]{}
\@writefile{toc}{\contentsline {chapter}{\numberline {A}Insumos}{ii}{appendix.A}\protected@file@percent }
\@writefile{lof}{\addvspace {10\p@ }}
\@writefile{lot}{\addvspace {10\p@ }}
\@writefile{lof}{\contentsline {xchapter}{Insumos}{ii}{appendix.A}\protected@file@percent }
\@writefile{lot}{\contentsline {xchapter}{Insumos}{ii}{appendix.A}\protected@file@percent }
\newlabel{chap:insumos}{{A}{ii}{Insumos}{appendix.A}{}}
\@writefile{toc}{\contentsline {section}{\numberline {A.1}Geometria}{ii}{section.A.1}\protected@file@percent }
\@writefile{toc}{\contentsline {subsection}{\numberline {A.1.1}\textit  {HCM-A 45 - Baker Hughes}}{ii}{subsection.A.1.1}\protected@file@percent }
\@writefile{lof}{\contentsline {figure}{\numberline {A.1}{\ignorespaces Informa\IeC {\c c}\IeC {\~o}es sobre as posi\IeC {\c c}\IeC {\~o}es da v\IeC {\'a}lvula \textit  {HCM-A 45} da \textit  {Baker Hughes}, como fornecido pela companhia de servi\IeC {\c c}o.\relax }}{ii}{figure.caption.190}\protected@file@percent }
\newlabel{fig:insumos_geom_2}{{A.1}{ii}{Informações sobre as posições da válvula \textit {HCM-A 45} da \textit {Baker Hughes}, como fornecido pela companhia de serviço.\relax }{figure.caption.190}{}}
\@writefile{lof}{\contentsline {figure}{\numberline {A.2}{\ignorespaces Imagen do CAD da \textit  {HCM-A 45} da \textit  {Baker Hughes} como fornecido pela companhia de servi\IeC {\c c}o.\relax }}{iii}{figure.caption.191}\protected@file@percent }
\newlabel{fig:insumos_geom_1}{{A.2}{iii}{Imagen do CAD da \textit {HCM-A 45} da \textit {Baker Hughes} como fornecido pela companhia de serviço.\relax }{figure.caption.191}{}}
\@writefile{toc}{\contentsline {subsection}{\numberline {A.1.2}\textit  {ICV-HS Accupulse 45 - ciclo 8 - Halliburton}}{iii}{subsection.A.1.2}\protected@file@percent }
\@writefile{toc}{\contentsline {subsection}{\numberline {A.1.3}\textit  {HS-ICV On-Off 45 - Halliburton}}{iii}{subsection.A.1.3}\protected@file@percent }
\@writefile{lof}{\contentsline {figure}{\numberline {A.3}{\ignorespaces Informa\IeC {\c c}\IeC {\~o}es sobre as posi\IeC {\c c}\IeC {\~o}es da v\IeC {\'a}lvula \textit  {ICV-HS Accupulse 45 - ciclo 8}, como fornecido pela companhia de servi\IeC {\c c}o.\relax }}{iv}{figure.caption.192}\protected@file@percent }
\newlabel{fig:insumos_geom_1_accupulse8}{{A.3}{iv}{Informações sobre as posições da válvula \textit {ICV-HS Accupulse 45 - ciclo 8}, como fornecido pela companhia de serviço.\relax }{figure.caption.192}{}}
\@writefile{toc}{\contentsline {subsection}{\numberline {A.1.4}\textit  {SSV - Halliburton}}{iv}{subsection.A.1.4}\protected@file@percent }
\@writefile{toc}{\contentsline {section}{\numberline {A.2}Propriedades dos fluidos}{iv}{section.A.2}\protected@file@percent }
\@writefile{lof}{\contentsline {figure}{\numberline {A.4}{\ignorespaces Informa\IeC {\c c}\IeC {\~o}es sobre as posi\IeC {\c c}\IeC {\~o}es da v\IeC {\'a}lvula \textit  {HS-ICV On-Off 45 - Halliburton}, como fornecido pela companhia de servi\IeC {\c c}o.\relax }}{v}{figure.caption.193}\protected@file@percent }
\newlabel{fig:insumos_geom_1_accupulse_onoff}{{A.4}{v}{Informações sobre as posições da válvula \textit {HS-ICV On-Off 45 - Halliburton}, como fornecido pela companhia de serviço.\relax }{figure.caption.193}{}}
\citation{SciPy}
\@writefile{lof}{\contentsline {figure}{\numberline {A.5}{\ignorespaces Informa\IeC {\c c}\IeC {\~o}es sobre as posi\IeC {\c c}\IeC {\~o}es da v\IeC {\'a}lvula \textit  {SSV - Halliburton}, como fornecido pela companhia de servi\IeC {\c c}o.\relax }}{vi}{figure.caption.194}\protected@file@percent }
\newlabel{fig:insumos_geom_1_SSV}{{A.5}{vi}{Informações sobre as posições da válvula \textit {SSV - Halliburton}, como fornecido pela companhia de serviço.\relax }{figure.caption.194}{}}
\newlabel{eq:extrap_gas}{{A.1}{vi}{Propriedades dos fluidos}{equation.A.2.1}{}}
\@writefile{lof}{\contentsline {figure}{\numberline {A.6}{\ignorespaces Imagem do \texttt  {Microsoft Teams}, onde foi enviado as propriedades do \IeC {\'o}leo.\relax }}{vii}{figure.caption.195}\protected@file@percent }
\newlabel{fig:insumos_propoleo}{{A.6}{vii}{Imagem do \code {Microsoft Teams}, onde foi enviado as propriedades do óleo.\relax }{figure.caption.195}{}}
\@writefile{lof}{\contentsline {figure}{\numberline {A.7}{\ignorespaces Imagem do \textit  {slide} contendo os insumos sobre propriedades da \IeC {\'a}gua, como fornecido pela companhia de servi\IeC {\c c}o.\relax }}{vii}{figure.caption.196}\protected@file@percent }
\newlabel{fig:insumos_agua}{{A.7}{vii}{Imagem do \textit {slide} contendo os insumos sobre propriedades da água, como fornecido pela companhia de serviço.\relax }{figure.caption.196}{}}
\@writefile{lof}{\contentsline {figure}{\numberline {A.8}{\ignorespaces Imagem do \textit  {slide} contendo os insumos sobre propriedades do g\IeC {\'a}s, como fornecido pela companhia de servi\IeC {\c c}o.\relax }}{viii}{figure.caption.197}\protected@file@percent }
\newlabel{fig:arquivo_tab}{{A.8}{viii}{Imagem do \textit {slide} contendo os insumos sobre propriedades do gás, como fornecido pela companhia de serviço.\relax }{figure.caption.197}{}}
\@writefile{lof}{\contentsline {figure}{\numberline {A.9}{\ignorespaces Gr\IeC {\'a}fico da condutividade t\IeC {\'e}rmica gerado pelo c\IeC {\'o}digo de leitura.\relax }}{viii}{figure.caption.198}\protected@file@percent }
\newlabel{fig:kappa_tab}{{A.9}{viii}{Gráfico da condutividade térmica gerado pelo código de leitura.\relax }{figure.caption.198}{}}
\@writefile{lof}{\contentsline {figure}{\numberline {A.10}{\ignorespaces Gr\IeC {\'a}fico da entalpia gerado pelo c\IeC {\'o}digo de leitura.\relax }}{ix}{figure.caption.199}\protected@file@percent }
\newlabel{fig:H_tab}{{A.10}{ix}{Gráfico da entalpia gerado pelo código de leitura.\relax }{figure.caption.199}{}}
\@writefile{lof}{\contentsline {figure}{\numberline {A.11}{\ignorespaces Gr\IeC {\'a}fico do calor espec\IeC {\'\i }fico a press\IeC {\~a}o constante gerado pelo c\IeC {\'o}digo de leitura.\relax }}{ix}{figure.caption.200}\protected@file@percent }
\newlabel{fig:Cp_tab}{{A.11}{ix}{Gráfico do calor específico a pressão constante gerado pelo código de leitura.\relax }{figure.caption.200}{}}
\@writefile{lof}{\contentsline {figure}{\numberline {A.12}{\ignorespaces Gr\IeC {\'a}fico da viscosidade gerado pelo c\IeC {\'o}digo de leitura.\relax }}{x}{figure.caption.201}\protected@file@percent }
\newlabel{fig:mu_tab}{{A.12}{x}{Gráfico da viscosidade gerado pelo código de leitura.\relax }{figure.caption.201}{}}
\@writefile{lof}{\contentsline {figure}{\numberline {A.13}{\ignorespaces Gr\IeC {\'a}fico da densidade gerado pelo c\IeC {\'o}digo de leitura.\relax }}{x}{figure.caption.202}\protected@file@percent }
\newlabel{fig:rho_tab}{{A.13}{x}{Gráfico da densidade gerado pelo código de leitura.\relax }{figure.caption.202}{}}
\@writefile{lof}{\contentsline {figure}{\numberline {A.14}{\ignorespaces Gr\IeC {\'a}ficos de derivadas da densidade com a press\IeC {\~a}o e com a temperatura gerados pelo c\IeC {\'o}digo de leitura.\relax }}{xi}{figure.caption.203}\protected@file@percent }
\newlabel{fig:dRho_p_tab}{{A.14}{xi}{Gráficos de derivadas da densidade com a pressão e com a temperatura gerados pelo código de leitura.\relax }{figure.caption.203}{}}
\@writefile{lof}{\contentsline {figure}{\numberline {A.15}{\ignorespaces Imagem gerada pelo \textit  {script} de extrapola\IeC {\c c}\IeC {\~a}o dos dados tabelados.\relax }}{xi}{figure.caption.204}\protected@file@percent }
\newlabel{fig:extrapolacao_tab}{{A.15}{xi}{Imagem gerada pelo \textit {script} de extrapolação dos dados tabelados.\relax }{figure.caption.204}{}}
\@writefile{toc}{\contentsline {section}{\numberline {A.3}Vaz\IeC {\~o}es}{xi}{section.A.3}\protected@file@percent }
\@writefile{lot}{\contentsline {table}{\numberline {A.1}{\ignorespaces Qualidade dos ajustes de propriedades extrapoladas para os gases.\relax }}{xii}{table.caption.205}\protected@file@percent }
\newlabel{tab:R2_ajustes}{{A.1}{xii}{Qualidade dos ajustes de propriedades extrapoladas para os gases.\relax }{table.caption.205}{}}
\@writefile{lof}{\contentsline {figure}{\numberline {A.16}{\ignorespaces Imagem do \textit  {slide} contendo os insumos sobre vaz\IeC {\~a}o m\IeC {\'\i }nima e m\IeC {\'a}xima, como fornecido pela companhia de servi\IeC {\c c}o.\relax }}{xii}{figure.caption.206}\protected@file@percent }
\newlabel{fig:insumos_vazao}{{A.16}{xii}{Imagem do \textit {slide} contendo os insumos sobre vazão mínima e máxima, como fornecido pela companhia de serviço.\relax }{figure.caption.206}{}}
\@setckpt{chapters/apdx_insumos}{
\setcounter{page}{13}
\setcounter{equation}{1}
\setcounter{enumi}{5}
\setcounter{enumii}{0}
\setcounter{enumiii}{0}
\setcounter{enumiv}{0}
\setcounter{footnote}{0}
\setcounter{mpfootnote}{0}
\setcounter{part}{0}
\setcounter{chapter}{1}
\setcounter{section}{3}
\setcounter{subsection}{0}
\setcounter{subsubsection}{0}
\setcounter{paragraph}{0}
\setcounter{subparagraph}{0}
\setcounter{figure}{16}
\setcounter{table}{1}
\setcounter{parentequation}{0}
\setcounter{caption@flags}{0}
\setcounter{continuedfloat}{0}
\setcounter{subfigure}{0}
\setcounter{subtable}{0}
\setcounter{lstnumber}{1}
\setcounter{mtc}{22}
\setcounter{minitocdepth}{1}
\setcounter{ptc}{0}
\setcounter{parttocdepth}{2}
\setcounter{Item}{14}
\setcounter{Hfootnote}{0}
\setcounter{bookmark@seq@number}{79}
\setcounter{ABCIaux}{0}
\setcounter{ABCImax}{0}
\setcounter{FancyVerbLine}{0}
\setcounter{linenumber}{1}
\setcounter{LN@truepage}{155}
\setcounter{FV@TrueTabGroupLevel}{0}
\setcounter{FV@TrueTabCounter}{0}
\setcounter{FV@HighlightLinesStart}{0}
\setcounter{FV@HighlightLinesStop}{0}
\setcounter{FancyVerbLineBreakLast}{0}
\setcounter{float@type}{16}
\setcounter{minted@FancyVerbLineTemp}{0}
\setcounter{minted@pygmentizecounter}{0}
\setcounter{listing}{0}
\setcounter{mdf@globalstyle@cnt}{0}
\setcounter{mdfcountframes}{0}
\setcounter{mdf@env@i}{0}
\setcounter{mdf@env@ii}{0}
\setcounter{mdf@zref@counter}{0}
\setcounter{AM@survey}{0}
\setcounter{lstlisting}{0}
\setcounter{section@level}{1}
}
