\relax 
\providecommand\hyper@newdestlabel[2]{}
\providecommand\zref@newlabel[2]{}
\citation{fox2020fox}
\@writefile{toc}{\contentsline {chapter}{\numberline {B}No\IeC {\c c}\IeC {\~o}es e defini\IeC {\c c}\IeC {\~o}es b\IeC {\'a}sicas de medidas de press\IeC {\~o}es}{xiii}{appendix.B}\protected@file@percent }
\@writefile{lof}{\addvspace {10\p@ }}
\@writefile{lot}{\addvspace {10\p@ }}
\@writefile{lof}{\contentsline {xchapter}{No\IeC {\c c}\IeC {\~o}es e defini\IeC {\c c}\IeC {\~o}es b\IeC {\'a}sicas de medidas de press\IeC {\~o}es}{xiii}{appendix.B}\protected@file@percent }
\@writefile{lot}{\contentsline {xchapter}{No\IeC {\c c}\IeC {\~o}es e defini\IeC {\c c}\IeC {\~o}es b\IeC {\'a}sicas de medidas de press\IeC {\~o}es}{xiii}{appendix.B}\protected@file@percent }
\newlabel{apdx:basico}{{B}{xiii}{Noções e definições básicas de medidas de pressões}{appendix.B}{}}
\newlabel{eq:berna}{{B.2}{xiii}{Noções e definições básicas de medidas de pressões}{equation.B.0.2}{}}
\newlabel{fig:fox1_a}{{B.1a}{xiv}{Tomada de pressão na parede.\relax }{figure.caption.207}{}}
\newlabel{sub@fig:fox1_a}{{a}{xiv}{Tomada de pressão na parede.\relax }{figure.caption.207}{}}
\newlabel{fig:fox1_b}{{B.1b}{xiv}{Sonda de pressão estática.\relax }{figure.caption.207}{}}
\newlabel{sub@fig:fox1_b}{{b}{xiv}{Sonda de pressão estática.\relax }{figure.caption.207}{}}
\@writefile{lof}{\contentsline {figure}{\numberline {B.1}{\ignorespaces Medi\IeC {\c c}\IeC {\~a}o da press\IeC {\~a}o est\IeC {\'a}tica.\relax }}{xiv}{figure.caption.207}\protected@file@percent }
\newlabel{fig:fox}{{B.1}{xiv}{Medição da pressão estática.\relax }{figure.caption.207}{}}
\newlabel{eq:estag}{{B.3}{xiv}{Noções e definições básicas de medidas de pressões}{equation.B.0.3}{}}
\newlabel{eq:estag_def}{{B.4}{xiv}{Noções e definições básicas de medidas de pressões}{equation.B.0.4}{}}
\newlabel{eq:estag_def_final}{{B.5}{xiv}{Noções e definições básicas de medidas de pressões}{equation.B.0.5}{}}
\@setckpt{chapters/apdx_pressoes}{
\setcounter{page}{15}
\setcounter{equation}{5}
\setcounter{enumi}{5}
\setcounter{enumii}{0}
\setcounter{enumiii}{0}
\setcounter{enumiv}{0}
\setcounter{footnote}{0}
\setcounter{mpfootnote}{0}
\setcounter{part}{0}
\setcounter{chapter}{2}
\setcounter{section}{0}
\setcounter{subsection}{0}
\setcounter{subsubsection}{0}
\setcounter{paragraph}{0}
\setcounter{subparagraph}{0}
\setcounter{figure}{1}
\setcounter{table}{0}
\setcounter{parentequation}{0}
\setcounter{caption@flags}{0}
\setcounter{continuedfloat}{0}
\setcounter{subfigure}{2}
\setcounter{subtable}{0}
\setcounter{lstnumber}{1}
\setcounter{mtc}{23}
\setcounter{minitocdepth}{1}
\setcounter{ptc}{0}
\setcounter{parttocdepth}{2}
\setcounter{Item}{14}
\setcounter{Hfootnote}{0}
\setcounter{bookmark@seq@number}{80}
\setcounter{ABCIaux}{0}
\setcounter{ABCImax}{0}
\setcounter{FancyVerbLine}{0}
\setcounter{linenumber}{1}
\setcounter{LN@truepage}{157}
\setcounter{FV@TrueTabGroupLevel}{0}
\setcounter{FV@TrueTabCounter}{0}
\setcounter{FV@HighlightLinesStart}{0}
\setcounter{FV@HighlightLinesStop}{0}
\setcounter{FancyVerbLineBreakLast}{0}
\setcounter{float@type}{16}
\setcounter{minted@FancyVerbLineTemp}{0}
\setcounter{minted@pygmentizecounter}{0}
\setcounter{listing}{0}
\setcounter{mdf@globalstyle@cnt}{0}
\setcounter{mdfcountframes}{0}
\setcounter{mdf@env@i}{0}
\setcounter{mdf@env@ii}{0}
\setcounter{mdf@zref@counter}{0}
\setcounter{AM@survey}{0}
\setcounter{lstlisting}{0}
\setcounter{section@level}{1}
}
