\relax 
\providecommand\hyper@newdestlabel[2]{}
\providecommand\zref@newlabel[2]{}
\@writefile{toc}{\contentsline {chapter}{\numberline {C}Propaga\IeC {\c c}\IeC {\~a}o dos desvios padr\IeC {\~o}es dos m\IeC {\'e}todos de an\IeC {\'a}lise}{xv}{appendix.C}\protected@file@percent }
\@writefile{lof}{\addvspace {10\p@ }}
\@writefile{lot}{\addvspace {10\p@ }}
\@writefile{lof}{\contentsline {xchapter}{Propaga\IeC {\c c}\IeC {\~a}o dos desvios padr\IeC {\~o}es dos m\IeC {\'e}todos de an\IeC {\'a}lise}{xv}{appendix.C}\protected@file@percent }
\@writefile{lot}{\contentsline {xchapter}{Propaga\IeC {\c c}\IeC {\~a}o dos desvios padr\IeC {\~o}es dos m\IeC {\'e}todos de an\IeC {\'a}lise}{xv}{appendix.C}\protected@file@percent }
\newlabel{chap:propaga}{{C}{xv}{Propagação dos desvios padrões dos métodos de análise}{appendix.C}{}}
\newlabel{eq:expansao_K}{{C.1}{xv}{Propagação dos desvios padrões dos métodos de análise}{equation.C.0.1}{}}
\newlabel{prop_termo_linear}{{C.2}{xv}{Propagação dos desvios padrões dos métodos de análise}{equation.C.0.2}{}}
\newlabel{eq:apdx_K}{{C.3}{xvi}{Propagação dos desvios padrões dos métodos de análise}{equation.C.0.3}{}}
\newlabel{eq:DeltaP_expansao_k}{{C.4}{xvi}{Propagação dos desvios padrões dos métodos de análise}{equation.C.0.4}{}}
\newlabel{prop_deltap_direto}{{C.7}{xvi}{Propagação dos desvios padrões dos métodos de análise}{equation.C.0.7}{}}
\@setckpt{chapters/apdx_propag_desv}{
\setcounter{page}{17}
\setcounter{equation}{7}
\setcounter{enumi}{5}
\setcounter{enumii}{0}
\setcounter{enumiii}{0}
\setcounter{enumiv}{0}
\setcounter{footnote}{0}
\setcounter{mpfootnote}{0}
\setcounter{part}{0}
\setcounter{chapter}{3}
\setcounter{section}{0}
\setcounter{subsection}{0}
\setcounter{subsubsection}{0}
\setcounter{paragraph}{0}
\setcounter{subparagraph}{0}
\setcounter{figure}{0}
\setcounter{table}{0}
\setcounter{parentequation}{0}
\setcounter{caption@flags}{0}
\setcounter{continuedfloat}{0}
\setcounter{subfigure}{0}
\setcounter{subtable}{0}
\setcounter{lstnumber}{1}
\setcounter{mtc}{24}
\setcounter{minitocdepth}{1}
\setcounter{ptc}{0}
\setcounter{parttocdepth}{2}
\setcounter{Item}{14}
\setcounter{Hfootnote}{0}
\setcounter{bookmark@seq@number}{81}
\setcounter{ABCIaux}{0}
\setcounter{ABCImax}{0}
\setcounter{FancyVerbLine}{0}
\setcounter{linenumber}{1}
\setcounter{LN@truepage}{159}
\setcounter{FV@TrueTabGroupLevel}{0}
\setcounter{FV@TrueTabCounter}{0}
\setcounter{FV@HighlightLinesStart}{0}
\setcounter{FV@HighlightLinesStop}{0}
\setcounter{FancyVerbLineBreakLast}{0}
\setcounter{float@type}{16}
\setcounter{minted@FancyVerbLineTemp}{0}
\setcounter{minted@pygmentizecounter}{0}
\setcounter{listing}{0}
\setcounter{mdf@globalstyle@cnt}{0}
\setcounter{mdfcountframes}{0}
\setcounter{mdf@env@i}{0}
\setcounter{mdf@env@ii}{0}
\setcounter{mdf@zref@counter}{0}
\setcounter{AM@survey}{0}
\setcounter{lstlisting}{0}
\setcounter{section@level}{1}
}
