\relax 
\providecommand\hyper@newdestlabel[2]{}
\providecommand\zref@newlabel[2]{}
\@writefile{toc}{\contentsline {chapter}{\numberline {H}Resultados dos campos de velocidade e press\IeC {\~a}o}{xxxiii}{appendix.H}\protected@file@percent }
\@writefile{lof}{\addvspace {10\p@ }}
\@writefile{lot}{\addvspace {10\p@ }}
\@writefile{lof}{\contentsline {xchapter}{Resultados dos campos de velocidade e press\IeC {\~a}o}{xxxiii}{appendix.H}\protected@file@percent }
\@writefile{lot}{\contentsline {xchapter}{Resultados dos campos de velocidade e press\IeC {\~a}o}{xxxiii}{appendix.H}\protected@file@percent }
\newlabel{appx:resultados}{{H}{xxxiii}{Resultados dos campos de velocidade e pressão}{appendix.H}{}}
\@writefile{toc}{\contentsline {section}{\numberline {H.1}Resultados dos campos de velocidade e press\IeC {\~a}o para \textit  {HCM-A 45 - Baker Hughes} na produ\IeC {\c c}\IeC {\~a}o de \IeC {\'o}leo}{xxxiii}{section.H.1}\protected@file@percent }
\newlabel{sec:pU_prod_oleo_hcma}{{H.1}{xxxiii}{Resultados dos campos de velocidade e pressão para \textit {HCM-A 45 - Baker Hughes} na produção de óleo}{section.H.1}{}}
\@writefile{toc}{\contentsline {subsection}{\numberline {H.1.1}Campos de velocidade}{xxxiii}{subsection.H.1.1}\protected@file@percent }
\@writefile{lof}{\contentsline {figure}{\numberline {H.1}{\ignorespaces Campos de velocidade para a posi\IeC {\c c}\IeC {\~a}o 1 (\textit  {HCMA-A 45}).\relax }}{xxxiv}{figure.caption.231}\protected@file@percent }
\newlabel{fig:pos1_campos_U_hcma_oil}{{H.1}{xxxiv}{Campos de velocidade para a posição 1 (\textit {HCMA-A 45}).\relax }{figure.caption.231}{}}
\@writefile{lof}{\contentsline {figure}{\numberline {H.2}{\ignorespaces Campos de velocidade para a posi\IeC {\c c}\IeC {\~a}o 7 (\textit  {HCMA-A 45}).\relax }}{xxxiv}{figure.caption.232}\protected@file@percent }
\newlabel{fig:pos7_campos_U_hcma_oil}{{H.2}{xxxiv}{Campos de velocidade para a posição 7 (\textit {HCMA-A 45}).\relax }{figure.caption.232}{}}
\@writefile{lof}{\contentsline {figure}{\numberline {H.3}{\ignorespaces Campos de velocidade para a posi\IeC {\c c}\IeC {\~a}o 7 da \textit  {HCMA-A 45}, comparando a produ\IeC {\c c}\IeC {\~a}o de dois \IeC {\'o}leos distintos.\relax }}{xxxv}{figure.caption.233}\protected@file@percent }
\newlabel{fig:pos7_campos_U_comparativo}{{H.3}{xxxv}{Campos de velocidade para a posição 7 da \textit {HCMA-A 45}, comparando a produção de dois óleos distintos.\relax }{figure.caption.233}{}}
\@writefile{toc}{\contentsline {subsection}{\numberline {H.1.2}Campos de press\IeC {\~a}o}{xxxv}{subsection.H.1.2}\protected@file@percent }
\@writefile{lof}{\contentsline {figure}{\numberline {H.4}{\ignorespaces Campos de press\IeC {\~a}o para a posi\IeC {\c c}\IeC {\~a}o 1 (\textit  {HCMA-A 45}).\relax }}{xxxvi}{figure.caption.234}\protected@file@percent }
\newlabel{fig:pos1_campos_p}{{H.4}{xxxvi}{Campos de pressão para a posição 1 (\textit {HCMA-A 45}).\relax }{figure.caption.234}{}}
\@writefile{lof}{\contentsline {figure}{\numberline {H.5}{\ignorespaces Campos de press\IeC {\~a}o para a posi\IeC {\c c}\IeC {\~a}o 7 (\textit  {HCMA-A 45}).\relax }}{xxxvii}{figure.caption.235}\protected@file@percent }
\newlabel{fig:pos7_campos_p}{{H.5}{xxxvii}{Campos de pressão para a posição 7 (\textit {HCMA-A 45}).\relax }{figure.caption.235}{}}
\@writefile{lof}{\contentsline {figure}{\numberline {H.6}{\ignorespaces Campos de press\IeC {\~a}o para a posi\IeC {\c c}\IeC {\~a}o 7 da \textit  {HCM-A 45}, comparando a produ\IeC {\c c}\IeC {\~a}o de dois \IeC {\'o}leos distintos.\relax }}{xxxvii}{figure.caption.236}\protected@file@percent }
\newlabel{fig:pos7_campos_p_comparativo}{{H.6}{xxxvii}{Campos de pressão para a posição 7 da \textit {HCM-A 45}, comparando a produção de dois óleos distintos.\relax }{figure.caption.236}{}}
\@writefile{toc}{\contentsline {section}{\numberline {H.2}Resultados dos campos de velocidade e press\IeC {\~a}o para \textit  {HCM-A 45 - Baker Hughes} na inje\IeC {\c c}\IeC {\~a}o de \IeC {\'a}gua}{xxxviii}{section.H.2}\protected@file@percent }
\newlabel{sec:pU_inj_agua_hcma}{{H.2}{xxxviii}{Resultados dos campos de velocidade e pressão para \textit {HCM-A 45 - Baker Hughes} na injeção de água}{section.H.2}{}}
\@writefile{toc}{\contentsline {subsection}{\numberline {H.2.1}Campos de velocidade}{xxxviii}{subsection.H.2.1}\protected@file@percent }
\@writefile{toc}{\contentsline {subsection}{\numberline {H.2.2}Campos de press\IeC {\~a}o}{xxxviii}{subsection.H.2.2}\protected@file@percent }
\@writefile{lof}{\contentsline {figure}{\numberline {H.7}{\ignorespaces Campos de velocidade na posi\IeC {\c c}\IeC {\~a}o 1 da \textit  {HCM-A 45} para inje\IeC {\c c}\IeC {\~a}o de \IeC {\'a}gua.\relax }}{xxxix}{figure.caption.237}\protected@file@percent }
\newlabel{fig:pos1_campos_U_inj_agua}{{H.7}{xxxix}{Campos de velocidade na posição 1 da \textit {HCM-A 45} para injeção de água.\relax }{figure.caption.237}{}}
\@writefile{lof}{\contentsline {figure}{\numberline {H.8}{\ignorespaces Campos de velocidade na posi\IeC {\c c}\IeC {\~a}o 7 da \textit  {HCM-A 45} para inje\IeC {\c c}\IeC {\~a}o de \IeC {\'a}gua.\relax }}{xxxix}{figure.caption.238}\protected@file@percent }
\newlabel{fig:pos7_campos_U_inj_agua}{{H.8}{xxxix}{Campos de velocidade na posição 7 da \textit {HCM-A 45} para injeção de água.\relax }{figure.caption.238}{}}
\@writefile{lof}{\contentsline {figure}{\numberline {H.9}{\ignorespaces Campos de press\IeC {\~a}o na posi\IeC {\c c}\IeC {\~a}o 1 da \textit  {HCM-A 45} para inje\IeC {\c c}\IeC {\~a}o de \IeC {\'a}gua.\relax }}{xl}{figure.caption.239}\protected@file@percent }
\newlabel{fig:pos1_campos_p_inj_agua}{{H.9}{xl}{Campos de pressão na posição 1 da \textit {HCM-A 45} para injeção de água.\relax }{figure.caption.239}{}}
\@writefile{lof}{\contentsline {figure}{\numberline {H.10}{\ignorespaces Campos de press\IeC {\~a}o na posi\IeC {\c c}\IeC {\~a}o 7 da \textit  {HCM-A 45} para inje\IeC {\c c}\IeC {\~a}o de \IeC {\'a}gua.\relax }}{xl}{figure.caption.240}\protected@file@percent }
\newlabel{fig:pos7_campos_p_inj_agua}{{H.10}{xl}{Campos de pressão na posição 7 da \textit {HCM-A 45} para injeção de água.\relax }{figure.caption.240}{}}
\@writefile{toc}{\contentsline {section}{\numberline {H.3}Resultados dos campos de velocidade e press\IeC {\~a}o para \textit  {HCM-A 45 - Baker Hughes} na inje\IeC {\c c}\IeC {\~a}o de g\IeC {\'a}s}{xli}{section.H.3}\protected@file@percent }
\newlabel{sec:pU_inj_gas_hcma}{{H.3}{xli}{Resultados dos campos de velocidade e pressão para \textit {HCM-A 45 - Baker Hughes} na injeção de gás}{section.H.3}{}}
\@writefile{toc}{\contentsline {subsection}{\numberline {H.3.1}Campos de velocidade}{xli}{subsection.H.3.1}\protected@file@percent }
\@writefile{toc}{\contentsline {subsection}{\numberline {H.3.2}Campos de press\IeC {\~a}o}{xli}{subsection.H.3.2}\protected@file@percent }
\@writefile{lof}{\contentsline {figure}{\numberline {H.11}{\ignorespaces Campos de velocidade na posi\IeC {\c c}\IeC {\~a}o 3 da \textit  {HCM-A 45} para inje\IeC {\c c}\IeC {\~a}o de g\IeC {\'a}s.\relax }}{xlii}{figure.caption.241}\protected@file@percent }
\newlabel{fig:pos3_campos_U_inj_gas}{{H.11}{xlii}{Campos de velocidade na posição 3 da \textit {HCM-A 45} para injeção de gás.\relax }{figure.caption.241}{}}
\@writefile{lof}{\contentsline {figure}{\numberline {H.12}{\ignorespaces Campos de velocidade na posi\IeC {\c c}\IeC {\~a}o 7 da \textit  {HCM-A 45} para inje\IeC {\c c}\IeC {\~a}o de g\IeC {\'a}s.\relax }}{xlii}{figure.caption.242}\protected@file@percent }
\newlabel{fig:pos7_campos_U_inj_gas}{{H.12}{xlii}{Campos de velocidade na posição 7 da \textit {HCM-A 45} para injeção de gás.\relax }{figure.caption.242}{}}
\@writefile{lof}{\contentsline {figure}{\numberline {H.13}{\ignorespaces Compara\IeC {\c c}\IeC {\~a}o dos campos de velocidade na posi\IeC {\c c}\IeC {\~a}o 1 da H\textit  {CM-A 45} para inje\IeC {\c c}\IeC {\~a}o de \IeC {\'a}gua e g\IeC {\'a}s.\relax }}{xliii}{figure.caption.243}\protected@file@percent }
\newlabel{fig:Compare_pos1_campos_U_inj_gas_agua}{{H.13}{xliii}{Comparação dos campos de velocidade na posição 1 da H\textit {CM-A 45} para injeção de água e gás.\relax }{figure.caption.243}{}}
\@writefile{toc}{\contentsline {section}{\numberline {H.4}Resultados dos campos de velocidade e press\IeC {\~a}o para \textit  {ICV Accupulse (ciclo 8)} na produ\IeC {\c c}\IeC {\~a}o de \IeC {\'o}leo}{xliii}{section.H.4}\protected@file@percent }
\newlabel{sec:pU_prod_oleo_accupulseC8}{{H.4}{xliii}{Resultados dos campos de velocidade e pressão para \textit {ICV Accupulse (ciclo 8)} na produção de óleo}{section.H.4}{}}
\@writefile{lof}{\contentsline {figure}{\numberline {H.14}{\ignorespaces Campos de press\IeC {\~a}o na posi\IeC {\c c}\IeC {\~a}o 3 da \textit  {HCM-A 45} para inje\IeC {\c c}\IeC {\~a}o de g\IeC {\'a}s.\relax }}{xliv}{figure.caption.244}\protected@file@percent }
\newlabel{fig:pos3_campos_p_inj_gas}{{H.14}{xliv}{Campos de pressão na posição 3 da \textit {HCM-A 45} para injeção de gás.\relax }{figure.caption.244}{}}
\@writefile{lof}{\contentsline {figure}{\numberline {H.15}{\ignorespaces Campos de press\IeC {\~a}o na posi\IeC {\c c}\IeC {\~a}o 7 da \textit  {HCM-A 45} para inje\IeC {\c c}\IeC {\~a}o de g\IeC {\'a}s.\relax }}{xliv}{figure.caption.245}\protected@file@percent }
\newlabel{fig:pos7_campos_p_inj_gas}{{H.15}{xliv}{Campos de pressão na posição 7 da \textit {HCM-A 45} para injeção de gás.\relax }{figure.caption.245}{}}
\@writefile{lof}{\contentsline {figure}{\numberline {H.16}{\ignorespaces Compara\IeC {\c c}\IeC {\~a}o dos campos de press\IeC {\~a}o da posi\IeC {\c c}\IeC {\~a}o 1 para inje\IeC {\c c}\IeC {\~a}o de \IeC {\'a}gua e g\IeC {\'a}s da \textit  {HCM-A 45}.\relax }}{xlv}{figure.caption.246}\protected@file@percent }
\newlabel{fig:Comparacao_pos1_campos_p_inj_gas_agua}{{H.16}{xlv}{Comparação dos campos de pressão da posição 1 para injeção de água e gás da \textit {HCM-A 45}.\relax }{figure.caption.246}{}}
\@writefile{toc}{\contentsline {subsection}{\numberline {H.4.1}Campos de velocidade}{xlv}{subsection.H.4.1}\protected@file@percent }
\@writefile{toc}{\contentsline {subsection}{\numberline {H.4.2}Campos de Press\IeC {\~a}o}{xlv}{subsection.H.4.2}\protected@file@percent }
\@writefile{lof}{\contentsline {figure}{\numberline {H.17}{\ignorespaces Campos de velocidades referentes a posi\IeC {\c c}\IeC {\~a}o 3 da \textit  {ICV Accupulse ciclo 8}.\relax }}{xlvi}{figure.caption.247}\protected@file@percent }
\newlabel{fig:velocidade_pos3_accupulse8}{{H.17}{xlvi}{Campos de velocidades referentes a posição 3 da \textit {ICV Accupulse ciclo 8}.\relax }{figure.caption.247}{}}
\@writefile{lof}{\contentsline {figure}{\numberline {H.18}{\ignorespaces Campos de velocidades referentes a posi\IeC {\c c}\IeC {\~a}o 10 da \textit  {ICV Accupulse ciclo 8}.\relax }}{xlvi}{figure.caption.248}\protected@file@percent }
\newlabel{fig:velocidade_pos10_accupulse8}{{H.18}{xlvi}{Campos de velocidades referentes a posição 10 da \textit {ICV Accupulse ciclo 8}.\relax }{figure.caption.248}{}}
\@writefile{lof}{\contentsline {figure}{\numberline {H.19}{\ignorespaces Campos de velocidades referentes a posi\IeC {\c c}\IeC {\~a}o 10 da \textit  {ICV Accupulse ciclo 8} comparando a produ\IeC {\c c}\IeC {\~a}o de dois \IeC {\'o}leos distintos.\relax }}{xlvii}{figure.caption.249}\protected@file@percent }
\newlabel{fig:compara_U_oleo_accupulse8}{{H.19}{xlvii}{Campos de velocidades referentes a posição 10 da \textit {ICV Accupulse ciclo 8} comparando a produção de dois óleos distintos.\relax }{figure.caption.249}{}}
\@writefile{lof}{\contentsline {figure}{\numberline {H.20}{\ignorespaces Campos de press\IeC {\~a}o referentes a produ\IeC {\c c}\IeC {\~a}o de \IeC {\'o}leo na posi\IeC {\c c}\IeC {\~a}o 3 da \textit  {ICV Accupulse ciclo 8}.\relax }}{xlvii}{figure.caption.250}\protected@file@percent }
\newlabel{fig:pressao_pos3_accupulse8}{{H.20}{xlvii}{Campos de pressão referentes a produção de óleo na posição 3 da \textit {ICV Accupulse ciclo 8}.\relax }{figure.caption.250}{}}
\@writefile{lof}{\contentsline {figure}{\numberline {H.21}{\ignorespaces Campos de press\IeC {\~a}o referentes a produ\IeC {\c c}\IeC {\~a}o de \IeC {\'o}leo na posi\IeC {\c c}\IeC {\~a}o 10 da \textit  {ICV Accupulse ciclo 8}.\relax }}{xlviii}{figure.caption.251}\protected@file@percent }
\newlabel{fig:pressao_pos10_accupulse8}{{H.21}{xlviii}{Campos de pressão referentes a produção de óleo na posição 10 da \textit {ICV Accupulse ciclo 8}.\relax }{figure.caption.251}{}}
\@writefile{toc}{\contentsline {section}{\numberline {H.5}Resultados dos campos de velocidade e press\IeC {\~a}o para \textit  {ICV Accupulse (ciclo 8)} na inje\IeC {\c c}\IeC {\~a}o de \IeC {\'a}gua}{xlviii}{section.H.5}\protected@file@percent }
\newlabel{sec:pU_inj_agua_accupulseC8}{{H.5}{xlviii}{Resultados dos campos de velocidade e pressão para \textit {ICV Accupulse (ciclo 8)} na injeção de água}{section.H.5}{}}
\@writefile{lof}{\contentsline {figure}{\numberline {H.22}{\ignorespaces Campos de press\IeC {\~a}o referentes a posi\IeC {\c c}\IeC {\~a}o 10 da \textit  {ICV Accupulse ciclo 8} comparando a produ\IeC {\c c}\IeC {\~a}o de dois \IeC {\'o}leos distintos.\relax }}{xlix}{figure.caption.252}\protected@file@percent }
\newlabel{fig:compara_p_oleo_accupulse8}{{H.22}{xlix}{Campos de pressão referentes a posição 10 da \textit {ICV Accupulse ciclo 8} comparando a produção de dois óleos distintos.\relax }{figure.caption.252}{}}
\@writefile{toc}{\contentsline {subsection}{\numberline {H.5.1}Campos de velocidade}{xlix}{subsection.H.5.1}\protected@file@percent }
\@writefile{toc}{\contentsline {subsection}{\numberline {H.5.2}Campos de press\IeC {\~a}o}{xlix}{subsection.H.5.2}\protected@file@percent }
\@writefile{lof}{\contentsline {figure}{\numberline {H.23}{\ignorespaces Campos de velocidade para inje\IeC {\c c}\IeC {\~a}o de \IeC {\'a}gua na posi\IeC {\c c}\IeC {\~a}o 3 da \textit  {ICV Accupulse ciclo 8}.\relax }}{l}{figure.caption.253}\protected@file@percent }
\newlabel{fig:pos3_accupulse8_campos_U_agua}{{H.23}{l}{Campos de velocidade para injeção de água na posição 3 da \textit {ICV Accupulse ciclo 8}.\relax }{figure.caption.253}{}}
\@writefile{lof}{\contentsline {figure}{\numberline {H.24}{\ignorespaces Campos de velocidade para inje\IeC {\c c}\IeC {\~a}o de \IeC {\'a}gua na posi\IeC {\c c}\IeC {\~a}o 10 da \textit  {ICV Accupulse ciclo 8}.\relax }}{l}{figure.caption.254}\protected@file@percent }
\newlabel{fig:pos10_accupulse8_campos_U_agua}{{H.24}{l}{Campos de velocidade para injeção de água na posição 10 da \textit {ICV Accupulse ciclo 8}.\relax }{figure.caption.254}{}}
\@writefile{lof}{\contentsline {figure}{\numberline {H.25}{\ignorespaces Campos de press\IeC {\~a}o para inje\IeC {\c c}\IeC {\~a}o de \IeC {\'a}gua na posi\IeC {\c c}\IeC {\~a}o 3 da \textit  {ICV Accupulse ciclo 8}.\relax }}{li}{figure.caption.255}\protected@file@percent }
\newlabel{fig:pos3_accupulse8_campos_p_agua}{{H.25}{li}{Campos de pressão para injeção de água na posição 3 da \textit {ICV Accupulse ciclo 8}.\relax }{figure.caption.255}{}}
\@writefile{lof}{\contentsline {figure}{\numberline {H.26}{\ignorespaces Campos de press\IeC {\~a}o para inje\IeC {\c c}\IeC {\~a}o de \IeC {\'a}gua na posi\IeC {\c c}\IeC {\~a}o 10 da \textit  {ICV Accupulse ciclo 8}.\relax }}{li}{figure.caption.256}\protected@file@percent }
\newlabel{fig:pos10_accupulse8_campos_p_agua}{{H.26}{li}{Campos de pressão para injeção de água na posição 10 da \textit {ICV Accupulse ciclo 8}.\relax }{figure.caption.256}{}}
\@writefile{toc}{\contentsline {section}{\numberline {H.6}Resultados dos campos de velocidade e press\IeC {\~a}o para \textit  {ICV Accupulse (ciclo 8)} na inje\IeC {\c c}\IeC {\~a}o de g\IeC {\'a}s}{lii}{section.H.6}\protected@file@percent }
\newlabel{sec:pU_inj_gas_accupulseC8}{{H.6}{lii}{Resultados dos campos de velocidade e pressão para \textit {ICV Accupulse (ciclo 8)} na injeção de gás}{section.H.6}{}}
\@writefile{toc}{\contentsline {subsection}{\numberline {H.6.1}Campos de velocidade}{lii}{subsection.H.6.1}\protected@file@percent }
\@writefile{toc}{\contentsline {subsection}{\numberline {H.6.2}Campos de press\IeC {\~a}o}{lii}{subsection.H.6.2}\protected@file@percent }
\@writefile{lof}{\contentsline {figure}{\numberline {H.27}{\ignorespaces Campos de velocidade na posi\IeC {\c c}\IeC {\~a}o 5 da \textit  {ICV Accupulse ciclo 8} para inje\IeC {\c c}\IeC {\~a}o de g\IeC {\'a}s.\relax }}{liii}{figure.caption.257}\protected@file@percent }
\newlabel{fig:pos5_campos_U_inj_gas_accupulse}{{H.27}{liii}{Campos de velocidade na posição 5 da \textit {ICV Accupulse ciclo 8} para injeção de gás.\relax }{figure.caption.257}{}}
\@writefile{lof}{\contentsline {figure}{\numberline {H.28}{\ignorespaces Campos de velocidade na posi\IeC {\c c}\IeC {\~a}o 10 da \textit  {ICV Accupulse ciclo 8} para inje\IeC {\c c}\IeC {\~a}o de g\IeC {\'a}s.\relax }}{liii}{figure.caption.258}\protected@file@percent }
\newlabel{fig:pos10_campos_U_inj_gas_accupulse}{{H.28}{liii}{Campos de velocidade na posição 10 da \textit {ICV Accupulse ciclo 8} para injeção de gás.\relax }{figure.caption.258}{}}
\@writefile{lof}{\contentsline {figure}{\numberline {H.29}{\ignorespaces Compara\IeC {\c c}\IeC {\~a}o dos campos de velocidade na posi\IeC {\c c}\IeC {\~a}o 3 da \textit  {ICV Accupulse ciclo 8} para inje\IeC {\c c}\IeC {\~a}o de \IeC {\'a}gua e g\IeC {\'a}s.\relax }}{liv}{figure.caption.259}\protected@file@percent }
\newlabel{fig:Compare_pos3_campos_U_inj_gas_accupulse}{{H.29}{liv}{Comparação dos campos de velocidade na posição 3 da \textit {ICV Accupulse ciclo 8} para injeção de água e gás.\relax }{figure.caption.259}{}}
\@writefile{lof}{\contentsline {figure}{\numberline {H.30}{\ignorespaces Campos de press\IeC {\~a}o na posi\IeC {\c c}\IeC {\~a}o 5 da \textit  {ICV Accupulse ciclo 8} para inje\IeC {\c c}\IeC {\~a}o de g\IeC {\'a}s.\relax }}{liv}{figure.caption.260}\protected@file@percent }
\newlabel{fig:pos5_campos_p_inj_gas_accupulse}{{H.30}{liv}{Campos de pressão na posição 5 da \textit {ICV Accupulse ciclo 8} para injeção de gás.\relax }{figure.caption.260}{}}
\@writefile{lof}{\contentsline {figure}{\numberline {H.31}{\ignorespaces Campos de press\IeC {\~a}o na posi\IeC {\c c}\IeC {\~a}o 10 da \textit  {ICV Accupulse ciclo 8} para inje\IeC {\c c}\IeC {\~a}o de g\IeC {\'a}s.\relax }}{lv}{figure.caption.261}\protected@file@percent }
\newlabel{fig:pos10_campos_p_inj_gas_accupulse}{{H.31}{lv}{Campos de pressão na posição 10 da \textit {ICV Accupulse ciclo 8} para injeção de gás.\relax }{figure.caption.261}{}}
\@writefile{lof}{\contentsline {figure}{\numberline {H.32}{\ignorespaces Compara\IeC {\c c}\IeC {\~a}o dos campos de press\IeC {\~a}o na posi\IeC {\c c}\IeC {\~a}o 3 da \textit  {ICV Accupulse ciclo 8} para inje\IeC {\c c}\IeC {\~a}o de \IeC {\'a}gua e g\IeC {\'a}s.\relax }}{lv}{figure.caption.262}\protected@file@percent }
\newlabel{fig:Comparacao_pos3_campos_p_inj_gas_agua_accupulse}{{H.32}{lv}{Comparação dos campos de pressão na posição 3 da \textit {ICV Accupulse ciclo 8} para injeção de água e gás.\relax }{figure.caption.262}{}}
\@setckpt{chapters/apdx_resultados}{
\setcounter{page}{56}
\setcounter{equation}{0}
\setcounter{enumi}{5}
\setcounter{enumii}{0}
\setcounter{enumiii}{0}
\setcounter{enumiv}{0}
\setcounter{footnote}{0}
\setcounter{mpfootnote}{0}
\setcounter{part}{0}
\setcounter{chapter}{8}
\setcounter{section}{6}
\setcounter{subsection}{2}
\setcounter{subsubsection}{0}
\setcounter{paragraph}{0}
\setcounter{subparagraph}{0}
\setcounter{figure}{32}
\setcounter{table}{0}
\setcounter{parentequation}{0}
\setcounter{caption@flags}{0}
\setcounter{continuedfloat}{0}
\setcounter{subfigure}{0}
\setcounter{subtable}{0}
\setcounter{lstnumber}{1}
\setcounter{mtc}{29}
\setcounter{minitocdepth}{1}
\setcounter{ptc}{0}
\setcounter{parttocdepth}{2}
\setcounter{Item}{14}
\setcounter{Hfootnote}{0}
\setcounter{bookmark@seq@number}{109}
\setcounter{ABCIaux}{0}
\setcounter{ABCImax}{0}
\setcounter{FancyVerbLine}{0}
\setcounter{linenumber}{1}
\setcounter{LN@truepage}{198}
\setcounter{FV@TrueTabGroupLevel}{0}
\setcounter{FV@TrueTabCounter}{0}
\setcounter{FV@HighlightLinesStart}{0}
\setcounter{FV@HighlightLinesStop}{0}
\setcounter{FancyVerbLineBreakLast}{0}
\setcounter{float@type}{16}
\setcounter{minted@FancyVerbLineTemp}{0}
\setcounter{minted@pygmentizecounter}{0}
\setcounter{listing}{0}
\setcounter{mdf@globalstyle@cnt}{0}
\setcounter{mdfcountframes}{0}
\setcounter{mdf@env@i}{0}
\setcounter{mdf@env@ii}{0}
\setcounter{mdf@zref@counter}{0}
\setcounter{AM@survey}{0}
\setcounter{lstlisting}{0}
\setcounter{section@level}{2}
}
