\relax 
\providecommand\hyper@newdestlabel[2]{}
\providecommand\zref@newlabel[2]{}
\@writefile{toc}{\contentsline {chapter}{\numberline {D}Estudo da utiliza\IeC {\c c}\IeC {\~a}o da condi\IeC {\c c}\IeC {\~a}o de simetria}{xvii}{appendix.D}\protected@file@percent }
\@writefile{lof}{\addvspace {10\p@ }}
\@writefile{lot}{\addvspace {10\p@ }}
\@writefile{lof}{\contentsline {xchapter}{Estudo da utiliza\IeC {\c c}\IeC {\~a}o da condi\IeC {\c c}\IeC {\~a}o de simetria}{xvii}{appendix.D}\protected@file@percent }
\@writefile{lot}{\contentsline {xchapter}{Estudo da utiliza\IeC {\c c}\IeC {\~a}o da condi\IeC {\c c}\IeC {\~a}o de simetria}{xvii}{appendix.D}\protected@file@percent }
\newlabel{adpx:sym}{{D}{xvii}{Estudo da utilização da condição de simetria}{appendix.D}{}}
\@writefile{lof}{\contentsline {figure}{\numberline {D.1}{\ignorespaces Dom\IeC {\'\i }nio computacional com 360\IeC {\textdegree } (v\IeC {\'a}lvula \textit  {HCM-A-45 - Baker}).\relax }}{xvii}{figure.caption.208}\protected@file@percent }
\newlabel{fig:360}{{D.1}{xvii}{Domínio computacional com 360° (válvula \textit {HCM-A-45 - Baker}).\relax }{figure.caption.208}{}}
\@writefile{lof}{\contentsline {figure}{\numberline {D.2}{\ignorespaces Corte de se\IeC {\c c}\IeC {\~a}o mostrando as comunica\IeC {\c c}\IeC {\~o}es anular-coluna (v\IeC {\'a}lvula \textit  {HCM-A-45 - Baker}).\relax }}{xviii}{figure.caption.209}\protected@file@percent }
\newlabel{fig:360_2}{{D.2}{xviii}{Corte de seção mostrando as comunicações anular-coluna (válvula \textit {HCM-A-45 - Baker}).\relax }{figure.caption.209}{}}
\@writefile{lof}{\contentsline {figure}{\numberline {D.3}{\ignorespaces Gr\IeC {\'a}fico da press\IeC {\~a}o no \texttt  {inlet} ao longo das intera\IeC {\c c}\IeC {\~o}es.\relax }}{xviii}{figure.caption.210}\protected@file@percent }
\newlabel{fig:convergenge_graph_360}{{D.3}{xviii}{Gráfico da pressão no \code {inlet} ao longo das interações.\relax }{figure.caption.210}{}}
\@writefile{lof}{\contentsline {figure}{\numberline {D.4}{\ignorespaces Converg\IeC {\^e}ncia de malha da geometria com 360\IeC {\textdegree } (v\IeC {\'a}lvula \textit  {HCM-A-45 - Baker}).\relax }}{xix}{figure.caption.211}\protected@file@percent }
\newlabel{fig:converg360_especifico}{{D.4}{xix}{Convergência de malha da geometria com 360° (válvula \textit {HCM-A-45 - Baker}).\relax }{figure.caption.211}{}}
\@writefile{lof}{\contentsline {figure}{\numberline {D.5}{\ignorespaces Linhas de corrente para os casos com e sem simetria (v\IeC {\'a}lvula \textit  {HCM-A-45 - Baker}).\relax }}{xx}{figure.caption.212}\protected@file@percent }
\newlabel{fig:streamLines_360}{{D.5}{xx}{Linhas de corrente para os casos com e sem simetria (válvula \textit {HCM-A-45 - Baker}).\relax }{figure.caption.212}{}}
\@writefile{lof}{\contentsline {figure}{\numberline {D.6}{\ignorespaces Corte da regi\IeC {\~a}o anular da geometria (v\IeC {\'a}lvula \textit  {HCM-A-45 - Baker}).\relax }}{xx}{figure.caption.213}\protected@file@percent }
\newlabel{fig:360_corteANULAR}{{D.6}{xx}{Corte da região anular da geometria (válvula \textit {HCM-A-45 - Baker}).\relax }{figure.caption.213}{}}
\@writefile{lof}{\contentsline {figure}{\numberline {D.7}{\ignorespaces Campo da m\IeC {\'e}dia do campo de energia cin\IeC {\'e}tica turbulenta ao longo das \IeC {\'u}ltimas itera\IeC {\c c}\IeC {\~o}es da simula\IeC {\c c}\IeC {\~a}o (v\IeC {\'a}lvula \textit  {HCM-A-45 - Baker}).\relax }}{xxi}{figure.caption.214}\protected@file@percent }
\newlabel{fig:kmean}{{D.7}{xxi}{Campo da média do campo de energia cinética turbulenta ao longo das últimas iterações da simulação (válvula \textit {HCM-A-45 - Baker}).\relax }{figure.caption.214}{}}
\@writefile{lof}{\contentsline {figure}{\numberline {D.8}{\ignorespaces Campo de magnitude das velocidades para ambas as geometrias simuladas (v\IeC {\'a}lvula \textit  {HCM-A-45 - Baker}).\relax }}{xxi}{figure.caption.215}\protected@file@percent }
\newlabel{fig:compara_360}{{D.8}{xxi}{Campo de magnitude das velocidades para ambas as geometrias simuladas (válvula \textit {HCM-A-45 - Baker}).\relax }{figure.caption.215}{}}
\@setckpt{chapters/apdx_sym}{
\setcounter{page}{22}
\setcounter{equation}{0}
\setcounter{enumi}{5}
\setcounter{enumii}{0}
\setcounter{enumiii}{0}
\setcounter{enumiv}{0}
\setcounter{footnote}{0}
\setcounter{mpfootnote}{0}
\setcounter{part}{0}
\setcounter{chapter}{4}
\setcounter{section}{0}
\setcounter{subsection}{0}
\setcounter{subsubsection}{0}
\setcounter{paragraph}{0}
\setcounter{subparagraph}{0}
\setcounter{figure}{8}
\setcounter{table}{0}
\setcounter{parentequation}{0}
\setcounter{caption@flags}{0}
\setcounter{continuedfloat}{0}
\setcounter{subfigure}{0}
\setcounter{subtable}{0}
\setcounter{lstnumber}{1}
\setcounter{mtc}{25}
\setcounter{minitocdepth}{1}
\setcounter{ptc}{0}
\setcounter{parttocdepth}{2}
\setcounter{Item}{14}
\setcounter{Hfootnote}{0}
\setcounter{bookmark@seq@number}{82}
\setcounter{ABCIaux}{0}
\setcounter{ABCImax}{0}
\setcounter{FancyVerbLine}{0}
\setcounter{linenumber}{1}
\setcounter{LN@truepage}{164}
\setcounter{FV@TrueTabGroupLevel}{0}
\setcounter{FV@TrueTabCounter}{0}
\setcounter{FV@HighlightLinesStart}{0}
\setcounter{FV@HighlightLinesStop}{0}
\setcounter{FancyVerbLineBreakLast}{0}
\setcounter{float@type}{16}
\setcounter{minted@FancyVerbLineTemp}{0}
\setcounter{minted@pygmentizecounter}{0}
\setcounter{listing}{0}
\setcounter{mdf@globalstyle@cnt}{0}
\setcounter{mdfcountframes}{0}
\setcounter{mdf@env@i}{0}
\setcounter{mdf@env@ii}{0}
\setcounter{mdf@zref@counter}{0}
\setcounter{AM@survey}{0}
\setcounter{lstlisting}{0}
\setcounter{section@level}{1}
}
