\relax 
\providecommand\hyper@newdestlabel[2]{}
\providecommand\zref@newlabel[2]{}
\@writefile{toc}{\contentsline {chapter}{\numberline {4}Configura\IeC {\c c}\IeC {\~a}o dos casos}{27}{chapter.4}\protected@file@percent }
\@writefile{lof}{\addvspace {10\p@ }}
\@writefile{lot}{\addvspace {10\p@ }}
\@writefile{lof}{\contentsline {xchapter}{Configura\IeC {\c c}\IeC {\~a}o dos casos}{27}{chapter.4}\protected@file@percent }
\@writefile{lot}{\contentsline {xchapter}{Configura\IeC {\c c}\IeC {\~a}o dos casos}{27}{chapter.4}\protected@file@percent }
\newlabel{config}{{4}{27}{Configuração dos casos}{chapter.4}{}}
\@writefile{toc}{\contentsline {section}{\numberline {4.1}Propriedades analisadas}{27}{section.4.1}\protected@file@percent }
\@writefile{lot}{\contentsline {table}{\numberline {4.1}{\ignorespaces Propriedades dos fluidos.\relax }}{27}{table.caption.26}\protected@file@percent }
\newlabel{tab:novasProps}{{4.1}{27}{Propriedades dos fluidos.\relax }{table.caption.26}{}}
\@writefile{toc}{\contentsline {section}{\numberline {4.2}Condi\IeC {\c c}\IeC {\~o}es de Contorno}{28}{section.4.2}\protected@file@percent }
\@writefile{lof}{\contentsline {figure}{\numberline {4.1}{\ignorespaces Posicionamento das fronteiras (entradas, sa\IeC {\'\i }das e paredes) do sistema.\relax }}{28}{figure.caption.27}\protected@file@percent }
\newlabel{fig:CC}{{4.1}{28}{Posicionamento das fronteiras (entradas, saídas e paredes) do sistema.\relax }{figure.caption.27}{}}
\@writefile{lof}{\contentsline {figure}{\numberline {4.2}{\ignorespaces Esquem\IeC {\'a}tico com entradas, sa\IeC {\'\i }das e paredes do sistema para produ\IeC {\c c}\IeC {\~a}o.\relax }}{28}{figure.caption.28}\protected@file@percent }
\newlabel{fig:CC_prod}{{4.2}{28}{Esquemático com entradas, saídas e paredes do sistema para produção.\relax }{figure.caption.28}{}}
\citation{kLowReWallFunction}
\citation{nutkWallFunction}
\citation{omegaWallfunction}
\citation{Neumann2003}
\@writefile{lot}{\contentsline {table}{\numberline {4.2}{\ignorespaces Condi\IeC {\c c}\IeC {\~o}es de contorno utilizadas para as simula\IeC {\c c}\IeC {\~o}es com vaz\IeC {\~a}o nas duas entradas.\relax }}{29}{table.caption.29}\protected@file@percent }
\newlabel{tab:cc_duasEntradas}{{4.2}{29}{Condições de contorno utilizadas para as simulações com vazão nas duas entradas.\relax }{table.caption.29}{}}
\@writefile{lof}{\contentsline {figure}{\numberline {4.3}{\ignorespaces Esquem\IeC {\'a}tico com entradas, sa\IeC {\'\i }das e paredes do sistema para inje\IeC {\c c}\IeC {\~a}o.\relax }}{29}{figure.caption.30}\protected@file@percent }
\newlabel{fig:CC_inje\IeC {\c c}\IeC {\~a}o}{{4.3}{29}{Esquemático com entradas, saídas e paredes do sistema para injeção.\relax }{figure.caption.30}{}}
\@writefile{lot}{\contentsline {table}{\numberline {4.3}{\ignorespaces Condi\IeC {\c c}\IeC {\~o}es de contorno utilizadas para as simula\IeC {\c c}\IeC {\~o}es com vaz\IeC {\~a}o nas duas sa\IeC {\'\i }das.\relax }}{30}{table.caption.31}\protected@file@percent }
\newlabel{tab:CC_duasSaidas}{{4.3}{30}{Condições de contorno utilizadas para as simulações com vazão nas duas saídas.\relax }{table.caption.31}{}}
\@writefile{toc}{\contentsline {section}{\numberline {4.3}Bateria de Casos}{30}{section.4.3}\protected@file@percent }
\@writefile{lot}{\contentsline {table}{\numberline {4.4}{\ignorespaces Exemplo de bateria de simula\IeC {\c c}\IeC {\~o}es.\relax }}{31}{table.caption.32}\protected@file@percent }
\newlabel{tab:bateria_ex}{{4.4}{31}{Exemplo de bateria de simulações.\relax }{table.caption.32}{}}
\@writefile{lot}{\contentsline {table}{\numberline {4.5}{\ignorespaces Exemplo de bateria de simula\IeC {\c c}\IeC {\~o}es, para inje\IeC {\c c}\IeC {\~a}o em g\IeC {\'a}s em posi\IeC {\c c}\IeC {\~o}es fechadas.\relax }}{32}{table.caption.33}\protected@file@percent }
\newlabel{tab:bateria_gas_ex}{{4.5}{32}{Exemplo de bateria de simulações, para injeção em gás em posições fechadas.\relax }{table.caption.33}{}}
\@setckpt{chapters/configuracao}{
\setcounter{page}{33}
\setcounter{equation}{0}
\setcounter{enumi}{7}
\setcounter{enumii}{0}
\setcounter{enumiii}{0}
\setcounter{enumiv}{0}
\setcounter{footnote}{0}
\setcounter{mpfootnote}{0}
\setcounter{part}{0}
\setcounter{chapter}{4}
\setcounter{section}{3}
\setcounter{subsection}{0}
\setcounter{subsubsection}{0}
\setcounter{paragraph}{0}
\setcounter{subparagraph}{0}
\setcounter{figure}{3}
\setcounter{table}{5}
\setcounter{parentequation}{0}
\setcounter{caption@flags}{2}
\setcounter{continuedfloat}{0}
\setcounter{subfigure}{0}
\setcounter{subtable}{0}
\setcounter{lstnumber}{1}
\setcounter{mtc}{4}
\setcounter{minitocdepth}{1}
\setcounter{ptc}{0}
\setcounter{parttocdepth}{2}
\setcounter{Item}{7}
\setcounter{Hfootnote}{0}
\setcounter{bookmark@seq@number}{18}
\setcounter{ABCIaux}{0}
\setcounter{ABCImax}{0}
\setcounter{FancyVerbLine}{0}
\setcounter{linenumber}{1}
\setcounter{LN@truepage}{38}
\setcounter{FV@TrueTabGroupLevel}{0}
\setcounter{FV@TrueTabCounter}{0}
\setcounter{FV@HighlightLinesStart}{0}
\setcounter{FV@HighlightLinesStop}{0}
\setcounter{FancyVerbLineBreakLast}{0}
\setcounter{float@type}{16}
\setcounter{minted@FancyVerbLineTemp}{0}
\setcounter{minted@pygmentizecounter}{0}
\setcounter{listing}{0}
\setcounter{mdf@globalstyle@cnt}{0}
\setcounter{mdfcountframes}{0}
\setcounter{mdf@env@i}{0}
\setcounter{mdf@env@ii}{0}
\setcounter{mdf@zref@counter}{0}
\setcounter{AM@survey}{0}
\setcounter{lstlisting}{0}
\setcounter{section@level}{1}
}
