\relax 
\providecommand\hyper@newdestlabel[2]{}
\providecommand\zref@newlabel[2]{}
\@writefile{toc}{\contentsline {chapter}{\numberline {5}\textit  {ICV HCM-A 45} da \textit  {Baker Hughes}}{33}{chapter.5}\protected@file@percent }
\@writefile{lof}{\addvspace {10\p@ }}
\@writefile{lot}{\addvspace {10\p@ }}
\@writefile{lof}{\contentsline {xchapter}{\textit  {ICV HCM-A 45} da \textit  {Baker Hughes}}{33}{chapter.5}\protected@file@percent }
\@writefile{lot}{\contentsline {xchapter}{\textit  {ICV HCM-A 45} da \textit  {Baker Hughes}}{33}{chapter.5}\protected@file@percent }
\newlabel{chp:HCMA_geom_mesh}{{5}{33}{\textit {ICV HCM-A 45} da \textit {Baker Hughes}}{chapter.5}{}}
\@writefile{toc}{\contentsline {section}{\numberline {5.1}Geometria}{33}{section.5.1}\protected@file@percent }
\@writefile{lof}{\contentsline {figure}{\numberline {5.1}{\ignorespaces Posi\IeC {\c c}\IeC {\~o}es utilizadas para a v\IeC {\'a}lvula \textit  {HCMA 45.}\relax }}{33}{figure.caption.34}\protected@file@percent }
\newlabel{pos_HCMA}{{5.1}{33}{Posições utilizadas para a válvula \textit {HCMA 45.}\relax }{figure.caption.34}{}}
\@writefile{lot}{\contentsline {table}{\numberline {5.1}{\ignorespaces Posi\IeC {\c c}\IeC {\~a}o vs. \IeC {\'a}rea de abertura da \textit  {ICV HCM-A 45 da Baker Hughes}.\relax }}{34}{table.caption.35}\protected@file@percent }
\newlabel{tab:posiAbert}{{5.1}{34}{Posição vs. área de abertura da \textit {ICV HCM-A 45 da Baker Hughes}.\relax }{table.caption.35}{}}
\@writefile{lof}{\contentsline {figure}{\numberline {5.2}{\ignorespaces Detalhes das comunica\IeC {\c c}\IeC {\~o}es e parte m\IeC {\'o}vel interna da v\IeC {\'a}lvula multiposi\IeC {\c c}\IeC {\~a}o (\textit  {HCM-A 45 da Baker}).\relax }}{34}{figure.caption.36}\protected@file@percent }
\newlabel{fig:hcma_detail}{{5.2}{34}{Detalhes das comunicações e parte móvel interna da válvula multiposição (\textit {HCM-A 45 da Baker}).\relax }{figure.caption.36}{}}
\newlabel{fig:hcma_chock_ext}{{5.3a}{35}{Detalhe da parte externa da comunicação.\relax }{figure.caption.37}{}}
\newlabel{sub@fig:hcma_chock_ext}{{a}{35}{Detalhe da parte externa da comunicação.\relax }{figure.caption.37}{}}
\newlabel{fig:hcma_chock_int}{{5.3b}{35}{Detalhe da parte interna da comunicação.\relax }{figure.caption.37}{}}
\newlabel{sub@fig:hcma_chock_int}{{b}{35}{Detalhe da parte interna da comunicação.\relax }{figure.caption.37}{}}
\@writefile{lof}{\contentsline {figure}{\numberline {5.3}{\ignorespaces CAD da \textit  {HCMA 45}.\relax }}{35}{figure.caption.37}\protected@file@percent }
\newlabel{valve_orig_hcma45}{{5.3}{35}{CAD da \textit {HCMA 45}.\relax }{figure.caption.37}{}}
\@writefile{lof}{\contentsline {figure}{\numberline {5.4}{\ignorespaces Medidas referentes aos furos da \textit  {HCMA 45}.\relax }}{35}{figure.caption.38}\protected@file@percent }
\newlabel{fig:geom_cota1}{{5.4}{35}{Medidas referentes aos furos da \textit {HCMA 45}.\relax }{figure.caption.38}{}}
\@writefile{lof}{\contentsline {figure}{\numberline {5.5}{\ignorespaces V\IeC {\'a}lvula posicionada no po\IeC {\c c}o de 8,5"(H\textit  {CM-A 45 da Baker}).\relax }}{35}{figure.caption.39}\protected@file@percent }
\newlabel{fig:pocoValve}{{5.5}{35}{Válvula posicionada no poço de 8,5"(H\textit {CM-A 45 da Baker}).\relax }{figure.caption.39}{}}
\@writefile{lof}{\contentsline {figure}{\numberline {5.6}{\ignorespaces Raios da entrada da coluna e entrada do anular (\textit  {HCM-A 45 da Baker}).\relax }}{36}{figure.caption.40}\protected@file@percent }
\newlabel{fig:geom_cota}{{5.6}{36}{Raios da entrada da coluna e entrada do anular (\textit {HCM-A 45 da Baker}).\relax }{figure.caption.40}{}}
\@writefile{toc}{\contentsline {subsection}{\numberline {5.1.1}Simplifica\IeC {\c c}\IeC {\~o}es na geometria}{36}{subsection.5.1.1}\protected@file@percent }
\citation{isa75}
\@writefile{lof}{\contentsline {figure}{\numberline {5.7}{\ignorespaces Imagem comparativa entre CAD original (acima) e simplificado (abaixo)\relax }}{37}{figure.caption.41}\protected@file@percent }
\newlabel{fig:sec_trans_simplificada}{{5.7}{37}{Imagem comparativa entre CAD original (acima) e simplificado (abaixo)\relax }{figure.caption.41}{}}
\newlabel{fig:furo_orig}{{5.8a}{37}{Representação do furo original.\relax }{figure.caption.42}{}}
\newlabel{sub@fig:furo_orig}{{a}{37}{Representação do furo original.\relax }{figure.caption.42}{}}
\newlabel{fig:furo_simplif}{{5.8b}{37}{Comparativo entre furo no CAD original (esquerda) e simplificado (direita).\relax }{figure.caption.42}{}}
\newlabel{sub@fig:furo_simplif}{{b}{37}{Comparativo entre furo no CAD original (esquerda) e simplificado (direita).\relax }{figure.caption.42}{}}
\@writefile{lof}{\contentsline {figure}{\numberline {5.8}{\ignorespaces Simplifica\IeC {\c c}\IeC {\~o}es na regi\IeC {\~a}o do \textit  {choke}.\relax }}{37}{figure.caption.42}\protected@file@percent }
\newlabel{fig:simpl_choke}{{5.8}{37}{Simplificações na região do \textit {choke}.\relax }{figure.caption.42}{}}
\@writefile{lof}{\contentsline {figure}{\numberline {5.9}{\ignorespaces Explica\IeC {\c c}\IeC {\~a}o da simetria de 60\IeC {\textordmasculine } utilizada (HCM-A 45 da Baker).\relax }}{37}{figure.caption.43}\protected@file@percent }
\newlabel{fig:explicacao_simetria}{{5.9}{37}{Explicação da simetria de 60º utilizada (HCM-A 45 da Baker).\relax }{figure.caption.43}{}}
\@writefile{lof}{\contentsline {figure}{\numberline {5.10}{\ignorespaces Extens\IeC {\~a}o do dom\IeC {\'\i }nio criado e localiza\IeC {\c c}\IeC {\~a}o dos pontos de entrada e sa\IeC {\'\i }da de fluido (HCM-A 45 da Baker).\relax }}{38}{figure.caption.44}\protected@file@percent }
\newlabel{fig:casoprod}{{5.10}{38}{Extensão do domínio criado e localização dos pontos de entrada e saída de fluido (HCM-A 45 da Baker).\relax }{figure.caption.44}{}}
\@writefile{toc}{\contentsline {section}{\numberline {5.2}Malha Computacional}{38}{section.5.2}\protected@file@percent }
\@writefile{lof}{\contentsline {figure}{\numberline {5.11}{\ignorespaces Malha computacional da v\IeC {\'a}lvula \textit  {ICV HCMA - Baker Hughes} na posi\IeC {\c c}\IeC {\~a}o 1 utilizada para baterias de simula\IeC {\c c}\IeC {\~o}es.\relax }}{38}{figure.caption.45}\protected@file@percent }
\newlabel{fig:malha_pos1_hcma}{{5.11}{38}{Malha computacional da válvula \textit {ICV HCMA - Baker Hughes} na posição 1 utilizada para baterias de simulações.\relax }{figure.caption.45}{}}
\@writefile{lof}{\contentsline {figure}{\numberline {5.12}{\ignorespaces Malha computacional da v\IeC {\'a}lvula \textit  {ICV HCMA - Baker Hughes} na posi\IeC {\c c}\IeC {\~a}o 2 utilizada para baterias de simula\IeC {\c c}\IeC {\~o}es.\relax }}{39}{figure.caption.46}\protected@file@percent }
\newlabel{fig:malha_pos2_hcma}{{5.12}{39}{Malha computacional da válvula \textit {ICV HCMA - Baker Hughes} na posição 2 utilizada para baterias de simulações.\relax }{figure.caption.46}{}}
\@writefile{lof}{\contentsline {figure}{\numberline {5.13}{\ignorespaces Malha computacional da v\IeC {\'a}lvula \textit  {ICV HCMA - Baker Hughes} na posi\IeC {\c c}\IeC {\~a}o 3 utilizada para baterias de simula\IeC {\c c}\IeC {\~o}es.\relax }}{39}{figure.caption.47}\protected@file@percent }
\newlabel{fig:meshPosi3_new}{{5.13}{39}{Malha computacional da válvula \textit {ICV HCMA - Baker Hughes} na posição 3 utilizada para baterias de simulações.\relax }{figure.caption.47}{}}
\@writefile{lof}{\contentsline {figure}{\numberline {5.14}{\ignorespaces Malha computacional da v\IeC {\'a}lvula \textit  {ICV HCMA - Baker Hughes} na posi\IeC {\c c}\IeC {\~a}o 4 utilizada para baterias de simula\IeC {\c c}\IeC {\~o}es.\relax }}{40}{figure.caption.48}\protected@file@percent }
\newlabel{fig:malha_pos4_hcma}{{5.14}{40}{Malha computacional da válvula \textit {ICV HCMA - Baker Hughes} na posição 4 utilizada para baterias de simulações.\relax }{figure.caption.48}{}}
\@writefile{lof}{\contentsline {figure}{\numberline {5.15}{\ignorespaces Malha computacional da v\IeC {\'a}lvula \textit  {ICV HCMA - Baker Hughes} na posi\IeC {\c c}\IeC {\~a}o 5 utilizada para baterias de simula\IeC {\c c}\IeC {\~o}es.\relax }}{40}{figure.caption.49}\protected@file@percent }
\newlabel{fig:meshPosi5_new}{{5.15}{40}{Malha computacional da válvula \textit {ICV HCMA - Baker Hughes} na posição 5 utilizada para baterias de simulações.\relax }{figure.caption.49}{}}
\@writefile{lof}{\contentsline {figure}{\numberline {5.16}{\ignorespaces Malha computacional da v\IeC {\'a}lvula \textit  {ICV HCMA - Baker Hughes} na posi\IeC {\c c}\IeC {\~a}o 6 utilizada para baterias de simula\IeC {\c c}\IeC {\~o}es.\relax }}{41}{figure.caption.50}\protected@file@percent }
\newlabel{fig:malha_pos6_hcma}{{5.16}{41}{Malha computacional da válvula \textit {ICV HCMA - Baker Hughes} na posição 6 utilizada para baterias de simulações.\relax }{figure.caption.50}{}}
\@writefile{lof}{\contentsline {figure}{\numberline {5.17}{\ignorespaces Malha computacional da v\IeC {\'a}lvula \textit  {ICV HCMA - Baker Hughes} na posi\IeC {\c c}\IeC {\~a}o 7 utilizada para baterias de simula\IeC {\c c}\IeC {\~o}es.\relax }}{41}{figure.caption.51}\protected@file@percent }
\newlabel{fig:meshPosi7_new}{{5.17}{41}{Malha computacional da válvula \textit {ICV HCMA - Baker Hughes} na posição 7 utilizada para baterias de simulações.\relax }{figure.caption.51}{}}
\@writefile{lot}{\contentsline {table}{\numberline {5.2}{\ignorespaces \textit  {Software} de gera\IeC {\c c}\IeC {\~a}o e n\IeC {\'u}mero de elementos de cada malha gerada para \textit  {HCM-A 45} \relax }}{42}{table.caption.52}\protected@file@percent }
\newlabel{tab:soft_nElementos_hcma}{{5.2}{42}{\textit {Software} de geração e número de elementos de cada malha gerada para \textit {HCM-A 45} \relax }{table.caption.52}{}}
\@writefile{lot}{\contentsline {table}{\numberline {5.3}{\ignorespaces Tabela comparativa dos $C_v$'s experimentais e simulados para HCM-A da Baker Hughes.\relax }}{43}{table.caption.53}\protected@file@percent }
\newlabel{tab:compa_Cv_Baker_HCMA}{{5.3}{43}{Tabela comparativa dos $C_v$'s experimentais e simulados para HCM-A da Baker Hughes.\relax }{table.caption.53}{}}
\@writefile{lof}{\contentsline {figure}{\numberline {5.18}{\ignorespaces Gr\IeC {\'a}fico comparativo dos $C_v$'s experimentais e simulados para \textit  {HCM-A 45 - Baker Hughes}.\relax }}{43}{figure.caption.54}\protected@file@percent }
\newlabel{fig:compa_Cv_Baker_HCMA}{{5.18}{43}{Gráfico comparativo dos $C_v$'s experimentais e simulados para \textit {HCM-A 45 - Baker Hughes}.\relax }{figure.caption.54}{}}
\@setckpt{chapters/HCMA}{
\setcounter{page}{44}
\setcounter{equation}{0}
\setcounter{enumi}{2}
\setcounter{enumii}{0}
\setcounter{enumiii}{0}
\setcounter{enumiv}{0}
\setcounter{footnote}{0}
\setcounter{mpfootnote}{0}
\setcounter{part}{0}
\setcounter{chapter}{5}
\setcounter{section}{2}
\setcounter{subsection}{0}
\setcounter{subsubsection}{0}
\setcounter{paragraph}{0}
\setcounter{subparagraph}{0}
\setcounter{figure}{18}
\setcounter{table}{3}
\setcounter{parentequation}{0}
\setcounter{caption@flags}{0}
\setcounter{continuedfloat}{0}
\setcounter{subfigure}{0}
\setcounter{subtable}{0}
\setcounter{lstnumber}{1}
\setcounter{mtc}{5}
\setcounter{minitocdepth}{1}
\setcounter{ptc}{0}
\setcounter{parttocdepth}{2}
\setcounter{Item}{9}
\setcounter{Hfootnote}{0}
\setcounter{bookmark@seq@number}{22}
\setcounter{ABCIaux}{0}
\setcounter{ABCImax}{0}
\setcounter{FancyVerbLine}{0}
\setcounter{linenumber}{1}
\setcounter{LN@truepage}{49}
\setcounter{FV@TrueTabGroupLevel}{0}
\setcounter{FV@TrueTabCounter}{0}
\setcounter{FV@HighlightLinesStart}{0}
\setcounter{FV@HighlightLinesStop}{0}
\setcounter{FancyVerbLineBreakLast}{0}
\setcounter{float@type}{16}
\setcounter{minted@FancyVerbLineTemp}{0}
\setcounter{minted@pygmentizecounter}{0}
\setcounter{listing}{0}
\setcounter{mdf@globalstyle@cnt}{0}
\setcounter{mdfcountframes}{0}
\setcounter{mdf@env@i}{0}
\setcounter{mdf@env@ii}{0}
\setcounter{mdf@zref@counter}{0}
\setcounter{AM@survey}{0}
\setcounter{lstlisting}{0}
\setcounter{section@level}{1}
}
