\relax 
\providecommand\hyper@newdestlabel[2]{}
\providecommand\zref@newlabel[2]{}
\@writefile{toc}{\contentsline {chapter}{\numberline {1}Introdu\IeC {\c c}\IeC {\~a}o}{3}{chapter.1}\protected@file@percent }
\@writefile{lof}{\addvspace {10\p@ }}
\@writefile{lot}{\addvspace {10\p@ }}
\@writefile{lof}{\contentsline {xchapter}{Introdu\IeC {\c c}\IeC {\~a}o}{3}{chapter.1}\protected@file@percent }
\@writefile{lot}{\contentsline {xchapter}{Introdu\IeC {\c c}\IeC {\~a}o}{3}{chapter.1}\protected@file@percent }
\newlabel{sec:intro}{{1}{3}{Introdução}{chapter.1}{}}
\@writefile{toc}{\contentsline {section}{\numberline {1.1}Contextualiza\IeC {\c c}\IeC {\~a}o}{3}{section.1.1}\protected@file@percent }
\@writefile{toc}{\contentsline {subsection}{\numberline {1.1.1}Cen\IeC {\'a}rio cujos c\IeC {\'a}lculos atuais s\IeC {\~a}o suficientemente acurados}{3}{subsection.1.1.1}\protected@file@percent }
\@writefile{lof}{\contentsline {figure}{\numberline {1.1}{\ignorespaces Esquem\IeC {\'a}tico do po\IeC {\c c}o UO-BS.\relax }}{4}{figure.caption.4}\protected@file@percent }
\providecommand*\caption@xref[2]{\@setref\relax\@undefined{#1}}
\newlabel{fig:santos}{{1.1}{4}{Esquemático do poço UO-BS.\relax }{figure.caption.4}{}}
\@writefile{toc}{\contentsline {subsection}{\numberline {1.1.2}Cen\IeC {\'a}rio no qual conflu\IeC {\^e}ncia pode impactar na perda de carga}{5}{subsection.1.1.2}\protected@file@percent }
\newlabel{fug:3open}{{1.2a}{5}{3 ICVs abertas.\relax }{figure.caption.5}{}}
\newlabel{sub@fug:3open}{{a}{5}{3 ICVs abertas.\relax }{figure.caption.5}{}}
\newlabel{fig:1_closed}{{1.2b}{5}{ICV-1 fechada.\relax }{figure.caption.5}{}}
\newlabel{sub@fig:1_closed}{{b}{5}{ICV-1 fechada.\relax }{figure.caption.5}{}}
\newlabel{fig:2_closed}{{1.2c}{5}{ICV-2 fechada.\relax }{figure.caption.5}{}}
\newlabel{sub@fig:2_closed}{{c}{5}{ICV-2 fechada.\relax }{figure.caption.5}{}}
\newlabel{fig:3_closed}{{1.2d}{5}{ICV-3 fechada.\relax }{figure.caption.5}{}}
\newlabel{sub@fig:3_closed}{{d}{5}{ICV-3 fechada.\relax }{figure.caption.5}{}}
\@writefile{lof}{\contentsline {figure}{\numberline {1.2}{\ignorespaces Esquem\IeC {\'a}tico do po\IeC {\c c}o de B\IeC {\'u}zios.\relax }}{5}{figure.caption.5}\protected@file@percent }
\newlabel{fig:buzios}{{1.2}{5}{Esquemático do poço de Búzios.\relax }{figure.caption.5}{}}
\newlabel{fig:conflu}{{1.3a}{6}{Esquemático simplificado da confluência dos fluxos em uma válvula qualquer.\relax }{figure.caption.6}{}}
\newlabel{sub@fig:conflu}{{a}{6}{Esquemático simplificado da confluência dos fluxos em uma válvula qualquer.\relax }{figure.caption.6}{}}
\newlabel{fig:rateio}{{1.3b}{6}{Esquemático simplificado do rateio de vazão em uma válvula qualquer.\relax }{figure.caption.6}{}}
\newlabel{sub@fig:rateio}{{b}{6}{Esquemático simplificado do rateio de vazão em uma válvula qualquer.\relax }{figure.caption.6}{}}
\@writefile{lof}{\contentsline {figure}{\numberline {1.3}{\ignorespaces Fen\IeC {\^o}menos de conflu\IeC {\^e}ncia e rateio de vaz\IeC {\~o}es.\relax }}{6}{figure.caption.6}\protected@file@percent }
\newlabel{fig:ratConflu}{{1.3}{6}{Fenômenos de confluência e rateio de vazões.\relax }{figure.caption.6}{}}
\@writefile{toc}{\contentsline {section}{\numberline {1.2}Objetivo do projeto}{7}{section.1.2}\protected@file@percent }
\@writefile{lof}{\contentsline {figure}{\numberline {1.4}{\ignorespaces Exemplo de equipamentos de completa\IeC {\c c}\IeC {\~a}o\relax }}{7}{figure.caption.7}\protected@file@percent }
\newlabel{fig:equipComplet}{{1.4}{7}{Exemplo de equipamentos de completação\relax }{figure.caption.7}{}}
\@setckpt{chapters/introduction}{
\setcounter{page}{8}
\setcounter{equation}{0}
\setcounter{enumi}{0}
\setcounter{enumii}{0}
\setcounter{enumiii}{0}
\setcounter{enumiv}{0}
\setcounter{footnote}{0}
\setcounter{mpfootnote}{0}
\setcounter{part}{0}
\setcounter{chapter}{1}
\setcounter{section}{2}
\setcounter{subsection}{0}
\setcounter{subsubsection}{0}
\setcounter{paragraph}{0}
\setcounter{subparagraph}{0}
\setcounter{figure}{4}
\setcounter{table}{0}
\setcounter{parentequation}{0}
\setcounter{caption@flags}{0}
\setcounter{continuedfloat}{0}
\setcounter{subfigure}{0}
\setcounter{subtable}{0}
\setcounter{lstnumber}{1}
\setcounter{mtc}{1}
\setcounter{minitocdepth}{1}
\setcounter{ptc}{0}
\setcounter{parttocdepth}{2}
\setcounter{Item}{0}
\setcounter{Hfootnote}{0}
\setcounter{bookmark@seq@number}{6}
\setcounter{ABCIaux}{0}
\setcounter{ABCImax}{0}
\setcounter{FancyVerbLine}{0}
\setcounter{linenumber}{1}
\setcounter{LN@truepage}{13}
\setcounter{FV@TrueTabGroupLevel}{0}
\setcounter{FV@TrueTabCounter}{0}
\setcounter{FV@HighlightLinesStart}{0}
\setcounter{FV@HighlightLinesStop}{0}
\setcounter{FancyVerbLineBreakLast}{0}
\setcounter{float@type}{16}
\setcounter{minted@FancyVerbLineTemp}{0}
\setcounter{minted@pygmentizecounter}{0}
\setcounter{listing}{0}
\setcounter{mdf@globalstyle@cnt}{0}
\setcounter{mdfcountframes}{0}
\setcounter{mdf@env@i}{0}
\setcounter{mdf@env@ii}{0}
\setcounter{mdf@zref@counter}{0}
\setcounter{AM@survey}{0}
\setcounter{lstlisting}{0}
\setcounter{section@level}{1}
}
