\relax 
\providecommand\hyper@newdestlabel[2]{}
\providecommand\zref@newlabel[2]{}
\citation{isa75}
\citation{isa75}
\@writefile{toc}{\contentsline {chapter}{\numberline {3}Metodologia}{10}{chapter.3}\protected@file@percent }
\@writefile{lof}{\addvspace {10\p@ }}
\@writefile{lot}{\addvspace {10\p@ }}
\@writefile{lof}{\contentsline {xchapter}{Metodologia}{10}{chapter.3}\protected@file@percent }
\@writefile{lot}{\contentsline {xchapter}{Metodologia}{10}{chapter.3}\protected@file@percent }
\newlabel{sec:metodo}{{3}{10}{Metodologia}{chapter.3}{}}
\@writefile{lof}{\contentsline {figure}{\numberline {3.1}{\ignorespaces Pontos de medi\IeC {\c c}\IeC {\~a}o conforme norma supracitada.\relax }}{10}{figure.caption.10}\protected@file@percent }
\newlabel{ponto_medida}{{3.1}{10}{Pontos de medição conforme norma supracitada.\relax }{figure.caption.10}{}}
\newlabel{eq:Cv}{{3.1}{10}{Metodologia}{equation.3.0.1}{}}
\@writefile{toc}{\contentsline {section}{\numberline {3.1}M\IeC {\'e}todos de an\IeC {\'a}lise dos resultados}{11}{section.3.1}\protected@file@percent }
\newlabel{sec:metodos_de_analise}{{3.1}{11}{Métodos de análise dos resultados}{section.3.1}{}}
\@writefile{lof}{\contentsline {figure}{\numberline {3.2}{\ignorespaces Esquema do po\IeC {\c c}o no cen\IeC {\'a}rio de produ\IeC {\c c}\IeC {\~a}o.\relax }}{11}{figure.caption.11}\protected@file@percent }
\newlabel{fig:esquema_prod}{{3.2}{11}{Esquema do poço no cenário de produção.\relax }{figure.caption.11}{}}
\@writefile{lof}{\contentsline {figure}{\numberline {3.3}{\ignorespaces Exemplo da localiza\IeC {\c c}\IeC {\~a}o das medidas em um po\IeC {\c c}o no cen\IeC {\'a}rio de produ\IeC {\c c}\IeC {\~a}o.\relax }}{11}{figure.caption.12}\protected@file@percent }
\newlabel{fig:esquema_prod_2}{{3.3}{11}{Exemplo da localização das medidas em um poço no cenário de produção.\relax }{figure.caption.12}{}}
\citation{smith1950introduction}
\@writefile{toc}{\contentsline {subsection}{\numberline {3.1.1}M\IeC {\'e}todo da superf\IeC {\'\i }cie}{12}{subsection.3.1.1}\protected@file@percent }
\newlabel{sec:metodosup}{{3.1.1}{12}{Método da superfície}{subsection.3.1.1}{}}
\newlabel{initial}{{3.2}{12}{Método da superfície}{equation.3.1.2}{}}
\newlabel{eq:abre}{{3.4}{12}{Método da superfície}{equation.3.1.4}{}}
\newlabel{eq:BM}{{3.5}{12}{Método da superfície}{equation.3.1.5}{}}
\newlabel{eq:ps_to_p}{{3.8}{13}{Método da superfície}{equation.3.1.8}{}}
\newlabel{eq:p_initial}{{3.9}{13}{Método da superfície}{equation.3.1.9}{}}
\newlabel{eq:Razao_fluxo}{{3.10}{13}{Método da superfície}{equation.3.1.10}{}}
\newlabel{eq:p_initial_alpha}{{3.11}{13}{Método da superfície}{equation.3.1.11}{}}
\newlabel{eq:comLin}{{3.12}{13}{Método da superfície}{equation.3.1.12}{}}
\newlabel{eq:semLin}{{3.13}{14}{Método da superfície}{equation.3.1.13}{}}
\newlabel{alpha_01}{{3.16}{14}{Método da superfície}{equation.3.1.16}{}}
\newlabel{V3}{{3.18}{14}{Método da superfície}{equation.3.1.18}{}}
\newlabel{eq:deltap_13}{{3.19}{14}{Método da superfície}{equation.3.1.19}{}}
\newlabel{eq:deltap_23}{{3.20}{14}{Método da superfície}{equation.3.1.20}{}}
\newlabel{sec:methodology:eq:K_devdd}{{3.22}{15}{Método da superfície}{equation.3.1.22}{}}
\newlabel{quaseFinal}{{3.23}{15}{Método da superfície}{equation.3.1.23}{}}
\newlabel{quaseFinal2}{{3.24}{15}{Método da superfície}{equation.3.1.24}{}}
\newlabel{fig:pos7K13alpha}{{3.4a}{15}{Variação de $K_{13}$ de acordo com $\alpha $ para posição 7 - abertura de 82,3\%.\relax }{figure.caption.13}{}}
\newlabel{sub@fig:pos7K13alpha}{{a}{15}{Variação de $K_{13}$ de acordo com $\alpha $ para posição 7 - abertura de 82,3\%.\relax }{figure.caption.13}{}}
\newlabel{fig:pos7K23alpha}{{3.4b}{15}{Variação de $K_{23}$ de acordo com $\alpha $ para posição 7 - abertura de 82,3\%.\relax }{figure.caption.13}{}}
\newlabel{sub@fig:pos7K23alpha}{{b}{15}{Variação de $K_{23}$ de acordo com $\alpha $ para posição 7 - abertura de 82,3\%.\relax }{figure.caption.13}{}}
\@writefile{lof}{\contentsline {figure}{\numberline {3.4}{\ignorespaces Rela\IeC {\c c}\IeC {\~a}o entre os $K's$ para diferentes valores de $\alpha $ na posi\IeC {\c c}\IeC {\~a}o 7 da \textit  {HCM-A 45} - abertura de 82,3\%.\relax }}{15}{figure.caption.13}\protected@file@percent }
\newlabel{eq:pm_alpha}{{3.27}{16}{Método da superfície}{equation.3.1.27}{}}
\newlabel{eq:final_compress}{{3.30}{16}{Método da superfície}{equation.3.1.30}{}}
\newlabel{eq:final_DP_com}{{3.31}{16}{Método da superfície}{equation.3.1.31}{}}
\citation{sklearn2022}
\newlabel{eq:final_DP_incom}{{3.35}{17}{Método da superfície}{equation.3.1.35}{}}
\@writefile{lof}{\contentsline {figure}{\numberline {3.5}{\ignorespaces Exemplo de superf\IeC {\'\i }cie ajustada aos coeficientes $\beta _i$.\relax }}{18}{figure.caption.14}\protected@file@percent }
\newlabel{fig:exemplo_sup}{{3.5}{18}{Exemplo de superfície ajustada aos coeficientes $\beta _i$.\relax }{figure.caption.14}{}}
\@writefile{lof}{\contentsline {figure}{\numberline {3.6}{\ignorespaces Esquema das etapas do ajuste multivariado.\relax }}{18}{figure.caption.15}\protected@file@percent }
\newlabel{fig:esquema_regress}{{3.6}{18}{Esquema das etapas do ajuste multivariado.\relax }{figure.caption.15}{}}
\citation{Huber2009}
\citation{Owen2006}
\newlabel{eq:Huber}{{3.36}{19}{Método da superfície}{equation.3.1.36}{}}
\newlabel{eq:Huber1}{{3.37}{19}{Método da superfície}{equation.3.1.37}{}}
\newlabel{eq:Error}{{3.38}{19}{Método da superfície}{equation.3.1.38}{}}
\citation{sklearn2022}
\@writefile{lof}{\contentsline {figure}{\numberline {3.7}{\ignorespaces Exemplo de gr\IeC {\'a}fico gerado na otimiza\IeC {\c c}\IeC {\~a}o do $\epsilon $ para minimizar o erro.\relax }}{20}{figure.caption.16}\protected@file@percent }
\newlabel{fig:esquema_otim}{{3.7}{20}{Exemplo de gráfico gerado na otimização do $\epsilon $ para minimizar o erro.\relax }{figure.caption.16}{}}
\@writefile{lof}{\contentsline {figure}{\numberline {3.8}{\ignorespaces Exemplo de tabela com os dados de perda de carga (kgf/cm$^2$) ap\IeC {\'o}s ajuste.\relax }}{21}{figure.caption.17}\protected@file@percent }
\newlabel{fig:tabelaLatex}{{3.8}{21}{Exemplo de tabela com os dados de perda de carga (kgf/cm$^2$) após ajuste.\relax }{figure.caption.17}{}}
\@writefile{lof}{\contentsline {figure}{\numberline {3.9}{\ignorespaces Exemplo de tabela com os par\IeC {\^a}metros do ajuste e sua qualidade.\relax }}{21}{figure.caption.18}\protected@file@percent }
\newlabel{fig:Tabela_menor}{{3.9}{21}{Exemplo de tabela com os parâmetros do ajuste e sua qualidade.\relax }{figure.caption.18}{}}
\@writefile{lof}{\contentsline {figure}{\numberline {3.10}{\ignorespaces Metodologia completa para gerar a base de dados .\relax }}{22}{figure.caption.19}\protected@file@percent }
\newlabel{fig:metodo_completo}{{3.10}{22}{Metodologia completa para gerar a base de dados .\relax }{figure.caption.19}{}}
\@writefile{toc}{\contentsline {section}{\numberline {3.2}Modelagem CFD}{22}{section.3.2}\protected@file@percent }
\@writefile{toc}{\contentsline {subsection}{\numberline {3.2.1}Equa\IeC {\c c}\IeC {\~o}es do problema}{22}{subsection.3.2.1}\protected@file@percent }
\@writefile{toc}{\contentsline {subsubsection}{\textbf  {$\bullet $ Incompress\IeC {\'\i }vel}}{22}{section*.20}\protected@file@percent }
\citation{simpleFoam}
\citation{Menter1994}
\citation{simpleFoam}
\newlabel{ConservationEquation}{{3.2.1}{23}{\textbf {$\bullet $ Incompressível}}{equation.3.2.39}{}}
\newlabel{MomentumEquation}{{3.2.1}{23}{\textbf {$\bullet $ Incompressível}}{equation.3.2.40}{}}
\@writefile{toc}{\contentsline {subsubsection}{\textbf  {$\bullet $ Compress\IeC {\'\i }vel}}{23}{section*.21}\protected@file@percent }
\citation{rhoSimpleFoam}
\citation{Menter1994}
\citation{holzmann}
\citation{userGuideOF}
\@writefile{toc}{\contentsline {subsection}{\numberline {3.2.2}Modelagem Num\IeC {\'e}rica}{25}{subsection.3.2.2}\protected@file@percent }
\@writefile{lot}{\contentsline {table}{\numberline {3.1}{\ignorespaces Discretiza\IeC {\c c}\IeC {\~a}o dos Operadores Matem\IeC {\'a}ticos.\relax }}{25}{table.caption.22}\protected@file@percent }
\newlabel{table03}{{3.1}{25}{Discretização dos Operadores Matemáticos.\relax }{table.caption.22}{}}
\@writefile{lot}{\contentsline {table}{\numberline {3.2}{\ignorespaces Par\IeC {\^a}metros do algoritmo para acoplamento press\IeC {\~a}o-velocidade.\relax }}{25}{table.caption.23}\protected@file@percent }
\newlabel{table04}{{3.2}{25}{Parâmetros do algoritmo para acoplamento pressão-velocidade.\relax }{table.caption.23}{}}
\@writefile{lot}{\contentsline {table}{\numberline {3.3}{\ignorespaces Par\IeC {\^a}metros do algoritmo para solu\IeC {\c c}\IeC {\~a}o de sistemas lineares.\relax }}{25}{table.caption.24}\protected@file@percent }
\newlabel{table05}{{3.3}{25}{Parâmetros do algoritmo para solução de sistemas lineares.\relax }{table.caption.24}{}}
\@writefile{toc}{\contentsline {subsection}{\numberline {3.2.3}Crit\IeC {\'e}rio de converg\IeC {\^e}ncia}{26}{subsection.3.2.3}\protected@file@percent }
\@writefile{lof}{\contentsline {figure}{\numberline {3.11}{\ignorespaces Exemplo gr\IeC {\'a}fico do crit\IeC {\'e}rio de converg\IeC {\^e}ncia - acompanhamento da press\IeC {\~a}o.\relax }}{26}{figure.caption.25}\protected@file@percent }
\newlabel{fig:conv_geral}{{3.11}{26}{Exemplo gráfico do critério de convergência - acompanhamento da pressão.\relax }{figure.caption.25}{}}
\@setckpt{chapters/metodologia}{
\setcounter{page}{27}
\setcounter{equation}{40}
\setcounter{enumi}{7}
\setcounter{enumii}{0}
\setcounter{enumiii}{0}
\setcounter{enumiv}{0}
\setcounter{footnote}{0}
\setcounter{mpfootnote}{0}
\setcounter{part}{0}
\setcounter{chapter}{3}
\setcounter{section}{2}
\setcounter{subsection}{3}
\setcounter{subsubsection}{0}
\setcounter{paragraph}{0}
\setcounter{subparagraph}{0}
\setcounter{figure}{11}
\setcounter{table}{3}
\setcounter{parentequation}{0}
\setcounter{caption@flags}{0}
\setcounter{continuedfloat}{0}
\setcounter{subfigure}{0}
\setcounter{subtable}{0}
\setcounter{lstnumber}{1}
\setcounter{mtc}{3}
\setcounter{minitocdepth}{1}
\setcounter{ptc}{0}
\setcounter{parttocdepth}{2}
\setcounter{Item}{7}
\setcounter{Hfootnote}{0}
\setcounter{bookmark@seq@number}{14}
\setcounter{ABCIaux}{0}
\setcounter{ABCImax}{0}
\setcounter{FancyVerbLine}{0}
\setcounter{linenumber}{1}
\setcounter{LN@truepage}{32}
\setcounter{FV@TrueTabGroupLevel}{0}
\setcounter{FV@TrueTabCounter}{0}
\setcounter{FV@HighlightLinesStart}{0}
\setcounter{FV@HighlightLinesStop}{0}
\setcounter{FancyVerbLineBreakLast}{0}
\setcounter{float@type}{16}
\setcounter{minted@FancyVerbLineTemp}{0}
\setcounter{minted@pygmentizecounter}{0}
\setcounter{listing}{0}
\setcounter{mdf@globalstyle@cnt}{0}
\setcounter{mdfcountframes}{0}
\setcounter{mdf@env@i}{0}
\setcounter{mdf@env@ii}{0}
\setcounter{mdf@zref@counter}{0}
\setcounter{AM@survey}{0}
\setcounter{lstlisting}{0}
\setcounter{section@level}{2}
}
