\relax 
\providecommand\hyper@newdestlabel[2]{}
\providecommand\zref@newlabel[2]{}
\@writefile{toc}{\contentsline {chapter}{\numberline {9}Resultados - Produ\IeC {\c c}\IeC {\~a}o - HCMA - Propriedades m\IeC {\'e}dias do \IeC {\'O}leo}{55}{chapter.9}}
\@writefile{lof}{\addvspace {10\p@ }}
\@writefile{lot}{\addvspace {10\p@ }}
\@writefile{lof}{\contentsline {xchapter}{Resultados - Produ\IeC {\c c}\IeC {\~a}o - HCMA - Propriedades m\IeC {\'e}dias do \IeC {\'O}leo}{55}{chapter.9}}
\@writefile{lot}{\contentsline {xchapter}{Resultados - Produ\IeC {\c c}\IeC {\~a}o - HCMA - Propriedades m\IeC {\'e}dias do \IeC {\'O}leo}{55}{chapter.9}}
\newlabel{results}{{9}{55}{Resultados - Produção - HCMA - Propriedades médias do Óleo}{chapter.9}{}}
\@writefile{toc}{\contentsline {section}{\numberline {9.1}Ajuste das perdas de carga pela superf\IeC {\'\i }cie}{55}{section.9.1}}
\newlabel{sec:superf}{{9.1}{55}{Ajuste das perdas de carga pela superfície}{section.9.1}{}}
\@writefile{toc}{\contentsline {subsection}{\numberline {9.1.1}Posi\IeC {\c c}\IeC {\~a}o 7 - 82,3\% de abertura}{55}{subsection.9.1.1}}
\@writefile{lot}{\contentsline {table}{\numberline {9.1}{\ignorespaces Constantes de ajuste $\beta $ para $\Delta P_{13}$ e $\Delta P_{23}$ e seus respectivos erros padr\IeC {\~a}o para a posi\IeC {\c c}\IeC {\~a}o 1 - 2\% de abertura.\relax }}{56}{table.caption.74}}
\newlabel{tab:consts_pos7_oleo_HCMA}{{9.1}{56}{Constantes de ajuste $\beta $ para $\Delta P_{13}$ e $\Delta P_{23}$ e seus respectivos erros padrão para a posição 1 - 2\% de abertura.\relax }{table.caption.74}{}}
\@writefile{lof}{\contentsline {figure}{\numberline {9.1}{\ignorespaces Varia\IeC {\c c}\IeC {\~a}o de $\Delta P_{13}$ de acordo com as vaz\IeC {\~o}es para posi\IeC {\c c}\IeC {\~a}o 7 - abertura de 82,3\%.\relax }}{56}{figure.caption.75}}
\newlabel{fig:pos7superficie13}{{9.1}{56}{Variação de $\Delta P_{13}$ de acordo com as vazões para posição 7 - abertura de 82,3\%.\relax }{figure.caption.75}{}}
\@writefile{lof}{\contentsline {figure}{\numberline {9.2}{\ignorespaces Varia\IeC {\c c}\IeC {\~a}o de $\Delta P_{23}$ de acordo com as vaz\IeC {\~o}es para posi\IeC {\c c}\IeC {\~a}o 7 - abertura de 82,3\%.\relax }}{57}{figure.caption.76}}
\newlabel{fig:pos7superficie23}{{9.2}{57}{Variação de $\Delta P_{23}$ de acordo com as vazões para posição 7 - abertura de 82,3\%.\relax }{figure.caption.76}{}}
\newlabel{fig:tab_sup_pos7_13}{{\caption@xref {fig:tab_sup_pos7_13}{ on input line 57}}{57}{Posição 7 - 82,3\% de abertura}{figure.caption.77}{}}
\@writefile{lof}{\contentsline {figure}{\numberline {9.3}{\ignorespaces Tabela de press\IeC {\~o}es m\IeC {\'e}dias $\Delta p_{13}$ - produ\IeC {\c c}\IeC {\~a}o com termo linear $ \mu = 3.2$ cP e $ \rho = 800.0$ kg/$m^3$.\relax }}{57}{figure.caption.77}}
\newlabel{fig:tab_sup_pos7_23}{{\caption@xref {fig:tab_sup_pos7_23}{ on input line 65}}{58}{Posição 7 - 82,3\% de abertura}{figure.caption.78}{}}
\@writefile{lof}{\contentsline {figure}{\numberline {9.4}{\ignorespaces Tabela de press\IeC {\~o}es m\IeC {\'e}dias $\Delta p_{23}$ - produ\IeC {\c c}\IeC {\~a}o com termo linear $ \mu = 3.2$ cP e $ \rho = 800.0$ kg/$m^3$.\relax }}{58}{figure.caption.78}}
\@writefile{toc}{\contentsline {subsection}{\numberline {9.1.2}Posi\IeC {\c c}\IeC {\~a}o 1 - 2\% de abertura}{59}{subsection.9.1.2}}
\@writefile{lot}{\contentsline {table}{\numberline {9.2}{\ignorespaces Constantes de ajuste $\beta $ para $\Delta P_{13}$ e $\Delta P_{23}$ e seus respectivos erros padr\IeC {\~a}o para a posi\IeC {\c c}\IeC {\~a}o 1 - 2\% de abertura.\relax }}{59}{table.caption.79}}
\newlabel{tab:consts_pos1_oleo_HCMA}{{9.2}{59}{Constantes de ajuste $\beta $ para $\Delta P_{13}$ e $\Delta P_{23}$ e seus respectivos erros padrão para a posição 1 - 2\% de abertura.\relax }{table.caption.79}{}}
\@writefile{lof}{\contentsline {figure}{\numberline {9.5}{\ignorespaces Varia\IeC {\c c}\IeC {\~a}o de $\Delta P_{13}$ de acordo com as vaz\IeC {\~o}es para posi\IeC {\c c}\IeC {\~a}o 1 - abertura de 2\%.\relax }}{60}{figure.caption.80}}
\newlabel{fig:pos1superficie13}{{9.5}{60}{Variação de $\Delta P_{13}$ de acordo com as vazões para posição 1 - abertura de 2\%.\relax }{figure.caption.80}{}}
\@writefile{lof}{\contentsline {figure}{\numberline {9.6}{\ignorespaces Varia\IeC {\c c}\IeC {\~a}o de $\Delta P_{23}$ de acordo com as vaz\IeC {\~o}es para posi\IeC {\c c}\IeC {\~a}o 1 - abertura de 82,3\%.\relax }}{60}{figure.caption.81}}
\newlabel{fig:pos1superficie23}{{9.6}{60}{Variação de $\Delta P_{23}$ de acordo com as vazões para posição 1 - abertura de 82,3\%.\relax }{figure.caption.81}{}}
\newlabel{fig:tab_sup_pos7_13}{{\caption@xref {fig:tab_sup_pos7_13}{ on input line 117}}{61}{Posição 1 - 2\% de abertura}{figure.caption.82}{}}
\@writefile{lof}{\contentsline {figure}{\numberline {9.7}{\ignorespaces Tabela de press\IeC {\~o}es m\IeC {\'e}dias $\Delta p_{13}$ - produ\IeC {\c c}\IeC {\~a}o com termo linear $ \mu = 3.2$ cP e $ \rho = 800.0$ kg/$m^3$.\relax }}{61}{figure.caption.82}}
\newlabel{fig:tab_sup_pos7_23}{{\caption@xref {fig:tab_sup_pos7_23}{ on input line 125}}{61}{Posição 1 - 2\% de abertura}{figure.caption.83}{}}
\@writefile{lof}{\contentsline {figure}{\numberline {9.8}{\ignorespaces Tabela de press\IeC {\~o}es m\IeC {\'e}dias $\Delta p_{23}$ - produ\IeC {\c c}\IeC {\~a}o com termo linear $ \mu = 3.2$ cP e $ \rho = 800.0$ kg/$m^3$.\relax }}{61}{figure.caption.83}}
\@writefile{toc}{\contentsline {section}{\numberline {9.2}Campos de velocidade e press\IeC {\~a}o}{62}{section.9.2}}
\@writefile{toc}{\contentsline {subsection}{\numberline {9.2.1}Campos de velocidade}{62}{subsection.9.2.1}}
\@writefile{toc}{\contentsline {subsection}{\numberline {9.2.2}Campos de press\IeC {\~a}o}{62}{subsection.9.2.2}}
\@writefile{lof}{\contentsline {figure}{\numberline {9.9}{\ignorespaces Campos de velocidade para a posi\IeC {\c c}\IeC {\~a}o 1.\relax }}{63}{figure.caption.84}}
\newlabel{fig:pos1_campos_U}{{9.9}{63}{Campos de velocidade para a posição 1.\relax }{figure.caption.84}{}}
\@writefile{lof}{\contentsline {figure}{\numberline {9.10}{\ignorespaces Campos de velocidade para a posi\IeC {\c c}\IeC {\~a}o 7.\relax }}{63}{figure.caption.85}}
\newlabel{fig:pos7_campos_U}{{9.10}{63}{Campos de velocidade para a posição 7.\relax }{figure.caption.85}{}}
\@writefile{lof}{\contentsline {figure}{\numberline {9.11}{\ignorespaces Campos de velocidade para a posi\IeC {\c c}\IeC {\~a}o 7 comparando a produ\IeC {\c c}\IeC {\~a}o de dois \IeC {\'o}leos distintos.\relax }}{64}{figure.caption.86}}
\newlabel{fig:pos7_campos_U_comparativo}{{9.11}{64}{Campos de velocidade para a posição 7 comparando a produção de dois óleos distintos.\relax }{figure.caption.86}{}}
\@writefile{lof}{\contentsline {figure}{\numberline {9.12}{\ignorespaces Campos de press\IeC {\~a}o para a posi\IeC {\c c}\IeC {\~a}o 1.\relax }}{65}{figure.caption.87}}
\newlabel{fig:pos3_campos_p}{{9.12}{65}{Campos de pressão para a posição 1.\relax }{figure.caption.87}{}}
\@writefile{lof}{\contentsline {figure}{\numberline {9.13}{\ignorespaces Campos de press\IeC {\~a}o para a posi\IeC {\c c}\IeC {\~a}o 7.\relax }}{65}{figure.caption.88}}
\newlabel{fig:pos7_campos_p}{{9.13}{65}{Campos de pressão para a posição 7.\relax }{figure.caption.88}{}}
\@writefile{toc}{\contentsline {section}{\numberline {9.3}Sensibilidade em rela\IeC {\c c}\IeC {\~a}o a varia\IeC {\c c}\IeC {\~a}o de propriedade do \IeC {\'o}leo}{65}{section.9.3}}
\newlabel{sec:VarProps}{{9.3}{65}{Sensibilidade em relação a variação de propriedade do óleo}{section.9.3}{}}
\@writefile{lof}{\contentsline {figure}{\numberline {9.14}{\ignorespaces Campos de press\IeC {\~a}o para a posi\IeC {\c c}\IeC {\~a}o 7 comparando a produ\IeC {\c c}\IeC {\~a}o de dois \IeC {\'o}leos distintos.\relax }}{66}{figure.caption.89}}
\newlabel{fig:pos7_campos_p_comparativo}{{9.14}{66}{Campos de pressão para a posição 7 comparando a produção de dois óleos distintos.\relax }{figure.caption.89}{}}
\@writefile{lot}{\contentsline {table}{\numberline {9.3}{\ignorespaces Propriedades de \IeC {\'o}leo comparadas.\relax }}{66}{table.caption.90}}
\newlabel{tab:prop_oleo}{{9.3}{66}{Propriedades de óleo comparadas.\relax }{table.caption.90}{}}
\@writefile{lot}{\contentsline {table}{\numberline {9.4}{\ignorespaces Resultados da compara\IeC {\c c}\IeC {\~a}o entre os diferentes tipos de \IeC {\'o}leo.\relax }}{67}{table.caption.91}}
\newlabel{tab:comp_oleos}{{9.4}{67}{Resultados da comparação entre os diferentes tipos de óleo.\relax }{table.caption.91}{}}
\@writefile{lot}{\contentsline {table}{\numberline {9.5}{\ignorespaces Resultados da compara\IeC {\c c}\IeC {\~a}o da perda de carga para valor fixo de $\rho = 630 \ kg/m^3$.\relax }}{67}{table.caption.92}}
\newlabel{tab:comp_oleo_rho630}{{9.5}{67}{Resultados da comparação da perda de carga para valor fixo de $\rho = 630 \ kg/m^3$.\relax }{table.caption.92}{}}
\@writefile{lot}{\contentsline {table}{\numberline {9.6}{\ignorespaces Resultados da compara\IeC {\c c}\IeC {\~a}o da perda de carga para valor fixo de $\rho = 800 \ kg/m^3$.\relax }}{67}{table.caption.93}}
\newlabel{tab:comp_oleo_rho800}{{9.6}{67}{Resultados da comparação da perda de carga para valor fixo de $\rho = 800 \ kg/m^3$.\relax }{table.caption.93}{}}
\@writefile{lot}{\contentsline {table}{\numberline {9.7}{\ignorespaces Desvio relativo da perda de carga para dois valores de $\rho $ diferentes.\relax }}{68}{table.caption.94}}
\newlabel{tab:comp_oleo_difrho}{{9.7}{68}{Desvio relativo da perda de carga para dois valores de $\rho $ diferentes.\relax }{table.caption.94}{}}
\@writefile{lot}{\contentsline {table}{\numberline {9.8}{\ignorespaces Compara\IeC {\c c}\IeC {\~a}o entre as perdas de carga para valor fixo de $8,85\times 10^4 \ [Pa.s]$.\relax }}{68}{table.caption.95}}
\newlabel{tab:comp_oleo_mu}{{9.8}{68}{Comparação entre as perdas de carga para valor fixo de $8,85\times 10^4 \ [Pa.s]$.\relax }{table.caption.95}{}}
\@writefile{toc}{\contentsline {chapter}{\numberline {10}Resultados - Inje\IeC {\c c}\IeC {\~a}o - HCMA: \IeC {\'A}gua}{69}{chapter.10}}
\@writefile{lof}{\addvspace {10\p@ }}
\@writefile{lot}{\addvspace {10\p@ }}
\@writefile{lof}{\contentsline {xchapter}{Resultados - Inje\IeC {\c c}\IeC {\~a}o - HCMA: \IeC {\'A}gua}{69}{chapter.10}}
\@writefile{lot}{\contentsline {xchapter}{Resultados - Inje\IeC {\c c}\IeC {\~a}o - HCMA: \IeC {\'A}gua}{69}{chapter.10}}
\newlabel{results}{{10}{69}{Resultados - Injeção - HCMA: Água}{chapter.10}{}}
\@writefile{toc}{\contentsline {section}{\numberline {10.1}Ajuste das perdas de carga pela superf\IeC {\'\i }cie}{69}{section.10.1}}
\newlabel{sec:superf}{{10.1}{69}{Ajuste das perdas de carga pela superfície}{section.10.1}{}}
\@writefile{toc}{\contentsline {subsection}{\numberline {10.1.1}Posi\IeC {\c c}\IeC {\~a}o 7 - 82,3\% de abertura}{69}{subsection.10.1.1}}
\@writefile{lot}{\contentsline {table}{\numberline {10.1}{\ignorespaces Constantes de ajuste $\beta $ para $\Delta P_{13}$ e $\Delta P_{23}$ e seus respectivos erros padr\IeC {\~a}o para a posi\IeC {\c c}\IeC {\~a}o 1 - 2\% de abertura.\relax }}{69}{table.caption.96}}
\newlabel{tab:consts_pos7_agua_HCMA}{{10.1}{69}{Constantes de ajuste $\beta $ para $\Delta P_{13}$ e $\Delta P_{23}$ e seus respectivos erros padrão para a posição 1 - 2\% de abertura.\relax }{table.caption.96}{}}
\@writefile{lof}{\contentsline {figure}{\numberline {10.1}{\ignorespaces Varia\IeC {\c c}\IeC {\~a}o de $\Delta P_{13}$ de acordo com as vaz\IeC {\~o}es para posi\IeC {\c c}\IeC {\~a}o 7 - abertura de 82,3\%.\relax }}{70}{figure.caption.97}}
\newlabel{fig:pos7superficie13_inj_agua}{{10.1}{70}{Variação de $\Delta P_{13}$ de acordo com as vazões para posição 7 - abertura de 82,3\%.\relax }{figure.caption.97}{}}
\@writefile{lof}{\contentsline {figure}{\numberline {10.2}{\ignorespaces Varia\IeC {\c c}\IeC {\~a}o de $\Delta P_{23}$ de acordo com as vaz\IeC {\~o}es para posi\IeC {\c c}\IeC {\~a}o 7 - abertura de 82,3\%.\relax }}{70}{figure.caption.98}}
\newlabel{fig:pos7superficie23_inj_agua}{{10.2}{70}{Variação de $\Delta P_{23}$ de acordo com as vazões para posição 7 - abertura de 82,3\%.\relax }{figure.caption.98}{}}
\newlabel{fig:tab_sup_pos7_13_inj_agua}{{\caption@xref {fig:tab_sup_pos7_13_inj_agua}{ on input line 420}}{71}{Posição 7 - 82,3\% de abertura}{figure.caption.99}{}}
\@writefile{lof}{\contentsline {figure}{\numberline {10.3}{\ignorespaces Tabela de press\IeC {\~o}es m\IeC {\'e}dias $\Delta p_{13}$ - inje\IeC {\c c}\IeC {\~a}o de \IeC {\'a}gua com termo linear $ \mu = 0,7465 $ cP e $ \rho = 1043,25$ kg/$m^3$.\relax }}{71}{figure.caption.99}}
\newlabel{fig:tab_sup_pos7_23_inj_agua}{{\caption@xref {fig:tab_sup_pos7_23_inj_agua}{ on input line 428}}{72}{Posição 7 - 82,3\% de abertura}{figure.caption.100}{}}
\@writefile{lof}{\contentsline {figure}{\numberline {10.4}{\ignorespaces Tabela de press\IeC {\~o}es m\IeC {\'e}dias $\Delta p_{23}$ - produ\IeC {\c c}\IeC {\~a}o com termo linear $ \mu = 0,7465$ cP e $ \rho = 1043,25$ kg/$m^3$.\relax }}{72}{figure.caption.100}}
\@writefile{toc}{\contentsline {subsection}{\numberline {10.1.2}Posi\IeC {\c c}\IeC {\~a}o 1 - 2\% de abertura}{73}{subsection.10.1.2}}
\@writefile{lot}{\contentsline {table}{\numberline {10.2}{\ignorespaces Constantes de ajuste $\beta $ para $\Delta P_{13}$ e $\Delta P_{23}$ e seus respectivos erros padr\IeC {\~a}o para a posi\IeC {\c c}\IeC {\~a}o 1 - 2\% de abertura.\relax }}{73}{table.caption.101}}
\newlabel{tab:consts_pos1_agua_HCMA}{{10.2}{73}{Constantes de ajuste $\beta $ para $\Delta P_{13}$ e $\Delta P_{23}$ e seus respectivos erros padrão para a posição 1 - 2\% de abertura.\relax }{table.caption.101}{}}
\@writefile{lof}{\contentsline {figure}{\numberline {10.5}{\ignorespaces Varia\IeC {\c c}\IeC {\~a}o de $\Delta P_{13}$ de acordo com as vaz\IeC {\~o}es para posi\IeC {\c c}\IeC {\~a}o 1 - abertura de 2\%.\relax }}{73}{figure.caption.102}}
\newlabel{fig:pos1superficie13_inj_agua}{{10.5}{73}{Variação de $\Delta P_{13}$ de acordo com as vazões para posição 1 - abertura de 2\%.\relax }{figure.caption.102}{}}
\@writefile{lof}{\contentsline {figure}{\numberline {10.6}{\ignorespaces Varia\IeC {\c c}\IeC {\~a}o de $\Delta P_{23}$ de acordo com as vaz\IeC {\~o}es para posi\IeC {\c c}\IeC {\~a}o 1 - abertura de 82,3\%.\relax }}{74}{figure.caption.103}}
\newlabel{fig:pos1superficie23_inj_agua}{{10.6}{74}{Variação de $\Delta P_{23}$ de acordo com as vazões para posição 1 - abertura de 82,3\%.\relax }{figure.caption.103}{}}
\newlabel{fig:tab_sup_pos7_13}{{\caption@xref {fig:tab_sup_pos7_13}{ on input line 485}}{74}{Posição 1 - 2\% de abertura}{figure.caption.104}{}}
\@writefile{lof}{\contentsline {figure}{\numberline {10.7}{\ignorespaces Tabela de press\IeC {\~o}es m\IeC {\'e}dias $\Delta p_{13}$ - produ\IeC {\c c}\IeC {\~a}o com termo linear $ \mu = 3.2$ cP e $ \rho = 800.0$ kg/$m^3$.\relax }}{74}{figure.caption.104}}
\newlabel{fig:tab_sup_pos7_23}{{\caption@xref {fig:tab_sup_pos7_23}{ on input line 493}}{75}{Posição 1 - 2\% de abertura}{figure.caption.105}{}}
\@writefile{lof}{\contentsline {figure}{\numberline {10.8}{\ignorespaces Tabela de press\IeC {\~o}es m\IeC {\'e}dias $\Delta p_{23}$ - produ\IeC {\c c}\IeC {\~a}o com termo linear $ \mu = 3.2$ cP e $ \rho = 800.0$ kg/$m^3$.\relax }}{75}{figure.caption.105}}
\@writefile{toc}{\contentsline {section}{\numberline {10.2}Campos de velocidade e press\IeC {\~a}o}{76}{section.10.2}}
\@writefile{toc}{\contentsline {subsection}{\numberline {10.2.1}Campos de velocidade}{76}{subsection.10.2.1}}
\@writefile{toc}{\contentsline {subsection}{\numberline {10.2.2}Campos de press\IeC {\~a}o}{76}{subsection.10.2.2}}
\@writefile{lof}{\contentsline {figure}{\numberline {10.9}{\ignorespaces Campos de velocidade para a posi\IeC {\c c}\IeC {\~a}o 1.\relax }}{77}{figure.caption.106}}
\newlabel{fig:pos1_campos_U}{{10.9}{77}{Campos de velocidade para a posição 1.\relax }{figure.caption.106}{}}
\@writefile{lof}{\contentsline {figure}{\numberline {10.10}{\ignorespaces Campos de velocidade para a posi\IeC {\c c}\IeC {\~a}o 7.\relax }}{77}{figure.caption.107}}
\newlabel{fig:pos7_campos_U}{{10.10}{77}{Campos de velocidade para a posição 7.\relax }{figure.caption.107}{}}
\@writefile{lof}{\contentsline {figure}{\numberline {10.11}{\ignorespaces Campos de velocidade para a posi\IeC {\c c}\IeC {\~a}o 7 comparando a produ\IeC {\c c}\IeC {\~a}o de dois \IeC {\'o}leos distintos.\relax }}{78}{figure.caption.108}}
\newlabel{fig:pos7_campos_U_comparativo}{{10.11}{78}{Campos de velocidade para a posição 7 comparando a produção de dois óleos distintos.\relax }{figure.caption.108}{}}
\@writefile{lof}{\contentsline {figure}{\numberline {10.12}{\ignorespaces Campos de press\IeC {\~a}o para a posi\IeC {\c c}\IeC {\~a}o 1.\relax }}{79}{figure.caption.109}}
\newlabel{fig:pos3_campos_p}{{10.12}{79}{Campos de pressão para a posição 1.\relax }{figure.caption.109}{}}
\@writefile{lof}{\contentsline {figure}{\numberline {10.13}{\ignorespaces Campos de press\IeC {\~a}o para a posi\IeC {\c c}\IeC {\~a}o 7.\relax }}{79}{figure.caption.110}}
\newlabel{fig:pos7_campos_p}{{10.13}{79}{Campos de pressão para a posição 7.\relax }{figure.caption.110}{}}
\@writefile{lof}{\contentsline {figure}{\numberline {10.14}{\ignorespaces Campos de press\IeC {\~a}o para a posi\IeC {\c c}\IeC {\~a}o 7 comparando a produ\IeC {\c c}\IeC {\~a}o de dois \IeC {\'o}leos distintos.\relax }}{80}{figure.caption.111}}
\newlabel{fig:pos7_campos_p_comparativo}{{10.14}{80}{Campos de pressão para a posição 7 comparando a produção de dois óleos distintos.\relax }{figure.caption.111}{}}
\@writefile{toc}{\contentsline {chapter}{\numberline {11}Resultados - Produ\IeC {\c c}\IeC {\~a}o - Accupulse (ciclo 8) - Propriedades m\IeC {\'e}dias do \IeC {\'O}leo}{81}{chapter.11}}
\@writefile{lof}{\addvspace {10\p@ }}
\@writefile{lot}{\addvspace {10\p@ }}
\@writefile{lof}{\contentsline {xchapter}{Resultados - Produ\IeC {\c c}\IeC {\~a}o - Accupulse (ciclo 8) - Propriedades m\IeC {\'e}dias do \IeC {\'O}leo}{81}{chapter.11}}
\@writefile{lot}{\contentsline {xchapter}{Resultados - Produ\IeC {\c c}\IeC {\~a}o - Accupulse (ciclo 8) - Propriedades m\IeC {\'e}dias do \IeC {\'O}leo}{81}{chapter.11}}
\@writefile{toc}{\contentsline {section}{\numberline {11.1}Ajuste das perdas de carga pela superf\IeC {\'\i }cie}{81}{section.11.1}}
\newlabel{sec:superf_accupulse}{{11.1}{81}{Ajuste das perdas de carga pela superfície}{section.11.1}{}}
\@writefile{toc}{\contentsline {subsection}{\numberline {11.1.1}Posi\IeC {\c c}\IeC {\~a}o 10 - 100\% de abertura}{81}{subsection.11.1.1}}
\@writefile{lot}{\contentsline {table}{\numberline {11.1}{\ignorespaces Constantes de ajuste $\beta $ para $\Delta P_{13}$ e $\Delta P_{23}$ e seus respectivos erros padr\IeC {\~a}o para a posi\IeC {\c c}\IeC {\~a}o 1 - 2\% de abertura.\relax }}{82}{table.caption.112}}
\newlabel{tab:consts_pos10_oleo_Accupulse8}{{11.1}{82}{Constantes de ajuste $\beta $ para $\Delta P_{13}$ e $\Delta P_{23}$ e seus respectivos erros padrão para a posição 1 - 2\% de abertura.\relax }{table.caption.112}{}}
\@writefile{lof}{\contentsline {figure}{\numberline {11.1}{\ignorespaces Varia\IeC {\c c}\IeC {\~a}o de $\Delta P_{13}$ de acordo com as vaz\IeC {\~o}es para posi\IeC {\c c}\IeC {\~a}o 10 - abertura de 100\%.\relax }}{82}{figure.caption.113}}
\newlabel{fig:pos10_Accupulse_superficie13}{{11.1}{82}{Variação de $\Delta P_{13}$ de acordo com as vazões para posição 10 - abertura de 100\%.\relax }{figure.caption.113}{}}
\@writefile{lof}{\contentsline {figure}{\numberline {11.2}{\ignorespaces Varia\IeC {\c c}\IeC {\~a}o de $\Delta P_{23}$ de acordo com as vaz\IeC {\~o}es para posi\IeC {\c c}\IeC {\~a}o 10 - abertura de 100\%.\relax }}{83}{figure.caption.114}}
\newlabel{fig:pos10_Accupulse_superficie23}{{11.2}{83}{Variação de $\Delta P_{23}$ de acordo com as vazões para posição 10 - abertura de 100\%.\relax }{figure.caption.114}{}}
\newlabel{fig:tab_sup_pos10_13}{{\caption@xref {fig:tab_sup_pos10_13}{ on input line 655}}{83}{Posição 10 - 100\% de abertura}{figure.caption.115}{}}
\@writefile{lof}{\contentsline {figure}{\numberline {11.3}{\ignorespaces Tabela de press\IeC {\~o}es m\IeC {\'e}dias $\Delta p_{13}$ - produ\IeC {\c c}\IeC {\~a}o com termo linear $ \mu = 3.2$ cP e $ \rho = 800.0$ kg/$m^3$.\relax }}{83}{figure.caption.115}}
\newlabel{fig:tab_sup_pos10_23}{{\caption@xref {fig:tab_sup_pos10_23}{ on input line 663}}{84}{Posição 10 - 100\% de abertura}{figure.caption.116}{}}
\@writefile{lof}{\contentsline {figure}{\numberline {11.4}{\ignorespaces Tabela de press\IeC {\~o}es m\IeC {\'e}dias $\Delta p_{23}$ - produ\IeC {\c c}\IeC {\~a}o com termo linear $ \mu = 3.2$ cP e $ \rho = 800.0$ kg/$m^3$.\relax }}{84}{figure.caption.116}}
\@writefile{toc}{\contentsline {subsection}{\numberline {11.1.2}Posi\IeC {\c c}\IeC {\~a}o 3 - 2\% de abertura}{85}{subsection.11.1.2}}
\@writefile{lot}{\contentsline {table}{\numberline {11.2}{\ignorespaces Constantes de ajuste $\beta $ para $\Delta P_{13}$ e $\Delta P_{23}$ e seus respectivos erros padr\IeC {\~a}o para a posi\IeC {\c c}\IeC {\~a}o 3 - 2\% de abertura.\relax }}{85}{table.caption.117}}
\newlabel{tab:consts_pos3_oleo_Accupulse8}{{11.2}{85}{Constantes de ajuste $\beta $ para $\Delta P_{13}$ e $\Delta P_{23}$ e seus respectivos erros padrão para a posição 3 - 2\% de abertura.\relax }{table.caption.117}{}}
\@writefile{lof}{\contentsline {figure}{\numberline {11.5}{\ignorespaces Varia\IeC {\c c}\IeC {\~a}o de $\Delta P_{13}$ de acordo com as vaz\IeC {\~o}es para posi\IeC {\c c}\IeC {\~a}o3 - abertura de 2\%.\relax }}{86}{figure.caption.118}}
\newlabel{fig:pos3_Accupulse_superficie13}{{11.5}{86}{Variação de $\Delta P_{13}$ de acordo com as vazões para posição3 - abertura de 2\%.\relax }{figure.caption.118}{}}
\@writefile{lof}{\contentsline {figure}{\numberline {11.6}{\ignorespaces Varia\IeC {\c c}\IeC {\~a}o de $\Delta P_{23}$ de acordo com as vaz\IeC {\~o}es para posi\IeC {\c c}\IeC {\~a}o 3 - abertura de 2\%.\relax }}{86}{figure.caption.119}}
\newlabel{fig:pos3_Accupulse_superficie23}{{11.6}{86}{Variação de $\Delta P_{23}$ de acordo com as vazões para posição 3 - abertura de 2\%.\relax }{figure.caption.119}{}}
\newlabel{fig:tab_sup_pos3_13}{{\caption@xref {fig:tab_sup_pos3_13}{ on input line 712}}{87}{Posição 3 - 2\% de abertura}{figure.caption.120}{}}
\@writefile{lof}{\contentsline {figure}{\numberline {11.7}{\ignorespaces Tabela de press\IeC {\~o}es m\IeC {\'e}dias $\Delta p_{13}$ - produ\IeC {\c c}\IeC {\~a}o com termo linear $ \mu = 3.2$ cP e $ \rho = 800.0$ kg/$m^3$.\relax }}{87}{figure.caption.120}}
\newlabel{fig:tab_sup_pos3_23}{{\caption@xref {fig:tab_sup_pos3_23}{ on input line 720}}{87}{Posição 3 - 2\% de abertura}{figure.caption.121}{}}
\@writefile{lof}{\contentsline {figure}{\numberline {11.8}{\ignorespaces Tabela de press\IeC {\~o}es m\IeC {\'e}dias $\Delta p_{23}$ - produ\IeC {\c c}\IeC {\~a}o com termo linear $ \mu = 3.2$ cP e $ \rho = 800.0$ kg/$m^3$.\relax }}{87}{figure.caption.121}}
\@writefile{toc}{\contentsline {section}{\numberline {11.2}Campos de velocidade e press\IeC {\~a}o}{88}{section.11.2}}
\@writefile{toc}{\contentsline {subsection}{\numberline {11.2.1}Campos de velocidade}{88}{subsection.11.2.1}}
\newlabel{fig:velocidade_pos3_accupulse8}{{\caption@xref {fig:velocidade_pos3_accupulse8}{ on input line 759}}{89}{Campos de velocidade}{figure.caption.122}{}}
\@writefile{lof}{\contentsline {figure}{\numberline {11.9}{\ignorespaces Campos de velocidades referentes a posi\IeC {\c c}\IeC {\~a}o 3.\relax }}{89}{figure.caption.122}}
\newlabel{fig:velocidade_pos10_accupulse8}{{\caption@xref {fig:velocidade_pos10_accupulse8}{ on input line 766}}{89}{Campos de velocidade}{figure.caption.123}{}}
\@writefile{lof}{\contentsline {figure}{\numberline {11.10}{\ignorespaces Campos de velocidades referentes a posi\IeC {\c c}\IeC {\~a}o 10.\relax }}{89}{figure.caption.123}}
\@writefile{toc}{\contentsline {subsection}{\numberline {11.2.2}Campos de Press\IeC {\~a}o}{89}{subsection.11.2.2}}
\newlabel{fig:compara_U_oleo_accupulse8}{{\caption@xref {fig:compara_U_oleo_accupulse8}{ on input line 776}}{90}{Campos de velocidade}{figure.caption.124}{}}
\@writefile{lof}{\contentsline {figure}{\numberline {11.11}{\ignorespaces Campos de velocidades referentes a posi\IeC {\c c}\IeC {\~a}o 10 comparando a produ\IeC {\c c}\IeC {\~a}o de dois \IeC {\'o}leos distintos.\relax }}{90}{figure.caption.124}}
\newlabel{fig:pressao_pos3_accupulse8}{{\caption@xref {fig:pressao_pos3_accupulse8}{ on input line 790}}{90}{Campos de Pressão}{figure.caption.125}{}}
\@writefile{lof}{\contentsline {figure}{\numberline {11.12}{\ignorespaces Campos de press\IeC {\~a}o referentes a posi\IeC {\c c}\IeC {\~a}o 3.\relax }}{90}{figure.caption.125}}
\newlabel{fig:pressao_pos10_accupulse8}{{\caption@xref {fig:pressao_pos10_accupulse8}{ on input line 797}}{91}{Campos de Pressão}{figure.caption.126}{}}
\@writefile{lof}{\contentsline {figure}{\numberline {11.13}{\ignorespaces Campos de press\IeC {\~a}o referentes a posi\IeC {\c c}\IeC {\~a}o 10.\relax }}{91}{figure.caption.126}}
\newlabel{fig:compara_p_oleo_accupulse8}{{\caption@xref {fig:compara_p_oleo_accupulse8}{ on input line 811}}{92}{Campos de Pressão}{figure.caption.127}{}}
\@writefile{lof}{\contentsline {figure}{\numberline {11.14}{\ignorespaces Campos de press\IeC {\~a}o referentes a posi\IeC {\c c}\IeC {\~a}o 10 comparando a produ\IeC {\c c}\IeC {\~a}o de dois \IeC {\'o}leos distintos.\relax }}{92}{figure.caption.127}}
\@writefile{toc}{\contentsline {chapter}{\numberline {12}Resultados - Inje\IeC {\c c}\IeC {\~a}o - Accupulse (ciclo 8) - \IeC {\'A}gua}{93}{chapter.12}}
\@writefile{lof}{\addvspace {10\p@ }}
\@writefile{lot}{\addvspace {10\p@ }}
\@writefile{lof}{\contentsline {xchapter}{Resultados - Inje\IeC {\c c}\IeC {\~a}o - Accupulse (ciclo 8) - \IeC {\'A}gua}{93}{chapter.12}}
\@writefile{lot}{\contentsline {xchapter}{Resultados - Inje\IeC {\c c}\IeC {\~a}o - Accupulse (ciclo 8) - \IeC {\'A}gua}{93}{chapter.12}}
\newlabel{results}{{12}{93}{Resultados - Injeção - Accupulse (ciclo 8) - Água}{chapter.12}{}}
\@writefile{toc}{\contentsline {section}{\numberline {12.1}Ajuste das perdas de carga pela superf\IeC {\'\i }cie}{93}{section.12.1}}
\newlabel{sec:superf}{{12.1}{93}{Ajuste das perdas de carga pela superfície}{section.12.1}{}}
\@writefile{toc}{\contentsline {subsection}{\numberline {12.1.1}Posi\IeC {\c c}\IeC {\~a}o 10 - 100\% de abertura}{93}{subsection.12.1.1}}
\@writefile{lot}{\contentsline {table}{\numberline {12.1}{\ignorespaces Constantes de ajuste $\beta $ para $\Delta P_{13}$ e $\Delta P_{23}$ e seus respectivos erros padr\IeC {\~a}o para a posi\IeC {\c c}\IeC {\~a}o 10 - 100\% de abertura.\relax }}{93}{table.caption.128}}
\newlabel{tab:consts_pos10_agua_accupulse8}{{12.1}{93}{Constantes de ajuste $\beta $ para $\Delta P_{13}$ e $\Delta P_{23}$ e seus respectivos erros padrão para a posição 10 - 100\% de abertura.\relax }{table.caption.128}{}}
\@writefile{lof}{\contentsline {figure}{\numberline {12.1}{\ignorespaces Varia\IeC {\c c}\IeC {\~a}o de $\Delta P_{13}$ de acordo com as vaz\IeC {\~o}es para posi\IeC {\c c}\IeC {\~a}o 10 - abertura de 100\%.\relax }}{94}{figure.caption.129}}
\newlabel{fig:pos10_accupulse8_superficie13_inj_agua}{{12.1}{94}{Variação de $\Delta P_{13}$ de acordo com as vazões para posição 10 - abertura de 100\%.\relax }{figure.caption.129}{}}
\@writefile{lof}{\contentsline {figure}{\numberline {12.2}{\ignorespaces Varia\IeC {\c c}\IeC {\~a}o de $\Delta P_{23}$ de acordo com as vaz\IeC {\~o}es para posi\IeC {\c c}\IeC {\~a}o 10 - abertura de 100\%.\relax }}{94}{figure.caption.130}}
\newlabel{fig:pos10_accupulse8_superficie23_inj_agua}{{12.2}{94}{Variação de $\Delta P_{23}$ de acordo com as vazões para posição 10 - abertura de 100\%.\relax }{figure.caption.130}{}}
\newlabel{fig:tab_sup_pos10_accupulse8_13_inj_agua}{{\caption@xref {fig:tab_sup_pos10_accupulse8_13_inj_agua}{ on input line 877}}{95}{Posição 10 - 100\% de abertura}{figure.caption.131}{}}
\@writefile{lof}{\contentsline {figure}{\numberline {12.3}{\ignorespaces Tabela de press\IeC {\~o}es m\IeC {\'e}dias $\Delta p_{13}$ - inje\IeC {\c c}\IeC {\~a}o de \IeC {\'a}gua com termo linear $ \mu = 0,7465 $ cP e $ \rho = 1043,25$ kg/$m^3$.\relax }}{95}{figure.caption.131}}
\newlabel{fig:tab_sup_pos10_accupulse8_23_inj_agua}{{\caption@xref {fig:tab_sup_pos10_accupulse8_23_inj_agua}{ on input line 885}}{96}{Posição 10 - 100\% de abertura}{figure.caption.132}{}}
\@writefile{lof}{\contentsline {figure}{\numberline {12.4}{\ignorespaces Tabela de press\IeC {\~o}es m\IeC {\'e}dias $\Delta p_{23}$ - produ\IeC {\c c}\IeC {\~a}o com termo linear $ \mu = 0,7465$ cP e $ \rho = 1043,25$ kg/$m^3$.\relax }}{96}{figure.caption.132}}
\@writefile{toc}{\contentsline {subsection}{\numberline {12.1.2}Posi\IeC {\c c}\IeC {\~a}o 3 - 2\% de abertura}{97}{subsection.12.1.2}}
\@writefile{lot}{\contentsline {table}{\numberline {12.2}{\ignorespaces Constantes de ajuste $\beta $ para $\Delta P_{13}$ e $\Delta P_{23}$ e seus respectivos erros padr\IeC {\~a}o para a posi\IeC {\c c}\IeC {\~a}o 3 - 2\% de abertura.\relax }}{97}{table.caption.133}}
\newlabel{tab:consts_pos3_agua_accupulse8}{{12.2}{97}{Constantes de ajuste $\beta $ para $\Delta P_{13}$ e $\Delta P_{23}$ e seus respectivos erros padrão para a posição 3 - 2\% de abertura.\relax }{table.caption.133}{}}
\@writefile{lof}{\contentsline {figure}{\numberline {12.5}{\ignorespaces Varia\IeC {\c c}\IeC {\~a}o de $\Delta P_{13}$ de acordo com as vaz\IeC {\~o}es para posi\IeC {\c c}\IeC {\~a}o 3 - abertura de 2\%.\relax }}{97}{figure.caption.134}}
\newlabel{fig:pos3superficie13_accupulse8_inj_agua}{{12.5}{97}{Variação de $\Delta P_{13}$ de acordo com as vazões para posição 3 - abertura de 2\%.\relax }{figure.caption.134}{}}
\@writefile{lof}{\contentsline {figure}{\numberline {12.6}{\ignorespaces Varia\IeC {\c c}\IeC {\~a}o de $\Delta P_{23}$ de acordo com as vaz\IeC {\~o}es para posi\IeC {\c c}\IeC {\~a}o 3 - abertura de 2\%.\relax }}{98}{figure.caption.135}}
\newlabel{fig:pos3superficie23_accupulse8_inj_agua}{{12.6}{98}{Variação de $\Delta P_{23}$ de acordo com as vazões para posição 3 - abertura de 2\%.\relax }{figure.caption.135}{}}
\newlabel{fig:tab_sup_pos3_accupulse8_13}{{\caption@xref {fig:tab_sup_pos3_accupulse8_13}{ on input line 938}}{98}{Posição 3 - 2\% de abertura}{figure.caption.136}{}}
\@writefile{lof}{\contentsline {figure}{\numberline {12.7}{\ignorespaces Tabela de press\IeC {\~o}es m\IeC {\'e}dias $\Delta p_{13}$ - inje\IeC {\c c}\IeC {\~a}o com termo linear $ \mu = 0,7465$ cP e $ \rho = 1043,25$ kg/$m^3$.\relax }}{98}{figure.caption.136}}
\newlabel{fig:tab_sup_pos3_accupulse8_23}{{\caption@xref {fig:tab_sup_pos3_accupulse8_23}{ on input line 946}}{99}{Posição 3 - 2\% de abertura}{figure.caption.137}{}}
\@writefile{lof}{\contentsline {figure}{\numberline {12.8}{\ignorespaces Tabela de press\IeC {\~o}es m\IeC {\'e}dias $\Delta p_{23}$ - produ\IeC {\c c}\IeC {\~a}o com termo linear $ \mu = 0,7465$ cP e $ \rho = 1043,25$ kg/$m^3$.\relax }}{99}{figure.caption.137}}
\@writefile{toc}{\contentsline {section}{\numberline {12.2}Campos de velocidade e press\IeC {\~a}o}{100}{section.12.2}}
\@writefile{toc}{\contentsline {subsection}{\numberline {12.2.1}Campos de velocidade}{100}{subsection.12.2.1}}
\@writefile{lof}{\contentsline {figure}{\numberline {12.9}{\ignorespaces Campos de velocidade para a posi\IeC {\c c}\IeC {\~a}o 3.\relax }}{100}{figure.caption.138}}
\newlabel{fig:pos3_accupulse8_campos_U}{{12.9}{100}{Campos de velocidade para a posição 3.\relax }{figure.caption.138}{}}
\@writefile{lof}{\contentsline {figure}{\numberline {12.10}{\ignorespaces Campos de velocidade para a posi\IeC {\c c}\IeC {\~a}o 10.\relax }}{101}{figure.caption.139}}
\newlabel{fig:pos10_accupulse8_campos_U}{{12.10}{101}{Campos de velocidade para a posição 10.\relax }{figure.caption.139}{}}
\@writefile{toc}{\contentsline {subsection}{\numberline {12.2.2}Campos de press\IeC {\~a}o}{101}{subsection.12.2.2}}
\@writefile{lof}{\contentsline {figure}{\numberline {12.11}{\ignorespaces Campos de press\IeC {\~a}o para a posi\IeC {\c c}\IeC {\~a}o 3.\relax }}{102}{figure.caption.140}}
\newlabel{fig:pos3_accupulse8_campos_p}{{12.11}{102}{Campos de pressão para a posição 3.\relax }{figure.caption.140}{}}
\@writefile{lof}{\contentsline {figure}{\numberline {12.12}{\ignorespaces Campos de press\IeC {\~a}o para a posi\IeC {\c c}\IeC {\~a}o 10.\relax }}{102}{figure.caption.141}}
\newlabel{fig:pos10_accupulse8_campos_p}{{12.12}{102}{Campos de pressão para a posição 10.\relax }{figure.caption.141}{}}
\@writefile{toc}{\contentsline {chapter}{\numberline {13}Resultados - Inje\IeC {\c c}\IeC {\~a}o - Accupulse (ciclo8): G\IeC {\'a}s}{103}{chapter.13}}
\@writefile{lof}{\addvspace {10\p@ }}
\@writefile{lot}{\addvspace {10\p@ }}
\@writefile{lof}{\contentsline {xchapter}{Resultados - Inje\IeC {\c c}\IeC {\~a}o - Accupulse (ciclo8): G\IeC {\'a}s}{103}{chapter.13}}
\@writefile{lot}{\contentsline {xchapter}{Resultados - Inje\IeC {\c c}\IeC {\~a}o - Accupulse (ciclo8): G\IeC {\'a}s}{103}{chapter.13}}
\@writefile{toc}{\contentsline {section}{\numberline {13.1}Ajuste das perdas de carga pela superf\IeC {\'\i }cie}{103}{section.13.1}}
\newlabel{sec:superf}{{13.1}{103}{Ajuste das perdas de carga pela superfície}{section.13.1}{}}
\@writefile{toc}{\contentsline {subsection}{\numberline {13.1.1}Posi\IeC {\c c}\IeC {\~a}o 10 - 100\% de abertura}{103}{subsection.13.1.1}}
\@writefile{lot}{\contentsline {table}{\numberline {13.1}{\ignorespaces Constantes de ajuste $\beta $ para $\Delta P_{13}$ e $\Delta P_{23}$ e seus respectivos erros padr\IeC {\~a}o para a posi\IeC {\c c}\IeC {\~a}o 10 - 100\% de abertura.\relax }}{104}{table.caption.142}}
\newlabel{tab:consts_pos7_gas_HCMA}{{13.1}{104}{Constantes de ajuste $\beta $ para $\Delta P_{13}$ e $\Delta P_{23}$ e seus respectivos erros padrão para a posição 10 - 100\% de abertura.\relax }{table.caption.142}{}}
\@writefile{lof}{\contentsline {figure}{\numberline {13.1}{\ignorespaces Varia\IeC {\c c}\IeC {\~a}o de $\Delta P_{13}$ de acordo com as vaz\IeC {\~o}es para posi\IeC {\c c}\IeC {\~a}o 7 para a inje\IeC {\c c}\IeC {\~a}o de g\IeC {\'a}s - abertura de 82,3\%.\relax }}{104}{figure.caption.143}}
\newlabel{fig:pos7superficie13_inj_gas}{{13.1}{104}{Variação de $\Delta P_{13}$ de acordo com as vazões para posição 7 para a injeção de gás - abertura de 82,3\%.\relax }{figure.caption.143}{}}
\@writefile{lof}{\contentsline {figure}{\numberline {13.2}{\ignorespaces Varia\IeC {\c c}\IeC {\~a}o de $\Delta P_{23}$ de acordo com as vaz\IeC {\~o}es para posi\IeC {\c c}\IeC {\~a}o 7 para a inje\IeC {\c c}\IeC {\~a}o de g\IeC {\'a}s - abertura de 82,3\%.\relax }}{104}{figure.caption.144}}
\newlabel{fig:pos7superficie23_inj_gas}{{13.2}{104}{Variação de $\Delta P_{23}$ de acordo com as vazões para posição 7 para a injeção de gás - abertura de 82,3\%.\relax }{figure.caption.144}{}}
\newlabel{fig:tab_sup_pos7_13_inj_gas}{{\caption@xref {fig:tab_sup_pos7_13_inj_gas}{ on input line 1088}}{104}{Posição 10 - 100\% de abertura}{figure.caption.145}{}}
\@writefile{lof}{\contentsline {figure}{\numberline {13.3}{\ignorespaces Tabela de press\IeC {\~o}es m\IeC {\'e}dias $\Delta p_{13}$ - inje\IeC {\c c}\IeC {\~a}o de g\IeC {\'a}s com termo linear $ \rho = 499,60$ kg/$m^3$.\relax }}{104}{figure.caption.145}}
\newlabel{fig:tab_sup_pos7_23_inj_gas}{{\caption@xref {fig:tab_sup_pos7_23_inj_gas}{ on input line 1096}}{104}{Posição 10 - 100\% de abertura}{figure.caption.146}{}}
\@writefile{lof}{\contentsline {figure}{\numberline {13.4}{\ignorespaces Tabela de press\IeC {\~o}es m\IeC {\'e}dias $\Delta p_{23}$ - inje\IeC {\c c}\IeC {\~a}o de g\IeC {\'a}s com termo linear $ \rho = 499,60$ kg/$m^3$.\relax }}{104}{figure.caption.146}}
\@writefile{toc}{\contentsline {subsection}{\numberline {13.1.2}Posi\IeC {\c c}\IeC {\~a}o 5 - 6\% de abertura}{105}{subsection.13.1.2}}
\@writefile{lot}{\contentsline {table}{\numberline {13.2}{\ignorespaces Constantes de ajuste $\beta $ para $\Delta P_{13}$ e $\Delta P_{23}$ e seus respectivos erros padr\IeC {\~a}o para a posi\IeC {\c c}\IeC {\~a}o 5 - 6\% de abertura.\relax }}{105}{table.caption.147}}
\newlabel{tab:consts_pos3_gas_HCMA}{{13.2}{105}{Constantes de ajuste $\beta $ para $\Delta P_{13}$ e $\Delta P_{23}$ e seus respectivos erros padrão para a posição 5 - 6\% de abertura.\relax }{table.caption.147}{}}
\@writefile{lof}{\contentsline {figure}{\numberline {13.5}{\ignorespaces Varia\IeC {\c c}\IeC {\~a}o de $\Delta P_{13}$ de acordo com as vaz\IeC {\~o}es para posi\IeC {\c c}\IeC {\~a}o 3 - abertura de 6\%.\relax }}{105}{figure.caption.148}}
\newlabel{fig:pos3superficie13_inj_gas}{{13.5}{105}{Variação de $\Delta P_{13}$ de acordo com as vazões para posição 3 - abertura de 6\%.\relax }{figure.caption.148}{}}
\@writefile{lof}{\contentsline {figure}{\numberline {13.6}{\ignorespaces Varia\IeC {\c c}\IeC {\~a}o de $\Delta P_{23}$ de acordo com as vaz\IeC {\~o}es para posi\IeC {\c c}\IeC {\~a}o 3 - abertura de 6\%.\relax }}{105}{figure.caption.149}}
\newlabel{fig:pos3superficie23_inj_gas}{{13.6}{105}{Variação de $\Delta P_{23}$ de acordo com as vazões para posição 3 - abertura de 6\%.\relax }{figure.caption.149}{}}
\newlabel{fig:tab_sup_pos3_13_gas}{{\caption@xref {fig:tab_sup_pos3_13_gas}{ on input line 1150}}{106}{Posição 5 - 6\% de abertura}{figure.caption.150}{}}
\@writefile{lof}{\contentsline {figure}{\numberline {13.7}{\ignorespaces Tabela de press\IeC {\~o}es m\IeC {\'e}dias $\Delta p_{13}$ - inje\IeC {\c c}\IeC {\~a}o de g\IeC {\'a}s na posi\IeC {\c c}\IeC {\~a}o 3, com termo linear $ \rho = 499,60$ kg/$m^3$.\relax }}{106}{figure.caption.150}}
\newlabel{fig:tab_sup_pos3_23_gas}{{\caption@xref {fig:tab_sup_pos3_23_gas}{ on input line 1158}}{106}{Posição 5 - 6\% de abertura}{figure.caption.151}{}}
\@writefile{lof}{\contentsline {figure}{\numberline {13.8}{\ignorespaces Tabela de press\IeC {\~o}es m\IeC {\'e}dias $\Delta p_{23}$ - inje\IeC {\c c}\IeC {\~a}o de g\IeC {\'a}s na posi\IeC {\c c}\IeC {\~a}o 3, com termo linear$ \rho = 499,60$ kg/$m^3$.\relax }}{106}{figure.caption.151}}
\@writefile{toc}{\contentsline {section}{\numberline {13.2}Campos de velocidade e press\IeC {\~a}o}{107}{section.13.2}}
\@writefile{toc}{\contentsline {subsection}{\numberline {13.2.1}Campos de velocidade}{107}{subsection.13.2.1}}
\@writefile{lof}{\contentsline {figure}{\numberline {13.9}{\ignorespaces Campos de velocidade da posi\IeC {\c c}\IeC {\~a}o 3 para inje\IeC {\c c}\IeC {\~a}o de g\IeC {\'a}s.\relax }}{107}{figure.caption.152}}
\newlabel{fig:pos1_campos_U_inj_gas}{{13.9}{107}{Campos de velocidade da posição 3 para injeção de gás.\relax }{figure.caption.152}{}}
\@writefile{lof}{\contentsline {figure}{\numberline {13.10}{\ignorespaces Campos de velocidade da posi\IeC {\c c}\IeC {\~a}o 7 para inje\IeC {\c c}\IeC {\~a}o de g\IeC {\'a}s.\relax }}{107}{figure.caption.153}}
\newlabel{fig:pos7_campos_U_inj_gas}{{13.10}{107}{Campos de velocidade da posição 7 para injeção de gás.\relax }{figure.caption.153}{}}
\@writefile{lof}{\contentsline {figure}{\numberline {13.11}{\ignorespaces Compara\IeC {\c c}\IeC {\~a}o dos campos de velocidade da posi\IeC {\c c}\IeC {\~a}o 1 para inje\IeC {\c c}\IeC {\~a}o de \IeC {\'a}gua e g\IeC {\'a}s.\relax }}{107}{figure.caption.154}}
\newlabel{fig:Compare_pos1_campos_U_inj_gas_agua}{{13.11}{107}{Comparação dos campos de velocidade da posição 1 para injeção de água e gás.\relax }{figure.caption.154}{}}
\@writefile{toc}{\contentsline {subsection}{\numberline {13.2.2}Campos de press\IeC {\~a}o}{107}{subsection.13.2.2}}
\@writefile{lof}{\contentsline {figure}{\numberline {13.12}{\ignorespaces Campos de press\IeC {\~a}o da posi\IeC {\c c}\IeC {\~a}o 3 para inje\IeC {\c c}\IeC {\~a}o de g\IeC {\'a}s.\relax }}{108}{figure.caption.155}}
\newlabel{fig:pos1_campos_p_inj_gas}{{13.12}{108}{Campos de pressão da posição 3 para injeção de gás.\relax }{figure.caption.155}{}}
\@writefile{lof}{\contentsline {figure}{\numberline {13.13}{\ignorespaces Campos de press\IeC {\~a}o da posi\IeC {\c c}\IeC {\~a}o 7 para inje\IeC {\c c}\IeC {\~a}o de g\IeC {\'a}s.\relax }}{108}{figure.caption.156}}
\newlabel{fig:pos7_campos_p_inj_gas}{{13.13}{108}{Campos de pressão da posição 7 para injeção de gás.\relax }{figure.caption.156}{}}
\@writefile{lof}{\contentsline {figure}{\numberline {13.14}{\ignorespaces Compara\IeC {\c c}\IeC {\~a}o dos campos de press\IeC {\~a}o da posi\IeC {\c c}\IeC {\~a}o 1 para inje\IeC {\c c}\IeC {\~a}o de \IeC {\'a}gua e g\IeC {\'a}s.\relax }}{108}{figure.caption.157}}
\newlabel{fig:Comparacao_pos1_campos_p_inj_gas_agua}{{13.14}{108}{Comparação dos campos de pressão da posição 1 para injeção de água e gás.\relax }{figure.caption.157}{}}
\@setckpt{chapters/resultados}{
\setcounter{page}{109}
\setcounter{equation}{0}
\setcounter{enumi}{2}
\setcounter{enumii}{0}
\setcounter{enumiii}{0}
\setcounter{enumiv}{0}
\setcounter{footnote}{0}
\setcounter{mpfootnote}{0}
\setcounter{part}{0}
\setcounter{chapter}{13}
\setcounter{section}{2}
\setcounter{subsection}{2}
\setcounter{subsubsection}{0}
\setcounter{paragraph}{0}
\setcounter{subparagraph}{0}
\setcounter{figure}{14}
\setcounter{table}{2}
\setcounter{parentequation}{0}
\setcounter{ContinuedFloat}{0}
\setcounter{subfigure}{0}
\setcounter{subtable}{0}
\setcounter{lstnumber}{1}
\setcounter{mtc}{13}
\setcounter{minitocdepth}{1}
\setcounter{ptc}{0}
\setcounter{parttocdepth}{2}
\setcounter{Item}{9}
\setcounter{Hfootnote}{0}
\setcounter{bookmark@seq@number}{70}
\setcounter{ABCIaux}{0}
\setcounter{ABCImax}{0}
\setcounter{FancyVerbLine}{0}
\setcounter{linenumber}{1}
\setcounter{LN@truepage}{115}
\setcounter{FV@TrueTabGroupLevel}{0}
\setcounter{FV@TrueTabCounter}{0}
\setcounter{FV@HighlightLinesStart}{0}
\setcounter{FV@HighlightLinesStop}{0}
\setcounter{FancyVerbLineBreakLast}{0}
\setcounter{float@type}{16}
\setcounter{minted@FancyVerbLineTemp}{0}
\setcounter{minted@pygmentizecounter}{0}
\setcounter{listing}{0}
\setcounter{mdf@globalstyle@cnt}{0}
\setcounter{mdfcountframes}{0}
\setcounter{mdf@env@i}{0}
\setcounter{mdf@env@ii}{0}
\setcounter{mdf@zref@counter}{0}
\setcounter{AM@survey}{0}
\setcounter{lstlisting}{0}
\setcounter{section@level}{2}
}
