\relax 
\providecommand\hyper@newdestlabel[2]{}
\providecommand\zref@newlabel[2]{}
\@writefile{toc}{\contentsline {chapter}{\numberline {9}Resultados - Produ\IeC {\c c}\IeC {\~a}o - \textit  {HCM-A 45} - Propriedades m\IeC {\'e}dias do \IeC {\'O}leo}{62}{chapter.9}\protected@file@percent }
\@writefile{lof}{\addvspace {10\p@ }}
\@writefile{lot}{\addvspace {10\p@ }}
\@writefile{lof}{\contentsline {xchapter}{Resultados - Produ\IeC {\c c}\IeC {\~a}o - \textit  {HCM-A 45} - Propriedades m\IeC {\'e}dias do \IeC {\'O}leo}{62}{chapter.9}\protected@file@percent }
\@writefile{lot}{\contentsline {xchapter}{Resultados - Produ\IeC {\c c}\IeC {\~a}o - \textit  {HCM-A 45} - Propriedades m\IeC {\'e}dias do \IeC {\'O}leo}{62}{chapter.9}\protected@file@percent }
\newlabel{results_hcma_oil}{{9}{62}{Resultados - Produção - \textit {HCM-A 45} - Propriedades médias do Óleo}{chapter.9}{}}
\@writefile{toc}{\contentsline {section}{\numberline {9.1}Ajuste das perdas de carga pela superf\IeC {\'\i }cie}{62}{section.9.1}\protected@file@percent }
\newlabel{sec:superf_pord_oil_hcma}{{9.1}{62}{Ajuste das perdas de carga pela superfície}{section.9.1}{}}
\@writefile{toc}{\contentsline {subsection}{\numberline {9.1.1}Posi\IeC {\c c}\IeC {\~a}o 7 - 82,3\% de abertura}{62}{subsection.9.1.1}\protected@file@percent }
\@writefile{lot}{\contentsline {table}{\numberline {9.1}{\ignorespaces Constantes de ajuste $\beta $ para $\Delta P_{13}$ e $\Delta P_{23}$ e seus respectivos erros padr\IeC {\~a}o para a posi\IeC {\c c}\IeC {\~a}o 7 da \textit  {HCMA-A 45} - 83,2\% de abertura.\relax }}{63}{table.caption.83}\protected@file@percent }
\newlabel{tab:consts_pos7_oleo_HCMA}{{9.1}{63}{Constantes de ajuste $\beta $ para $\Delta P_{13}$ e $\Delta P_{23}$ e seus respectivos erros padrão para a posição 7 da \textit {HCMA-A 45} - 83,2\% de abertura.\relax }{table.caption.83}{}}
\@writefile{lof}{\contentsline {figure}{\numberline {9.1}{\ignorespaces Varia\IeC {\c c}\IeC {\~a}o de $\Delta P_{13}$ de acordo com as vaz\IeC {\~o}es para posi\IeC {\c c}\IeC {\~a}o 7 da \textit  {HCMA-A 45} - abertura de 82,3\%.\relax }}{63}{figure.caption.84}\protected@file@percent }
\newlabel{fig:pos7superficie13_oil_hcma}{{9.1}{63}{Variação de $\Delta P_{13}$ de acordo com as vazões para posição 7 da \textit {HCMA-A 45} - abertura de 82,3\%.\relax }{figure.caption.84}{}}
\@writefile{lof}{\contentsline {figure}{\numberline {9.2}{\ignorespaces Varia\IeC {\c c}\IeC {\~a}o de $\Delta P_{23}$ de acordo com as vaz\IeC {\~o}es para posi\IeC {\c c}\IeC {\~a}o 7 da \textit  {HCMA-A 45} - abertura de 82,3\%.\relax }}{64}{figure.caption.85}\protected@file@percent }
\newlabel{fig:pos7superficie23_oil_hcma}{{9.2}{64}{Variação de $\Delta P_{23}$ de acordo com as vazões para posição 7 da \textit {HCMA-A 45} - abertura de 82,3\%.\relax }{figure.caption.85}{}}
\@writefile{lot}{\contentsline {table}{\numberline {9.2}{\ignorespaces Tabela de press\IeC {\~o}es m\IeC {\'e}dias $\Delta p_{13}$ - produ\IeC {\c c}\IeC {\~a}o com termo linear $ \mu = 3.2$ cP e $ \rho = 800.0$ kg/$m^3$ (Posi\IeC {\c c}\IeC {\~a}o 7 da \textit  {HCMA-A 45}).\relax }}{64}{table.caption.86}\protected@file@percent }
\newlabel{tab:tab_pos7_13_hcma_oil}{{9.2}{64}{Tabela de pressões médias $\Delta p_{13}$ - produção com termo linear $ \mu = 3.2$ cP e $ \rho = 800.0$ kg/$m^3$ (Posição 7 da \textit {HCMA-A 45}).\relax }{table.caption.86}{}}
\@writefile{lof}{\contentsline {figure}{\numberline {9.3}{\ignorespaces Tabela de press\IeC {\~o}es m\IeC {\'e}dias $\Delta p_{23}$ - produ\IeC {\c c}\IeC {\~a}o com termo linear $ \mu = 3.2$ cP e $ \rho = 800.0$ kg/$m^3$ (Posi\IeC {\c c}\IeC {\~a}o 7 da \textit  {HCMA-A 45}).\relax }}{65}{figure.caption.87}\protected@file@percent }
\newlabel{tab:tab_pos7_23_hcma_oil}{{9.3}{65}{Tabela de pressões médias $\Delta p_{23}$ - produção com termo linear $ \mu = 3.2$ cP e $ \rho = 800.0$ kg/$m^3$ (Posição 7 da \textit {HCMA-A 45}).\relax }{figure.caption.87}{}}
\@writefile{lof}{\contentsline {figure}{\numberline {9.4}{\ignorespaces Comportamento do \IeC {\'o}leos produzidos com a viscosidade cinem\IeC {\'a}tica para posi\IeC {\c c}\IeC {\~a}o 7 da \textit  {HCM-A 45} na amostragem 13.\relax }}{65}{figure.caption.88}\protected@file@percent }
\newlabel{fig:nu_coeffs_pos7_13_hcma_oil}{{9.4}{65}{Comportamento do óleos produzidos com a viscosidade cinemática para posição 7 da \textit {HCM-A 45} na amostragem 13.\relax }{figure.caption.88}{}}
\@writefile{lof}{\contentsline {figure}{\numberline {9.5}{\ignorespaces Comportamento do \IeC {\'o}leos produzidos com a viscosidade cinem\IeC {\'a}tica para posi\IeC {\c c}\IeC {\~a}o 7 da \textit  {HCM-A 45} na amostragem 23.\relax }}{66}{figure.caption.89}\protected@file@percent }
\newlabel{fig:nu_coeffs_pos7_23_hcma_oil}{{9.5}{66}{Comportamento do óleos produzidos com a viscosidade cinemática para posição 7 da \textit {HCM-A 45} na amostragem 23.\relax }{figure.caption.89}{}}
\@writefile{toc}{\contentsline {subsection}{\numberline {9.1.2}Posi\IeC {\c c}\IeC {\~a}o 1 - 2\% de abertura}{67}{subsection.9.1.2}\protected@file@percent }
\@writefile{lot}{\contentsline {table}{\numberline {9.3}{\ignorespaces Constantes de ajuste $\beta $ para $\Delta P_{13}$ e $\Delta P_{23}$ e seus respectivos erros padr\IeC {\~a}o para a posi\IeC {\c c}\IeC {\~a}o 1 da \textit  {HCM-A 45} - 2\% de abertura.\relax }}{67}{table.caption.90}\protected@file@percent }
\newlabel{tab:consts_pos1_oleo_HCMA}{{9.3}{67}{Constantes de ajuste $\beta $ para $\Delta P_{13}$ e $\Delta P_{23}$ e seus respectivos erros padrão para a posição 1 da \textit {HCM-A 45} - 2\% de abertura.\relax }{table.caption.90}{}}
\@writefile{lof}{\contentsline {figure}{\numberline {9.6}{\ignorespaces Varia\IeC {\c c}\IeC {\~a}o de $\Delta P_{13}$ de acordo com as vaz\IeC {\~o}es para posi\IeC {\c c}\IeC {\~a}o 1 da \textit  {HCM-A 45} - abertura de 2\%.\relax }}{68}{figure.caption.91}\protected@file@percent }
\newlabel{fig:pos1superficie13_oil_hcma}{{9.6}{68}{Variação de $\Delta P_{13}$ de acordo com as vazões para posição 1 da \textit {HCM-A 45} - abertura de 2\%.\relax }{figure.caption.91}{}}
\@writefile{lof}{\contentsline {figure}{\numberline {9.7}{\ignorespaces Varia\IeC {\c c}\IeC {\~a}o de $\Delta P_{23}$ de acordo com as vaz\IeC {\~o}es para posi\IeC {\c c}\IeC {\~a}o 1 da \textit  {HCM-A 45} - abertura de 82,3\%.\relax }}{68}{figure.caption.92}\protected@file@percent }
\newlabel{fig:pos1superficie23_oil_hcma}{{9.7}{68}{Variação de $\Delta P_{23}$ de acordo com as vazões para posição 1 da \textit {HCM-A 45} - abertura de 82,3\%.\relax }{figure.caption.92}{}}
\@writefile{lof}{\contentsline {figure}{\numberline {9.8}{\ignorespaces Tabela de press\IeC {\~o}es m\IeC {\'e}dias $\Delta p_{13}$ - produ\IeC {\c c}\IeC {\~a}o com termo linear $ \mu = 3.2$ cP e $ \rho = 800.0$ kg/$m^3$ (Posi\IeC {\c c}\IeC {\~a}o 1 da \textit  {HCMA-A 45}).\relax }}{69}{figure.caption.93}\protected@file@percent }
\newlabel{fig:tab_sup_pos1_13_oil_hcma}{{9.8}{69}{Tabela de pressões médias $\Delta p_{13}$ - produção com termo linear $ \mu = 3.2$ cP e $ \rho = 800.0$ kg/$m^3$ (Posição 1 da \textit {HCMA-A 45}).\relax }{figure.caption.93}{}}
\@writefile{lof}{\contentsline {figure}{\numberline {9.9}{\ignorespaces Tabela de press\IeC {\~o}es m\IeC {\'e}dias $\Delta p_{23}$ - produ\IeC {\c c}\IeC {\~a}o com termo linear $ \mu = 3.2$ cP e $ \rho = 800.0$ kg/$m^3$ (Posi\IeC {\c c}\IeC {\~a}o 1 da \textit  {HCMA-A 45}).\relax }}{69}{figure.caption.94}\protected@file@percent }
\newlabel{fig:tab_sup_pos1_23_oil_hcma}{{9.9}{69}{Tabela de pressões médias $\Delta p_{23}$ - produção com termo linear $ \mu = 3.2$ cP e $ \rho = 800.0$ kg/$m^3$ (Posição 1 da \textit {HCMA-A 45}).\relax }{figure.caption.94}{}}
\@writefile{lof}{\contentsline {figure}{\numberline {9.10}{\ignorespaces Comportamento do \IeC {\'o}leos produzidos com a viscosidade cinem\IeC {\'a}tica para posi\IeC {\c c}\IeC {\~a}o 1 da \textit  {HCM-A 45} na amostragem 13.\relax }}{70}{figure.caption.95}\protected@file@percent }
\newlabel{fig:nu_coeffs_pos1_13_hcma}{{9.10}{70}{Comportamento do óleos produzidos com a viscosidade cinemática para posição 1 da \textit {HCM-A 45} na amostragem 13.\relax }{figure.caption.95}{}}
\@writefile{lof}{\contentsline {figure}{\numberline {9.11}{\ignorespaces Comportamento do \IeC {\'o}leos produzidos com a viscosidade cinem\IeC {\'a}tica para posi\IeC {\c c}\IeC {\~a}o 1 da \textit  {HCM-A 45} na amostragem 13, sem o coeficiente maior.\relax }}{70}{figure.caption.96}\protected@file@percent }
\newlabel{fig:nu_coeffs_pos1_13_hcma_aporxx}{{9.11}{70}{Comportamento do óleos produzidos com a viscosidade cinemática para posição 1 da \textit {HCM-A 45} na amostragem 13, sem o coeficiente maior.\relax }{figure.caption.96}{}}
\@writefile{lof}{\contentsline {figure}{\numberline {9.12}{\ignorespaces Comportamento do \IeC {\'o}leos produzidos com a viscosidade cinem\IeC {\'a}tica para posi\IeC {\c c}\IeC {\~a}o 1 da \textit  {HCM-A 45} na amostragem 23.\relax }}{71}{figure.caption.97}\protected@file@percent }
\newlabel{fig:nu_coeffs_pos1_23_hcma}{{9.12}{71}{Comportamento do óleos produzidos com a viscosidade cinemática para posição 1 da \textit {HCM-A 45} na amostragem 23.\relax }{figure.caption.97}{}}
\@writefile{toc}{\contentsline {chapter}{\numberline {10}Resultados - Inje\IeC {\c c}\IeC {\~a}o - \textit  {HCM-A 45}: \IeC {\'A}gua}{72}{chapter.10}\protected@file@percent }
\@writefile{lof}{\addvspace {10\p@ }}
\@writefile{lot}{\addvspace {10\p@ }}
\@writefile{lof}{\contentsline {xchapter}{Resultados - Inje\IeC {\c c}\IeC {\~a}o - \textit  {HCM-A 45}: \IeC {\'A}gua}{72}{chapter.10}\protected@file@percent }
\@writefile{lot}{\contentsline {xchapter}{Resultados - Inje\IeC {\c c}\IeC {\~a}o - \textit  {HCM-A 45}: \IeC {\'A}gua}{72}{chapter.10}\protected@file@percent }
\newlabel{results_hcma_agua}{{10}{72}{Resultados - Injeção - \textit {HCM-A 45}: Água}{chapter.10}{}}
\@writefile{toc}{\contentsline {section}{\numberline {10.1}Ajuste das perdas de carga pela superf\IeC {\'\i }cie}{72}{section.10.1}\protected@file@percent }
\newlabel{sec:superf_inj_agua_hcma}{{10.1}{72}{Ajuste das perdas de carga pela superfície}{section.10.1}{}}
\@writefile{toc}{\contentsline {subsection}{\numberline {10.1.1}Posi\IeC {\c c}\IeC {\~a}o 7 - 82,3\% de abertura}{72}{subsection.10.1.1}\protected@file@percent }
\@writefile{lot}{\contentsline {table}{\numberline {10.1}{\ignorespaces Constantes de ajuste $\beta $ para $\Delta P_{13}$ e $\Delta P_{23}$ e seus respectivos erros padr\IeC {\~a}o para a posi\IeC {\c c}\IeC {\~a}o 7 da \textit  {HCMA-A 45} - 83,2\% de abertura e inje\IeC {\c c}\IeC {\~a}o d \IeC {\'a}gua.\relax }}{72}{table.caption.98}\protected@file@percent }
\newlabel{tab:consts_pos7_agua_HCMA}{{10.1}{72}{Constantes de ajuste $\beta $ para $\Delta P_{13}$ e $\Delta P_{23}$ e seus respectivos erros padrão para a posição 7 da \textit {HCMA-A 45} - 83,2\% de abertura e injeção d água.\relax }{table.caption.98}{}}
\@writefile{lof}{\contentsline {figure}{\numberline {10.1}{\ignorespaces Varia\IeC {\c c}\IeC {\~a}o de $\Delta P_{13}$ de acordo com as vaz\IeC {\~o}es para a inje\IeC {\c c}\IeC {\~a}o de \IeC {\'a}gua na posi\IeC {\c c}\IeC {\~a}o 7 da \textit  {HCM-A 45} - abertura de 82,3\%.\relax }}{73}{figure.caption.99}\protected@file@percent }
\newlabel{fig:pos7superficie13_inj_agua}{{10.1}{73}{Variação de $\Delta P_{13}$ de acordo com as vazões para a injeção de água na posição 7 da \textit {HCM-A 45} - abertura de 82,3\%.\relax }{figure.caption.99}{}}
\@writefile{lof}{\contentsline {figure}{\numberline {10.2}{\ignorespaces Varia\IeC {\c c}\IeC {\~a}o de $\Delta P_{23}$ de acordo com as vaz\IeC {\~o}es para a inje\IeC {\c c}\IeC {\~a}o de \IeC {\'a}gua na posi\IeC {\c c}\IeC {\~a}o 7 da \textit  {HCM-A 45} - abertura de 82,3\%.\relax }}{74}{figure.caption.100}\protected@file@percent }
\newlabel{fig:pos7superficie23_inj_agua}{{10.2}{74}{Variação de $\Delta P_{23}$ de acordo com as vazões para a injeção de água na posição 7 da \textit {HCM-A 45} - abertura de 82,3\%.\relax }{figure.caption.100}{}}
\@writefile{lot}{\contentsline {table}{\numberline {10.2}{\ignorespaces Tabela de press\IeC {\~o}es m\IeC {\'e}dias $\Delta p_{13}$ - inje\IeC {\c c}\IeC {\~a}o de \IeC {\'a}gua com termo linear $ \mu = 0,7465 $ cP e $ \rho = 1043,25$ kg/$m^3$ (Posi\IeC {\c c}\IeC {\~a}o 7 da \textit  {HCMA-A 45}).\relax }}{74}{table.caption.101}\protected@file@percent }
\newlabel{tab:tab_sup_pos7_13_inj_agua}{{10.2}{74}{Tabela de pressões médias $\Delta p_{13}$ - injeção de água com termo linear $ \mu = 0,7465 $ cP e $ \rho = 1043,25$ kg/$m^3$ (Posição 7 da \textit {HCMA-A 45}).\relax }{table.caption.101}{}}
\@writefile{lot}{\contentsline {table}{\numberline {10.3}{\ignorespaces Tabela de press\IeC {\~o}es m\IeC {\'e}dias $\Delta p_{23}$ - inje\IeC {\c c}\IeC {\~a}o de \IeC {\'a}gua com termo linear $ \mu = 0,7465$ cP e $ \rho = 1043,25$ kg/$m^3$ (Posi\IeC {\c c}\IeC {\~a}o 7 da \textit  {HCMA-A 45}).\relax }}{75}{table.caption.102}\protected@file@percent }
\newlabel{tab:tab_sup_pos7_23_inj_agua}{{10.3}{75}{Tabela de pressões médias $\Delta p_{23}$ - injeção de água com termo linear $ \mu = 0,7465$ cP e $ \rho = 1043,25$ kg/$m^3$ (Posição 7 da \textit {HCMA-A 45}).\relax }{table.caption.102}{}}
\@writefile{toc}{\contentsline {subsection}{\numberline {10.1.2}Posi\IeC {\c c}\IeC {\~a}o 1 - 2\% de abertura}{76}{subsection.10.1.2}\protected@file@percent }
\@writefile{lot}{\contentsline {table}{\numberline {10.4}{\ignorespaces Constantes de ajuste $\beta $ para $\Delta P_{13}$ e $\Delta P_{23}$ e seus respectivos erros padr\IeC {\~a}o para inje\IeC {\c c}\IeC {\~a}o de \IeC {\'a}gua na posi\IeC {\c c}\IeC {\~a}o 1 da \textit  {HCM-A 45} - 2\% de abertura.\relax }}{76}{table.caption.103}\protected@file@percent }
\newlabel{tab:consts_pos1_agua_HCMA}{{10.4}{76}{Constantes de ajuste $\beta $ para $\Delta P_{13}$ e $\Delta P_{23}$ e seus respectivos erros padrão para injeção de água na posição 1 da \textit {HCM-A 45} - 2\% de abertura.\relax }{table.caption.103}{}}
\@writefile{lof}{\contentsline {figure}{\numberline {10.3}{\ignorespaces Varia\IeC {\c c}\IeC {\~a}o de $\Delta P_{13}$ de acordo com as vaz\IeC {\~o}es para inje\IeC {\c c}\IeC {\~a}o de \IeC {\'a}gua na posi\IeC {\c c}\IeC {\~a}o 1 da \textit  {HCM-A 45} - abertura de 2\%.\relax }}{76}{figure.caption.104}\protected@file@percent }
\newlabel{fig:pos1superficie13_inj_agua}{{10.3}{76}{Variação de $\Delta P_{13}$ de acordo com as vazões para injeção de água na posição 1 da \textit {HCM-A 45} - abertura de 2\%.\relax }{figure.caption.104}{}}
\@writefile{lof}{\contentsline {figure}{\numberline {10.4}{\ignorespaces Varia\IeC {\c c}\IeC {\~a}o de $\Delta P_{23}$ de acordo com as vaz\IeC {\~o}es para inje\IeC {\c c}\IeC {\~a}o de \IeC {\'a}gua na posi\IeC {\c c}\IeC {\~a}o 1 da \textit  {HCM-A 45} - abertura de 82,3\%.\relax }}{77}{figure.caption.105}\protected@file@percent }
\newlabel{fig:pos1superficie23_inj_agua}{{10.4}{77}{Variação de $\Delta P_{23}$ de acordo com as vazões para injeção de água na posição 1 da \textit {HCM-A 45} - abertura de 82,3\%.\relax }{figure.caption.105}{}}
\@writefile{lof}{\contentsline {figure}{\numberline {10.5}{\ignorespaces Tabela de press\IeC {\~o}es m\IeC {\'e}dias $\Delta p_{13}$ - inje\IeC {\c c}\IeC {\~a}o de \IeC {\'a}gua com termo linear $ \mu = 3.2$ cP e $ \rho = 800.0$ kg/$m^3$ (Posi\IeC {\c c}\IeC {\~a}o 1 da \textit  {HCMA-A 45}).\relax }}{77}{figure.caption.106}\protected@file@percent }
\newlabel{fig:tab_sup_pos1_13_agua_hcma}{{10.5}{77}{Tabela de pressões médias $\Delta p_{13}$ - injeção de água com termo linear $ \mu = 3.2$ cP e $ \rho = 800.0$ kg/$m^3$ (Posição 1 da \textit {HCMA-A 45}).\relax }{figure.caption.106}{}}
\@writefile{lof}{\contentsline {figure}{\numberline {10.6}{\ignorespaces Tabela de press\IeC {\~o}es m\IeC {\'e}dias $\Delta p_{23}$ - inje\IeC {\c c}\IeC {\~a}o de \IeC {\'a}gua com termo linear $ \mu = 3.2$ cP e $ \rho = 800.0$ kg/$m^3$ (Posi\IeC {\c c}\IeC {\~a}o 1 da \textit  {HCMA-A 45}).\relax }}{78}{figure.caption.107}\protected@file@percent }
\newlabel{fig:tab_sup_pos1_23_agua_hcma}{{10.6}{78}{Tabela de pressões médias $\Delta p_{23}$ - injeção de água com termo linear $ \mu = 3.2$ cP e $ \rho = 800.0$ kg/$m^3$ (Posição 1 da \textit {HCMA-A 45}).\relax }{figure.caption.107}{}}
\@writefile{toc}{\contentsline {chapter}{\numberline {11}Resultados - Inje\IeC {\c c}\IeC {\~a}o - \textit  {HCM-A 45} G\IeC {\'a}s}{79}{chapter.11}\protected@file@percent }
\@writefile{lof}{\addvspace {10\p@ }}
\@writefile{lot}{\addvspace {10\p@ }}
\@writefile{lof}{\contentsline {xchapter}{Resultados - Inje\IeC {\c c}\IeC {\~a}o - \textit  {HCM-A 45} G\IeC {\'a}s}{79}{chapter.11}\protected@file@percent }
\@writefile{lot}{\contentsline {xchapter}{Resultados - Inje\IeC {\c c}\IeC {\~a}o - \textit  {HCM-A 45} G\IeC {\'a}s}{79}{chapter.11}\protected@file@percent }
\newlabel{results_hcma_gas}{{11}{79}{Resultados - Injeção - \textit {HCM-A 45} Gás}{chapter.11}{}}
\@writefile{toc}{\contentsline {section}{\numberline {11.1}Ajuste das perdas de carga pela superf\IeC {\'\i }cie}{79}{section.11.1}\protected@file@percent }
\newlabel{sec:superf_inj_gas_hcma}{{11.1}{79}{Ajuste das perdas de carga pela superfície}{section.11.1}{}}
\@writefile{toc}{\contentsline {subsection}{\numberline {11.1.1}Posi\IeC {\c c}\IeC {\~a}o 7 - 82,3\% de abertura}{79}{subsection.11.1.1}\protected@file@percent }
\@writefile{lot}{\contentsline {table}{\numberline {11.1}{\ignorespaces Tabela exemplo para c\IeC {\'a}lculo da vaz\IeC {\~a}o m\IeC {\'a}ssica m\IeC {\'e}dia correspondente a cada vaz\IeC {\~a}o volum\IeC {\'e}trica fixa.\relax }}{80}{table.caption.108}\protected@file@percent }
\newlabel{tab:procediemnto_massa}{{11.1}{80}{Tabela exemplo para cálculo da vazão mássica média correspondente a cada vazão volumétrica fixa.\relax }{table.caption.108}{}}
\@writefile{lot}{\contentsline {table}{\numberline {11.2}{\ignorespaces Constantes de ajuste $\beta $ para $\Delta P_{13}$ e $\Delta P_{23}$ e seus respectivos erros padr\IeC {\~a}o para inje\IeC {\c c}\IeC {\~a}o de g\IeC {\'a}s na posi\IeC {\c c}\IeC {\~a}o 7 da \textit  {HCM-A 45} - 83,2\% de abertura.\relax }}{81}{table.caption.109}\protected@file@percent }
\newlabel{tab:consts_pos7_gas_HCMA}{{11.2}{81}{Constantes de ajuste $\beta $ para $\Delta P_{13}$ e $\Delta P_{23}$ e seus respectivos erros padrão para injeção de gás na posição 7 da \textit {HCM-A 45} - 83,2\% de abertura.\relax }{table.caption.109}{}}
\@writefile{lof}{\contentsline {figure}{\numberline {11.1}{\ignorespaces Varia\IeC {\c c}\IeC {\~a}o de $\Delta P_{13}$ de acordo com as vaz\IeC {\~o}es na posi\IeC {\c c}\IeC {\~a}o 7 da \textit  {HCM-A 45} para a inje\IeC {\c c}\IeC {\~a}o de g\IeC {\'a}s - abertura de 82,3\%.\relax }}{82}{figure.caption.110}\protected@file@percent }
\newlabel{fig:pos7superficie13_inj_gas}{{11.1}{82}{Variação de $\Delta P_{13}$ de acordo com as vazões na posição 7 da \textit {HCM-A 45} para a injeção de gás - abertura de 82,3\%.\relax }{figure.caption.110}{}}
\@writefile{lof}{\contentsline {figure}{\numberline {11.2}{\ignorespaces Varia\IeC {\c c}\IeC {\~a}o de $\Delta P_{23}$ de acordo com as vaz\IeC {\~o}es na posi\IeC {\c c}\IeC {\~a}o 7 da \textit  {HCM-A 45} para a inje\IeC {\c c}\IeC {\~a}o de g\IeC {\'a}s - abertura de 82,3\%.\relax }}{82}{figure.caption.111}\protected@file@percent }
\newlabel{fig:pos7superficie23_inj_gas}{{11.2}{82}{Variação de $\Delta P_{23}$ de acordo com as vazões na posição 7 da \textit {HCM-A 45} para a injeção de gás - abertura de 82,3\%.\relax }{figure.caption.111}{}}
\@writefile{lof}{\contentsline {figure}{\numberline {11.3}{\ignorespaces Tabela de press\IeC {\~o}es m\IeC {\'e}dias $\Delta p_{13}$ - inje\IeC {\c c}\IeC {\~a}o de g\IeC {\'a}s com termo linear $ \rho = 499,60$ kg/$m^3$ (Posi\IeC {\c c}\IeC {\~a}o 7 da \textit  {HCMA-A 45}).\relax }}{83}{figure.caption.112}\protected@file@percent }
\newlabel{fig:tab_sup_pos7_13_inj_gas}{{11.3}{83}{Tabela de pressões médias $\Delta p_{13}$ - injeção de gás com termo linear $ \rho = 499,60$ kg/$m^3$ (Posição 7 da \textit {HCMA-A 45}).\relax }{figure.caption.112}{}}
\@writefile{lof}{\contentsline {figure}{\numberline {11.4}{\ignorespaces Tabela de press\IeC {\~o}es m\IeC {\'e}dias $\Delta p_{23}$ - inje\IeC {\c c}\IeC {\~a}o de g\IeC {\'a}s com termo linear $ \rho = 499,60$ kg/$m^3$ (Posi\IeC {\c c}\IeC {\~a}o 7 da \textit  {HCMA-A 45}).\relax }}{83}{figure.caption.113}\protected@file@percent }
\newlabel{fig:tab_sup_pos7_23_inj_gas}{{11.4}{83}{Tabela de pressões médias $\Delta p_{23}$ - injeção de gás com termo linear $ \rho = 499,60$ kg/$m^3$ (Posição 7 da \textit {HCMA-A 45}).\relax }{figure.caption.113}{}}
\@writefile{toc}{\contentsline {subsection}{\numberline {11.1.2}Posi\IeC {\c c}\IeC {\~a}o 3 - 6\% de abertura}{84}{subsection.11.1.2}\protected@file@percent }
\@writefile{lot}{\contentsline {table}{\numberline {11.3}{\ignorespaces Constantes de ajuste $\beta $ para $\Delta P_{13}$ e $\Delta P_{23}$ e seus respectivos erros padr\IeC {\~a}o para inje\IeC {\c c}\IeC {\~a}o de g\IeC {\'a}s na posi\IeC {\c c}\IeC {\~a}o 3 da \textit  {HCM-A 45} - 6\% de abertura.\relax }}{84}{table.caption.114}\protected@file@percent }
\newlabel{tab:consts_pos3_gas_HCMA}{{11.3}{84}{Constantes de ajuste $\beta $ para $\Delta P_{13}$ e $\Delta P_{23}$ e seus respectivos erros padrão para injeção de gás na posição 3 da \textit {HCM-A 45} - 6\% de abertura.\relax }{table.caption.114}{}}
\@writefile{lof}{\contentsline {figure}{\numberline {11.5}{\ignorespaces Varia\IeC {\c c}\IeC {\~a}o de $\Delta P_{13}$ de acordo com as vaz\IeC {\~o}es para inje\IeC {\c c}\IeC {\~a}o de g\IeC {\'a}s na posi\IeC {\c c}\IeC {\~a}o 3 da \textit  {HCM-A 45} - abertura de 6\%.\relax }}{85}{figure.caption.115}\protected@file@percent }
\newlabel{fig:pos3superficie13_inj_gas}{{11.5}{85}{Variação de $\Delta P_{13}$ de acordo com as vazões para injeção de gás na posição 3 da \textit {HCM-A 45} - abertura de 6\%.\relax }{figure.caption.115}{}}
\@writefile{lof}{\contentsline {figure}{\numberline {11.6}{\ignorespaces Varia\IeC {\c c}\IeC {\~a}o de $\Delta P_{23}$ de acordo com as vaz\IeC {\~o}es para inje\IeC {\c c}\IeC {\~a}o de g\IeC {\'a}s na posi\IeC {\c c}\IeC {\~a}o 3 da \textit  {HCM-A 45} - abertura de 6\%.\relax }}{85}{figure.caption.116}\protected@file@percent }
\newlabel{fig:pos3superficie23_inj_gas}{{11.6}{85}{Variação de $\Delta P_{23}$ de acordo com as vazões para injeção de gás na posição 3 da \textit {HCM-A 45} - abertura de 6\%.\relax }{figure.caption.116}{}}
\@writefile{lof}{\contentsline {figure}{\numberline {11.7}{\ignorespaces Tabela de press\IeC {\~o}es m\IeC {\'e}dias $\Delta p_{13}$ - inje\IeC {\c c}\IeC {\~a}o de g\IeC {\'a}s com termo linear $ \rho = 499,60$ kg/$m^3$ (Posi\IeC {\c c}\IeC {\~a}o 3 da \textit  {HCMA-A 45}).\relax }}{86}{figure.caption.117}\protected@file@percent }
\newlabel{fig:tab_sup_pos3_13_gas_hcma}{{11.7}{86}{Tabela de pressões médias $\Delta p_{13}$ - injeção de gás com termo linear $ \rho = 499,60$ kg/$m^3$ (Posição 3 da \textit {HCMA-A 45}).\relax }{figure.caption.117}{}}
\@writefile{lof}{\contentsline {figure}{\numberline {11.8}{\ignorespaces Tabela de press\IeC {\~o}es m\IeC {\'e}dias $\Delta p_{23}$ - inje\IeC {\c c}\IeC {\~a}o de g\IeC {\'a}s com termo linear$ \rho = 499,60$ kg/$m^3$ (Posi\IeC {\c c}\IeC {\~a}o 3 da \textit  {HCMA-A 45}).\relax }}{86}{figure.caption.118}\protected@file@percent }
\newlabel{fig:tab_sup_pos3_23_gas_hcma}{{11.8}{86}{Tabela de pressões médias $\Delta p_{23}$ - injeção de gás com termo linear$ \rho = 499,60$ kg/$m^3$ (Posição 3 da \textit {HCMA-A 45}).\relax }{figure.caption.118}{}}
\@setckpt{chapters/resultados_HCMA}{
\setcounter{page}{87}
\setcounter{equation}{3}
\setcounter{enumi}{5}
\setcounter{enumii}{0}
\setcounter{enumiii}{0}
\setcounter{enumiv}{0}
\setcounter{footnote}{0}
\setcounter{mpfootnote}{0}
\setcounter{part}{0}
\setcounter{chapter}{11}
\setcounter{section}{1}
\setcounter{subsection}{2}
\setcounter{subsubsection}{0}
\setcounter{paragraph}{0}
\setcounter{subparagraph}{0}
\setcounter{figure}{8}
\setcounter{table}{3}
\setcounter{parentequation}{0}
\setcounter{caption@flags}{0}
\setcounter{continuedfloat}{0}
\setcounter{subfigure}{0}
\setcounter{subtable}{0}
\setcounter{lstnumber}{1}
\setcounter{mtc}{11}
\setcounter{minitocdepth}{1}
\setcounter{ptc}{0}
\setcounter{parttocdepth}{2}
\setcounter{Item}{14}
\setcounter{Hfootnote}{0}
\setcounter{bookmark@seq@number}{45}
\setcounter{ABCIaux}{0}
\setcounter{ABCImax}{0}
\setcounter{FancyVerbLine}{0}
\setcounter{linenumber}{1}
\setcounter{LN@truepage}{92}
\setcounter{FV@TrueTabGroupLevel}{0}
\setcounter{FV@TrueTabCounter}{0}
\setcounter{FV@HighlightLinesStart}{0}
\setcounter{FV@HighlightLinesStop}{0}
\setcounter{FancyVerbLineBreakLast}{0}
\setcounter{float@type}{16}
\setcounter{minted@FancyVerbLineTemp}{0}
\setcounter{minted@pygmentizecounter}{0}
\setcounter{listing}{0}
\setcounter{mdf@globalstyle@cnt}{0}
\setcounter{mdfcountframes}{0}
\setcounter{mdf@env@i}{0}
\setcounter{mdf@env@ii}{0}
\setcounter{mdf@zref@counter}{0}
\setcounter{AM@survey}{0}
\setcounter{lstlisting}{0}
\setcounter{section@level}{2}
}
