\relax 
\providecommand\hyper@newdestlabel[2]{}
\providecommand\zref@newlabel[2]{}
\@writefile{toc}{\contentsline {chapter}{\numberline {18}Resultados - Produ\IeC {\c c}\IeC {\~a}o - \textit  {ICV - Halliburton On/Off} - Propriedades m\IeC {\'e}dias do \IeC {\'O}leo}{123}{chapter.18}\protected@file@percent }
\@writefile{lof}{\addvspace {10\p@ }}
\@writefile{lot}{\addvspace {10\p@ }}
\@writefile{lof}{\contentsline {xchapter}{Resultados - Produ\IeC {\c c}\IeC {\~a}o - \textit  {ICV - Halliburton On/Off} - Propriedades m\IeC {\'e}dias do \IeC {\'O}leo}{123}{chapter.18}\protected@file@percent }
\@writefile{lot}{\contentsline {xchapter}{Resultados - Produ\IeC {\c c}\IeC {\~a}o - \textit  {ICV - Halliburton On/Off} - Propriedades m\IeC {\'e}dias do \IeC {\'O}leo}{123}{chapter.18}\protected@file@percent }
\newlabel{results_onoff_icv_halli}{{18}{123}{Resultados - Produção - \textit {ICV - Halliburton On/Off} - Propriedades médias do Óleo}{chapter.18}{}}
\@writefile{toc}{\contentsline {section}{\numberline {18.1}Ajuste das perdas de carga pela superf\IeC {\'\i }cie}{123}{section.18.1}\protected@file@percent }
\newlabel{sec:superf_prod_oil_icvOnOff}{{18.1}{123}{Ajuste das perdas de carga pela superfície}{section.18.1}{}}
\@writefile{lot}{\contentsline {table}{\numberline {18.1}{\ignorespaces Constantes de ajuste $\beta $ para $\Delta P_{13}$ e $\Delta P_{23}$ e seus respectivos desvios-padr\IeC {\~a}o para a \textit  {ICV - Halliburton On/Off} - 100\% de abertura.\relax }}{123}{table.caption.171}\protected@file@percent }
\newlabel{tab:consts_onOff_oleo_halli}{{18.1}{123}{Constantes de ajuste $\beta $ para $\Delta P_{13}$ e $\Delta P_{23}$ e seus respectivos desvios-padrão para a \textit {ICV - Halliburton On/Off} - 100\% de abertura.\relax }{table.caption.171}{}}
\@writefile{lof}{\contentsline {figure}{\numberline {18.1}{\ignorespaces Varia\IeC {\c c}\IeC {\~a}o de $\Delta P_{13}$ de acordo com as vaz\IeC {\~o}es para a \textit  {ICV - Halliburton On/Off}, - 100\% de abertura\relax }}{124}{figure.caption.172}\protected@file@percent }
\newlabel{fig:onOffsuperficie13}{{18.1}{124}{Variação de $\Delta P_{13}$ de acordo com as vazões para a \textit {ICV - Halliburton On/Off}, - 100\% de abertura\relax }{figure.caption.172}{}}
\@writefile{lof}{\contentsline {figure}{\numberline {18.2}{\ignorespaces Varia\IeC {\c c}\IeC {\~a}o de $\Delta P_{23}$ de acordo com as vaz\IeC {\~o}es para a \textit  {ICV - Halliburton On/Off}, - 100\% de abertura.\relax }}{124}{figure.caption.173}\protected@file@percent }
\newlabel{fig:Onoffsuperficie23}{{18.2}{124}{Variação de $\Delta P_{23}$ de acordo com as vazões para a \textit {ICV - Halliburton On/Off}, - 100\% de abertura.\relax }{figure.caption.173}{}}
\@writefile{lof}{\contentsline {figure}{\numberline {18.3}{\ignorespaces Tabela de press\IeC {\~o}es m\IeC {\'e}dias $\Delta p_{13}$ - produ\IeC {\c c}\IeC {\~a}o para a \textit  {ICV - Halliburton On/Off}, com termo linear $ \mu = 3.2$ cP e $ \rho = 800.0$ kg/$m^3$.\relax }}{125}{figure.caption.174}\protected@file@percent }
\newlabel{fig:tab_sup_onOffHalli_13_oleo}{{18.3}{125}{Tabela de pressões médias $\Delta p_{13}$ - produção para a \textit {ICV - Halliburton On/Off}, com termo linear $ \mu = 3.2$ cP e $ \rho = 800.0$ kg/$m^3$.\relax }{figure.caption.174}{}}
\@writefile{lof}{\contentsline {figure}{\numberline {18.4}{\ignorespaces Tabela de press\IeC {\~o}es m\IeC {\'e}dias $\Delta p_{23}$ - produ\IeC {\c c}\IeC {\~a}o para a \textit  {ICV - Halliburton On/Off}, com termo linear $ \mu = 3.2$ cP e $ \rho = 800.0$ kg/$m^3$.\relax }}{125}{figure.caption.175}\protected@file@percent }
\newlabel{fig:tab_sup_onOffHalli_23_oleo}{{18.4}{125}{Tabela de pressões médias $\Delta p_{23}$ - produção para a \textit {ICV - Halliburton On/Off}, com termo linear $ \mu = 3.2$ cP e $ \rho = 800.0$ kg/$m^3$.\relax }{figure.caption.175}{}}
\@writefile{lof}{\contentsline {figure}{\numberline {18.5}{\ignorespaces Comportamento do \IeC {\'o}leos produzidos com a viscosidade cinem\IeC {\'a}tica para \textit  {ICV - Halliburton On/Off} na amostragem 13.\relax }}{126}{figure.caption.176}\protected@file@percent }
\newlabel{fig:nu_coeffs_icvOnOff_13}{{18.5}{126}{Comportamento do óleos produzidos com a viscosidade cinemática para \textit {ICV - Halliburton On/Off} na amostragem 13.\relax }{figure.caption.176}{}}
\@writefile{lof}{\contentsline {figure}{\numberline {18.6}{\ignorespaces Comportamento do \IeC {\'o}leos produzidos com a viscosidade cinem\IeC {\'a}tica para \textit  {ICV - Halliburton On/Off} na amostragem 23.\relax }}{126}{figure.caption.177}\protected@file@percent }
\newlabel{fig:nu_coeffs_icvOnOff_23}{{18.6}{126}{Comportamento do óleos produzidos com a viscosidade cinemática para \textit {ICV - Halliburton On/Off} na amostragem 23.\relax }{figure.caption.177}{}}
\@writefile{toc}{\contentsline {chapter}{\numberline {19}Resultados - Inje\IeC {\c c}\IeC {\~a}o - \textit  {ICV - Halliburton On/Off}: \IeC {\'A}gua}{127}{chapter.19}\protected@file@percent }
\@writefile{lof}{\addvspace {10\p@ }}
\@writefile{lot}{\addvspace {10\p@ }}
\@writefile{lof}{\contentsline {xchapter}{Resultados - Inje\IeC {\c c}\IeC {\~a}o - \textit  {ICV - Halliburton On/Off}: \IeC {\'A}gua}{127}{chapter.19}\protected@file@percent }
\@writefile{lot}{\contentsline {xchapter}{Resultados - Inje\IeC {\c c}\IeC {\~a}o - \textit  {ICV - Halliburton On/Off}: \IeC {\'A}gua}{127}{chapter.19}\protected@file@percent }
\newlabel{results_on_offHalli_agua}{{19}{127}{Resultados - Injeção - \textit {ICV - Halliburton On/Off}: Água}{chapter.19}{}}
\@writefile{toc}{\contentsline {section}{\numberline {19.1}Ajuste das perdas de carga pela superf\IeC {\'\i }cie}{127}{section.19.1}\protected@file@percent }
\newlabel{sec:superf_inj_agua_icvOnOff}{{19.1}{127}{Ajuste das perdas de carga pela superfície}{section.19.1}{}}
\@writefile{lot}{\contentsline {table}{\numberline {19.1}{\ignorespaces Constantes de ajuste $\beta $ para $\Delta P_{13}$ e $\Delta P_{23}$ e seus respectivos erros padr\IeC {\~a}o para a \textit  {ICV - Halliburton On/Off} - 100\% de abertura.\relax }}{127}{table.caption.178}\protected@file@percent }
\newlabel{tab:consts_ICVOnOff_Halli_agua}{{19.1}{127}{Constantes de ajuste $\beta $ para $\Delta P_{13}$ e $\Delta P_{23}$ e seus respectivos erros padrão para a \textit {ICV - Halliburton On/Off} - 100\% de abertura.\relax }{table.caption.178}{}}
\@writefile{lof}{\contentsline {figure}{\numberline {19.1}{\ignorespaces Varia\IeC {\c c}\IeC {\~a}o de $\Delta P_{13}$ de acordo com as vaz\IeC {\~o}es para a \textit  {ICV - Halliburton On/Off} - abertura de 100\%.\relax }}{128}{figure.caption.179}\protected@file@percent }
\newlabel{fig:ICV_onOff_Halli_superficie13_inj_agua}{{19.1}{128}{Variação de $\Delta P_{13}$ de acordo com as vazões para a \textit {ICV - Halliburton On/Off} - abertura de 100\%.\relax }{figure.caption.179}{}}
\@writefile{lof}{\contentsline {figure}{\numberline {19.2}{\ignorespaces Varia\IeC {\c c}\IeC {\~a}o de $\Delta P_{23}$ de acordo com as vaz\IeC {\~o}es para a \textit  {ICV - Halliburton On/Off} - abertura de 100\%.\relax }}{129}{figure.caption.180}\protected@file@percent }
\newlabel{fig:ICV_onOff_Halli_superficie23_inj_agua}{{19.2}{129}{Variação de $\Delta P_{23}$ de acordo com as vazões para a \textit {ICV - Halliburton On/Off} - abertura de 100\%.\relax }{figure.caption.180}{}}
\@writefile{lof}{\contentsline {figure}{\numberline {19.3}{\ignorespaces Tabela de press\IeC {\~o}es m\IeC {\'e}dias $\Delta p_{13}$ - inje\IeC {\c c}\IeC {\~a}o de \IeC {\'a}gua para a \textit  {ICV - Halliburton On/Off}, com termo linear $ \mu = 0,7465 $ cP e $ \rho = 1043,25$ kg/$m^3$.\relax }}{129}{figure.caption.181}\protected@file@percent }
\newlabel{fig:Tab_ICV_onOff_Halli_13_inj_agua}{{19.3}{129}{Tabela de pressões médias $\Delta p_{13}$ - injeção de água para a \textit {ICV - Halliburton On/Off}, com termo linear $ \mu = 0,7465 $ cP e $ \rho = 1043,25$ kg/$m^3$.\relax }{figure.caption.181}{}}
\@writefile{lof}{\contentsline {figure}{\numberline {19.4}{\ignorespaces Tabela de press\IeC {\~o}es m\IeC {\'e}dias $\Delta p_{23}$ - inje\IeC {\c c}\IeC {\~a}o de \IeC {\'a}gua para a \textit  {ICV - Halliburton On/Off}, com termo linear $ \mu = 0,7465$ cP e $ \rho = 1043,25$ kg/$m^3$.\relax }}{130}{figure.caption.182}\protected@file@percent }
\newlabel{fig:Tab_ICV_onOff_Halli_23_inj_agua}{{19.4}{130}{Tabela de pressões médias $\Delta p_{23}$ - injeção de água para a \textit {ICV - Halliburton On/Off}, com termo linear $ \mu = 0,7465$ cP e $ \rho = 1043,25$ kg/$m^3$.\relax }{figure.caption.182}{}}
\@writefile{toc}{\contentsline {chapter}{\numberline {20}Resultados - Inje\IeC {\c c}\IeC {\~a}o - \textit  {ICV - Halliburton On/Off}: G\IeC {\'a}s}{131}{chapter.20}\protected@file@percent }
\@writefile{lof}{\addvspace {10\p@ }}
\@writefile{lot}{\addvspace {10\p@ }}
\@writefile{lof}{\contentsline {xchapter}{Resultados - Inje\IeC {\c c}\IeC {\~a}o - \textit  {ICV - Halliburton On/Off}: G\IeC {\'a}s}{131}{chapter.20}\protected@file@percent }
\@writefile{lot}{\contentsline {xchapter}{Resultados - Inje\IeC {\c c}\IeC {\~a}o - \textit  {ICV - Halliburton On/Off}: G\IeC {\'a}s}{131}{chapter.20}\protected@file@percent }
\newlabel{results_on_off_gas}{{20}{131}{Resultados - Injeção - \textit {ICV - Halliburton On/Off}: Gás}{chapter.20}{}}
\@writefile{toc}{\contentsline {section}{\numberline {20.1}Ajuste das perdas de carga pela superf\IeC {\'\i }cie}{131}{section.20.1}\protected@file@percent }
\newlabel{sec:superf_inj_gas_icvOnOff}{{20.1}{131}{Ajuste das perdas de carga pela superfície}{section.20.1}{}}
\@writefile{lot}{\contentsline {table}{\numberline {20.1}{\ignorespaces Constantes de ajuste $\beta $ para $\Delta P_{13}$ e $\Delta P_{23}$ e seus respectivos erros padr\IeC {\~a}o para a \textit  {ICV - Halliburton On/Off} - 100\% de abertura.\relax }}{132}{table.caption.183}\protected@file@percent }
\newlabel{tab:consts_ICV_OnOff_inj_gas_Halli}{{20.1}{132}{Constantes de ajuste $\beta $ para $\Delta P_{13}$ e $\Delta P_{23}$ e seus respectivos erros padrão para a \textit {ICV - Halliburton On/Off} - 100\% de abertura.\relax }{table.caption.183}{}}
\@writefile{lof}{\contentsline {figure}{\numberline {20.1}{\ignorespaces Varia\IeC {\c c}\IeC {\~a}o de $\Delta P_{13}$ de acordo com as vaz\IeC {\~o}es para inje\IeC {\c c}\IeC {\~a}o de g\IeC {\'a}s na I\textit  {ICV - Halliburton On/Off} - abertura de 100\%.\relax }}{132}{figure.caption.184}\protected@file@percent }
\newlabel{fig:OnOff_ICV_ Halli_superficie13_inj_gas}{{20.1}{132}{Variação de $\Delta P_{13}$ de acordo com as vazões para injeção de gás na I\textit {ICV - Halliburton On/Off} - abertura de 100\%.\relax }{figure.caption.184}{}}
\@writefile{lof}{\contentsline {figure}{\numberline {20.2}{\ignorespaces Varia\IeC {\c c}\IeC {\~a}o de $\Delta P_{23}$ de acordo com as vaz\IeC {\~o}es para inje\IeC {\c c}\IeC {\~a}o de g\IeC {\'a}s na \textit  {ICV - Halliburton On/Off} - abertura de 100\%.\relax }}{133}{figure.caption.185}\protected@file@percent }
\newlabel{fig:OnOff_ICV_ Halli_superficie23_inj_gas}{{20.2}{133}{Variação de $\Delta P_{23}$ de acordo com as vazões para injeção de gás na \textit {ICV - Halliburton On/Off} - abertura de 100\%.\relax }{figure.caption.185}{}}
\@writefile{lof}{\contentsline {figure}{\numberline {20.3}{\ignorespaces Tabela de press\IeC {\~o}es m\IeC {\'e}dias $\Delta p_{13}$ - inje\IeC {\c c}\IeC {\~a}o de g\IeC {\'a}s para a \textit  {ICV - Halliburton On/Off}, com termo linear $ \rho = 499,60$ kg/$m^3$.\relax }}{133}{figure.caption.186}\protected@file@percent }
\newlabel{fig:Tab_OnOff_ICV_Halli_13_inj_gas}{{20.3}{133}{Tabela de pressões médias $\Delta p_{13}$ - injeção de gás para a \textit {ICV - Halliburton On/Off}, com termo linear $ \rho = 499,60$ kg/$m^3$.\relax }{figure.caption.186}{}}
\@writefile{lof}{\contentsline {figure}{\numberline {20.4}{\ignorespaces Tabela de press\IeC {\~o}es m\IeC {\'e}dias $\Delta p_{23}$ - inje\IeC {\c c}\IeC {\~a}o de g\IeC {\'a}s para a \textit  {ICV - Halliburton On/Off}, com termo linear $ \rho = 499,60$ kg/$m^3$.\relax }}{134}{figure.caption.187}\protected@file@percent }
\newlabel{fig:Tab_OnOff_ICV_Halli_23_inj_gas}{{20.4}{134}{Tabela de pressões médias $\Delta p_{23}$ - injeção de gás para a \textit {ICV - Halliburton On/Off}, com termo linear $ \rho = 499,60$ kg/$m^3$.\relax }{figure.caption.187}{}}
\@setckpt{chapters/resultados_ICV_onOff}{
\setcounter{page}{135}
\setcounter{equation}{0}
\setcounter{enumi}{5}
\setcounter{enumii}{0}
\setcounter{enumiii}{0}
\setcounter{enumiv}{0}
\setcounter{footnote}{0}
\setcounter{mpfootnote}{0}
\setcounter{part}{0}
\setcounter{chapter}{20}
\setcounter{section}{1}
\setcounter{subsection}{0}
\setcounter{subsubsection}{0}
\setcounter{paragraph}{0}
\setcounter{subparagraph}{0}
\setcounter{figure}{4}
\setcounter{table}{1}
\setcounter{parentequation}{0}
\setcounter{caption@flags}{0}
\setcounter{continuedfloat}{0}
\setcounter{subfigure}{0}
\setcounter{subtable}{0}
\setcounter{lstnumber}{1}
\setcounter{mtc}{20}
\setcounter{minitocdepth}{1}
\setcounter{ptc}{0}
\setcounter{parttocdepth}{2}
\setcounter{Item}{14}
\setcounter{Hfootnote}{0}
\setcounter{bookmark@seq@number}{69}
\setcounter{ABCIaux}{0}
\setcounter{ABCImax}{0}
\setcounter{FancyVerbLine}{0}
\setcounter{linenumber}{1}
\setcounter{LN@truepage}{140}
\setcounter{FV@TrueTabGroupLevel}{0}
\setcounter{FV@TrueTabCounter}{0}
\setcounter{FV@HighlightLinesStart}{0}
\setcounter{FV@HighlightLinesStop}{0}
\setcounter{FancyVerbLineBreakLast}{0}
\setcounter{float@type}{16}
\setcounter{minted@FancyVerbLineTemp}{0}
\setcounter{minted@pygmentizecounter}{0}
\setcounter{listing}{0}
\setcounter{mdf@globalstyle@cnt}{0}
\setcounter{mdfcountframes}{0}
\setcounter{mdf@env@i}{0}
\setcounter{mdf@env@ii}{0}
\setcounter{mdf@zref@counter}{0}
\setcounter{AM@survey}{0}
\setcounter{lstlisting}{0}
\setcounter{section@level}{1}
}
