\relax 
\providecommand\hyper@newdestlabel[2]{}
\providecommand\zref@newlabel[2]{}
\@writefile{toc}{\contentsline {chapter}{\numberline {4}Resultados - Produ\IeC {\c c}\IeC {\~a}o - Accupulse (ciclo 8) - Propriedades m\IeC {\'e}dias do \IeC {\'O}leo}{35}{chapter.4}\protected@file@percent }
\@writefile{lof}{\addvspace {10\p@ }}
\@writefile{lot}{\addvspace {10\p@ }}
\@writefile{lof}{\contentsline {xchapter}{Resultados - Produ\IeC {\c c}\IeC {\~a}o - Accupulse (ciclo 8) - Propriedades m\IeC {\'e}dias do \IeC {\'O}leo}{35}{chapter.4}\protected@file@percent }
\@writefile{lot}{\contentsline {xchapter}{Resultados - Produ\IeC {\c c}\IeC {\~a}o - Accupulse (ciclo 8) - Propriedades m\IeC {\'e}dias do \IeC {\'O}leo}{35}{chapter.4}\protected@file@percent }
\@writefile{toc}{\contentsline {section}{\numberline {4.1}Ajuste das perdas de carga pela superf\IeC {\'\i }cie}{35}{section.4.1}\protected@file@percent }
\newlabel{sec:superf_accupulse}{{4.1}{35}{Ajuste das perdas de carga pela superfície}{section.4.1}{}}
\@writefile{toc}{\contentsline {subsection}{\numberline {4.1.1}Posi\IeC {\c c}\IeC {\~a}o 10 - 100\% de abertura}{35}{subsection.4.1.1}\protected@file@percent }
\@writefile{lot}{\contentsline {table}{\numberline {4.1}{\ignorespaces Constantes de ajuste $\beta $ para $\Delta P_{13}$ e $\Delta P_{23}$ e seus respectivos erros padr\IeC {\~a}o para a posi\IeC {\c c}\IeC {\~a}o 1 - 2\% de abertura.\relax }}{36}{table.caption.49}\protected@file@percent }
\newlabel{tab:consts_pos10_oleo_Accupulse8}{{4.1}{36}{Constantes de ajuste $\beta $ para $\Delta P_{13}$ e $\Delta P_{23}$ e seus respectivos erros padrão para a posição 1 - 2\% de abertura.\relax }{table.caption.49}{}}
\@writefile{lof}{\contentsline {figure}{\numberline {4.1}{\ignorespaces Varia\IeC {\c c}\IeC {\~a}o de $\Delta P_{13}$ de acordo com as vaz\IeC {\~o}es para posi\IeC {\c c}\IeC {\~a}o 10 - abertura de 100\%.\relax }}{36}{figure.caption.50}\protected@file@percent }
\newlabel{fig:pos10_Accupulse_superficie13}{{4.1}{36}{Variação de $\Delta P_{13}$ de acordo com as vazões para posição 10 - abertura de 100\%.\relax }{figure.caption.50}{}}
\@writefile{lof}{\contentsline {figure}{\numberline {4.2}{\ignorespaces Varia\IeC {\c c}\IeC {\~a}o de $\Delta P_{23}$ de acordo com as vaz\IeC {\~o}es para posi\IeC {\c c}\IeC {\~a}o 10 - abertura de 100\%.\relax }}{37}{figure.caption.51}\protected@file@percent }
\newlabel{fig:pos10_Accupulse_superficie23}{{4.2}{37}{Variação de $\Delta P_{23}$ de acordo com as vazões para posição 10 - abertura de 100\%.\relax }{figure.caption.51}{}}
\newlabel{fig:tab_sup_pos10_13}{{\caption@xref {fig:tab_sup_pos10_13}{ on input line 54}}{37}{Posição 10 - 100\% de abertura}{figure.caption.52}{}}
\@writefile{lof}{\contentsline {figure}{\numberline {4.3}{\ignorespaces Tabela de press\IeC {\~o}es m\IeC {\'e}dias $\Delta p_{13}$ - produ\IeC {\c c}\IeC {\~a}o com termo linear $ \mu = 3.2$ cP e $ \rho = 800.0$ kg/$m^3$.\relax }}{37}{figure.caption.52}\protected@file@percent }
\newlabel{fig:tab_sup_pos10_23}{{\caption@xref {fig:tab_sup_pos10_23}{ on input line 62}}{38}{Posição 10 - 100\% de abertura}{figure.caption.53}{}}
\@writefile{lof}{\contentsline {figure}{\numberline {4.4}{\ignorespaces Tabela de press\IeC {\~o}es m\IeC {\'e}dias $\Delta p_{23}$ - produ\IeC {\c c}\IeC {\~a}o com termo linear $ \mu = 3.2$ cP e $ \rho = 800.0$ kg/$m^3$.\relax }}{38}{figure.caption.53}\protected@file@percent }
\@writefile{toc}{\contentsline {subsection}{\numberline {4.1.2}Posi\IeC {\c c}\IeC {\~a}o 3 - 2\% de abertura}{39}{subsection.4.1.2}\protected@file@percent }
\@writefile{lot}{\contentsline {table}{\numberline {4.2}{\ignorespaces Constantes de ajuste $\beta $ para $\Delta P_{13}$ e $\Delta P_{23}$ e seus respectivos erros padr\IeC {\~a}o para a posi\IeC {\c c}\IeC {\~a}o 3 - 2\% de abertura.\relax }}{39}{table.caption.54}\protected@file@percent }
\newlabel{tab:consts_pos3_oleo_Accupulse8}{{4.2}{39}{Constantes de ajuste $\beta $ para $\Delta P_{13}$ e $\Delta P_{23}$ e seus respectivos erros padrão para a posição 3 - 2\% de abertura.\relax }{table.caption.54}{}}
\@writefile{lof}{\contentsline {figure}{\numberline {4.5}{\ignorespaces Varia\IeC {\c c}\IeC {\~a}o de $\Delta P_{13}$ de acordo com as vaz\IeC {\~o}es para posi\IeC {\c c}\IeC {\~a}o3 - abertura de 2\%.\relax }}{40}{figure.caption.55}\protected@file@percent }
\newlabel{fig:pos3_Accupulse_superficie13}{{4.5}{40}{Variação de $\Delta P_{13}$ de acordo com as vazões para posição3 - abertura de 2\%.\relax }{figure.caption.55}{}}
\@writefile{lof}{\contentsline {figure}{\numberline {4.6}{\ignorespaces Varia\IeC {\c c}\IeC {\~a}o de $\Delta P_{23}$ de acordo com as vaz\IeC {\~o}es para posi\IeC {\c c}\IeC {\~a}o 3 - abertura de 2\%.\relax }}{40}{figure.caption.56}\protected@file@percent }
\newlabel{fig:pos3_Accupulse_superficie23}{{4.6}{40}{Variação de $\Delta P_{23}$ de acordo com as vazões para posição 3 - abertura de 2\%.\relax }{figure.caption.56}{}}
\newlabel{fig:tab_sup_pos3_13}{{\caption@xref {fig:tab_sup_pos3_13}{ on input line 110}}{41}{Posição 3 - 2\% de abertura}{figure.caption.57}{}}
\@writefile{lof}{\contentsline {figure}{\numberline {4.7}{\ignorespaces Tabela de press\IeC {\~o}es m\IeC {\'e}dias $\Delta p_{13}$ - produ\IeC {\c c}\IeC {\~a}o com termo linear $ \mu = 3.2$ cP e $ \rho = 800.0$ kg/$m^3$.\relax }}{41}{figure.caption.57}\protected@file@percent }
\newlabel{fig:tab_sup_pos3_23}{{\caption@xref {fig:tab_sup_pos3_23}{ on input line 118}}{41}{Posição 3 - 2\% de abertura}{figure.caption.58}{}}
\@writefile{lof}{\contentsline {figure}{\numberline {4.8}{\ignorespaces Tabela de press\IeC {\~o}es m\IeC {\'e}dias $\Delta p_{23}$ - produ\IeC {\c c}\IeC {\~a}o com termo linear $ \mu = 3.2$ cP e $ \rho = 800.0$ kg/$m^3$.\relax }}{41}{figure.caption.58}\protected@file@percent }
\@writefile{toc}{\contentsline {section}{\numberline {4.2}Campos de velocidade e press\IeC {\~a}o}{42}{section.4.2}\protected@file@percent }
\@writefile{toc}{\contentsline {subsection}{\numberline {4.2.1}Campos de velocidade}{42}{subsection.4.2.1}\protected@file@percent }
\newlabel{fig:velocidade_pos3_accupulse8}{{\caption@xref {fig:velocidade_pos3_accupulse8}{ on input line 157}}{43}{Campos de velocidade}{figure.caption.59}{}}
\@writefile{lof}{\contentsline {figure}{\numberline {4.9}{\ignorespaces Campos de velocidades referentes a posi\IeC {\c c}\IeC {\~a}o 3.\relax }}{43}{figure.caption.59}\protected@file@percent }
\newlabel{fig:velocidade_pos10_accupulse8}{{\caption@xref {fig:velocidade_pos10_accupulse8}{ on input line 164}}{43}{Campos de velocidade}{figure.caption.60}{}}
\@writefile{lof}{\contentsline {figure}{\numberline {4.10}{\ignorespaces Campos de velocidades referentes a posi\IeC {\c c}\IeC {\~a}o 10.\relax }}{43}{figure.caption.60}\protected@file@percent }
\newlabel{fig:compara_U_oleo_accupulse8}{{\caption@xref {fig:compara_U_oleo_accupulse8}{ on input line 174}}{43}{Campos de velocidade}{figure.caption.61}{}}
\@writefile{lof}{\contentsline {figure}{\numberline {4.11}{\ignorespaces Campos de velocidades referentes a posi\IeC {\c c}\IeC {\~a}o 10 comparando a produ\IeC {\c c}\IeC {\~a}o de dois \IeC {\'o}leos distintos.\relax }}{43}{figure.caption.61}\protected@file@percent }
\@writefile{toc}{\contentsline {subsection}{\numberline {4.2.2}Campos de Press\IeC {\~a}o}{44}{subsection.4.2.2}\protected@file@percent }
\newlabel{fig:pressao_pos3_accupulse8}{{\caption@xref {fig:pressao_pos3_accupulse8}{ on input line 188}}{44}{Campos de Pressão}{figure.caption.62}{}}
\@writefile{lof}{\contentsline {figure}{\numberline {4.12}{\ignorespaces Campos de press\IeC {\~a}o referentes a posi\IeC {\c c}\IeC {\~a}o 3.\relax }}{44}{figure.caption.62}\protected@file@percent }
\newlabel{fig:pressao_pos10_accupulse8}{{\caption@xref {fig:pressao_pos10_accupulse8}{ on input line 195}}{44}{Campos de Pressão}{figure.caption.63}{}}
\@writefile{lof}{\contentsline {figure}{\numberline {4.13}{\ignorespaces Campos de press\IeC {\~a}o referentes a posi\IeC {\c c}\IeC {\~a}o 10.\relax }}{44}{figure.caption.63}\protected@file@percent }
\newlabel{fig:compara_p_oleo_acupulse}{{\caption@xref {fig:compara_p_oleo_acupulse}{ on input line 209}}{45}{Campos de Pressão}{figure.caption.64}{}}
\@writefile{lof}{\contentsline {figure}{\numberline {4.14}{\ignorespaces Campos de velocidades referentes a posi\IeC {\c c}\IeC {\~a}o 10 comparando a produ\IeC {\c c}\IeC {\~a}o de dois \IeC {\'o}leos distintos.\relax }}{45}{figure.caption.64}\protected@file@percent }
\@setckpt{chapters/resultados_ACCUPULSE}{
\setcounter{page}{46}
\setcounter{equation}{0}
\setcounter{enumi}{0}
\setcounter{enumii}{0}
\setcounter{enumiii}{0}
\setcounter{enumiv}{0}
\setcounter{footnote}{0}
\setcounter{mpfootnote}{0}
\setcounter{part}{0}
\setcounter{chapter}{4}
\setcounter{section}{2}
\setcounter{subsection}{2}
\setcounter{subsubsection}{0}
\setcounter{paragraph}{0}
\setcounter{subparagraph}{0}
\setcounter{figure}{14}
\setcounter{table}{2}
\setcounter{parentequation}{0}
\setcounter{caption@flags}{0}
\setcounter{continuedfloat}{0}
\setcounter{subfigure}{0}
\setcounter{subtable}{0}
\setcounter{lstnumber}{1}
\setcounter{mtc}{4}
\setcounter{minitocdepth}{1}
\setcounter{ptc}{0}
\setcounter{parttocdepth}{2}
\setcounter{Item}{0}
\setcounter{Hfootnote}{0}
\setcounter{bookmark@seq@number}{29}
\setcounter{ABCIaux}{0}
\setcounter{ABCImax}{0}
\setcounter{FancyVerbLine}{0}
\setcounter{linenumber}{1}
\setcounter{LN@truepage}{48}
\setcounter{FV@TrueTabGroupLevel}{0}
\setcounter{FV@TrueTabCounter}{0}
\setcounter{FV@HighlightLinesStart}{0}
\setcounter{FV@HighlightLinesStop}{0}
\setcounter{FancyVerbLineBreakLast}{0}
\setcounter{float@type}{16}
\setcounter{minted@FancyVerbLineTemp}{0}
\setcounter{minted@pygmentizecounter}{0}
\setcounter{listing}{0}
\setcounter{mdf@globalstyle@cnt}{0}
\setcounter{mdfcountframes}{0}
\setcounter{mdf@env@i}{0}
\setcounter{mdf@env@ii}{0}
\setcounter{mdf@zref@counter}{0}
\setcounter{AM@survey}{0}
\setcounter{lstlisting}{0}
\setcounter{section@level}{2}
}
