\relax 
\providecommand\hyper@newdestlabel[2]{}
\providecommand\zref@newlabel[2]{}
\@writefile{toc}{\contentsline {chapter}{\numberline {12}Resultados - Produ\IeC {\c c}\IeC {\~a}o - \textit  {ICV Accupulse (ciclo 8)} - Propriedades m\IeC {\'e}dias do \IeC {\'O}leo}{87}{chapter.12}\protected@file@percent }
\@writefile{lof}{\addvspace {10\p@ }}
\@writefile{lot}{\addvspace {10\p@ }}
\@writefile{lof}{\contentsline {xchapter}{Resultados - Produ\IeC {\c c}\IeC {\~a}o - \textit  {ICV Accupulse (ciclo 8)} - Propriedades m\IeC {\'e}dias do \IeC {\'O}leo}{87}{chapter.12}\protected@file@percent }
\@writefile{lot}{\contentsline {xchapter}{Resultados - Produ\IeC {\c c}\IeC {\~a}o - \textit  {ICV Accupulse (ciclo 8)} - Propriedades m\IeC {\'e}dias do \IeC {\'O}leo}{87}{chapter.12}\protected@file@percent }
\newlabel{results_accupulseciclo8_prod}{{12}{87}{Resultados - Produção - \textit {ICV Accupulse (ciclo 8)} - Propriedades médias do Óleo}{chapter.12}{}}
\@writefile{toc}{\contentsline {section}{\numberline {12.1}Ajuste das perdas de carga pela superf\IeC {\'\i }cie}{87}{section.12.1}\protected@file@percent }
\newlabel{sec:superf_accupulse}{{12.1}{87}{Ajuste das perdas de carga pela superfície}{section.12.1}{}}
\@writefile{toc}{\contentsline {subsection}{\numberline {12.1.1}Posi\IeC {\c c}\IeC {\~a}o 10 - 100\% de abertura}{87}{subsection.12.1.1}\protected@file@percent }
\@writefile{lot}{\contentsline {table}{\numberline {12.1}{\ignorespaces Constantes de ajuste $\beta $ para $\Delta P_{13}$ e $\Delta P_{23}$ e seus respectivos erros padr\IeC {\~a}o para produ\IeC {\c c}\IeC {\~a}o de \IeC {\'o}leo na posi\IeC {\c c}\IeC {\~a}o 10 da \textit  {ICV Accupulse ciclo 8} - 2\% de abertura.\relax }}{88}{table.caption.119}\protected@file@percent }
\newlabel{tab:consts_pos10_oleo_Accupulse8}{{12.1}{88}{Constantes de ajuste $\beta $ para $\Delta P_{13}$ e $\Delta P_{23}$ e seus respectivos erros padrão para produção de óleo na posição 10 da \textit {ICV Accupulse ciclo 8} - 2\% de abertura.\relax }{table.caption.119}{}}
\@writefile{lof}{\contentsline {figure}{\numberline {12.1}{\ignorespaces Varia\IeC {\c c}\IeC {\~a}o de $\Delta P_{13}$ de acordo com as vaz\IeC {\~o}es para posi\IeC {\c c}\IeC {\~a}o 10 da \textit  {ICV Accupulse ciclo 8} - abertura de 100\%.\relax }}{88}{figure.caption.120}\protected@file@percent }
\newlabel{fig:pos10_Accupulse_superficie13}{{12.1}{88}{Variação de $\Delta P_{13}$ de acordo com as vazões para posição 10 da \textit {ICV Accupulse ciclo 8} - abertura de 100\%.\relax }{figure.caption.120}{}}
\@writefile{lof}{\contentsline {figure}{\numberline {12.2}{\ignorespaces Varia\IeC {\c c}\IeC {\~a}o de $\Delta P_{23}$ de acordo com as vaz\IeC {\~o}es para posi\IeC {\c c}\IeC {\~a}o 10 da \textit  {ICV Accupulse ciclo 8} - abertura de 100\%.\relax }}{89}{figure.caption.121}\protected@file@percent }
\newlabel{fig:pos10_Accupulse_superficie23}{{12.2}{89}{Variação de $\Delta P_{23}$ de acordo com as vazões para posição 10 da \textit {ICV Accupulse ciclo 8} - abertura de 100\%.\relax }{figure.caption.121}{}}
\@writefile{lof}{\contentsline {figure}{\numberline {12.3}{\ignorespaces Tabela de press\IeC {\~o}es m\IeC {\'e}dias $\Delta p_{13}$ - produ\IeC {\c c}\IeC {\~a}o com termo linear $ \mu = 3.2$ cP e $ \rho = 800.0$ kg/$m^3$ (Posi\IeC {\c c}\IeC {\~a}o 10 da \textit  {ICV Accupulse ciclo 8}).\relax }}{89}{figure.caption.122}\protected@file@percent }
\newlabel{fig:tab_sup_pos10_13_accupulse}{{12.3}{89}{Tabela de pressões médias $\Delta p_{13}$ - produção com termo linear $ \mu = 3.2$ cP e $ \rho = 800.0$ kg/$m^3$ (Posição 10 da \textit {ICV Accupulse ciclo 8}).\relax }{figure.caption.122}{}}
\@writefile{lof}{\contentsline {figure}{\numberline {12.4}{\ignorespaces Tabela de press\IeC {\~o}es m\IeC {\'e}dias $\Delta p_{23}$ - produ\IeC {\c c}\IeC {\~a}o com termo linear $ \mu = 3.2$ cP e $ \rho = 800.0$ kg/$m^3$ (Posi\IeC {\c c}\IeC {\~a}o 10 da \textit  {ICV Accupulse ciclo 8}).\relax }}{90}{figure.caption.123}\protected@file@percent }
\newlabel{fig:tab_sup_pos10_23_accupulse}{{12.4}{90}{Tabela de pressões médias $\Delta p_{23}$ - produção com termo linear $ \mu = 3.2$ cP e $ \rho = 800.0$ kg/$m^3$ (Posição 10 da \textit {ICV Accupulse ciclo 8}).\relax }{figure.caption.123}{}}
\@writefile{lof}{\contentsline {figure}{\numberline {12.5}{\ignorespaces Comportamento do \IeC {\'o}leos produzidos com a viscosidade cinem\IeC {\'a}tica para posi\IeC {\c c}\IeC {\~a}o 10 da \textit  {ICV Accupulse ciclo 8} na amostragem 13.\relax }}{90}{figure.caption.124}\protected@file@percent }
\newlabel{fig:nu_coeffs_pos10_13_accupulse}{{12.5}{90}{Comportamento do óleos produzidos com a viscosidade cinemática para posição 10 da \textit {ICV Accupulse ciclo 8} na amostragem 13.\relax }{figure.caption.124}{}}
\@writefile{lof}{\contentsline {figure}{\numberline {12.6}{\ignorespaces Comportamento do \IeC {\'o}leos produzidos com a viscosidade cinem\IeC {\'a}tica para posi\IeC {\c c}\IeC {\~a}o 10 da \textit  {ICV Accupulse ciclo 8} na amostragem 23.\relax }}{91}{figure.caption.125}\protected@file@percent }
\newlabel{fig:nu_coeffs_pos10_23_accupulse}{{12.6}{91}{Comportamento do óleos produzidos com a viscosidade cinemática para posição 10 da \textit {ICV Accupulse ciclo 8} na amostragem 23.\relax }{figure.caption.125}{}}
\@writefile{toc}{\contentsline {subsection}{\numberline {12.1.2}Posi\IeC {\c c}\IeC {\~a}o 3 - 2\% de abertura}{92}{subsection.12.1.2}\protected@file@percent }
\@writefile{lot}{\contentsline {table}{\numberline {12.2}{\ignorespaces Constantes de ajuste $\beta $ para $\Delta P_{13}$ e $\Delta P_{23}$ e seus respectivos erros padr\IeC {\~a}o para produ\IeC {\c c}\IeC {\~a}o de \IeC {\'o}leo na posi\IeC {\c c}\IeC {\~a}o 3 da \textit  {ICV Accupulse ciclo 8}- 2\% de abertura.\relax }}{92}{table.caption.126}\protected@file@percent }
\newlabel{tab:consts_pos3_oleo_Accupulse8}{{12.2}{92}{Constantes de ajuste $\beta $ para $\Delta P_{13}$ e $\Delta P_{23}$ e seus respectivos erros padrão para produção de óleo na posição 3 da \textit {ICV Accupulse ciclo 8}- 2\% de abertura.\relax }{table.caption.126}{}}
\@writefile{lof}{\contentsline {figure}{\numberline {12.7}{\ignorespaces Varia\IeC {\c c}\IeC {\~a}o de $\Delta P_{13}$ de acordo com as vaz\IeC {\~o}es para posi\IeC {\c c}\IeC {\~a}o 3 da \textit  {ICV Accupulse ciclo 8} - abertura de 2\%.\relax }}{93}{figure.caption.127}\protected@file@percent }
\newlabel{fig:pos3_Accupulse_superficie13_oil}{{12.7}{93}{Variação de $\Delta P_{13}$ de acordo com as vazões para posição 3 da \textit {ICV Accupulse ciclo 8} - abertura de 2\%.\relax }{figure.caption.127}{}}
\@writefile{lof}{\contentsline {figure}{\numberline {12.8}{\ignorespaces Varia\IeC {\c c}\IeC {\~a}o de $\Delta P_{23}$ de acordo com as vaz\IeC {\~o}es para posi\IeC {\c c}\IeC {\~a}o 3 da \textit  {ICV Accupulse ciclo 8} - abertura de 2\%.\relax }}{93}{figure.caption.128}\protected@file@percent }
\newlabel{fig:pos3_Accupulse_superficie23_oil}{{12.8}{93}{Variação de $\Delta P_{23}$ de acordo com as vazões para posição 3 da \textit {ICV Accupulse ciclo 8} - abertura de 2\%.\relax }{figure.caption.128}{}}
\@writefile{lof}{\contentsline {figure}{\numberline {12.9}{\ignorespaces Tabela de press\IeC {\~o}es m\IeC {\'e}dias $\Delta p_{13}$ - produ\IeC {\c c}\IeC {\~a}o com termo linear $ \mu = 3.2$ cP e $ \rho = 800.0$ kg/$m^3$ (Posi\IeC {\c c}\IeC {\~a}o 3 da \textit  {ICV Accupulse ciclo 8}).\relax }}{94}{figure.caption.129}\protected@file@percent }
\newlabel{fig:tab_sup_pos3_13_accupulse_oil}{{12.9}{94}{Tabela de pressões médias $\Delta p_{13}$ - produção com termo linear $ \mu = 3.2$ cP e $ \rho = 800.0$ kg/$m^3$ (Posição 3 da \textit {ICV Accupulse ciclo 8}).\relax }{figure.caption.129}{}}
\@writefile{lof}{\contentsline {figure}{\numberline {12.10}{\ignorespaces Tabela de press\IeC {\~o}es m\IeC {\'e}dias $\Delta p_{23}$ - produ\IeC {\c c}\IeC {\~a}o com termo linear $ \mu = 3.2$ cP e $ \rho = 800.0$ kg/$m^3$ (Posi\IeC {\c c}\IeC {\~a}o 3 da \textit  {ICV Accupulse ciclo 8}).\relax }}{94}{figure.caption.130}\protected@file@percent }
\newlabel{fig:tab_sup_pos3_23_accupulse_oil}{{12.10}{94}{Tabela de pressões médias $\Delta p_{23}$ - produção com termo linear $ \mu = 3.2$ cP e $ \rho = 800.0$ kg/$m^3$ (Posição 3 da \textit {ICV Accupulse ciclo 8}).\relax }{figure.caption.130}{}}
\@writefile{lof}{\contentsline {figure}{\numberline {12.11}{\ignorespaces Comportamento do \IeC {\'o}leos produzidos com a viscosidade cinem\IeC {\'a}tica para posi\IeC {\c c}\IeC {\~a}o 3 da \textit  {ICV Accupulse ciclo 8} na amostragem 13.\relax }}{95}{figure.caption.131}\protected@file@percent }
\newlabel{fig:nu_coeffs_pos3_13_Accupulse}{{12.11}{95}{Comportamento do óleos produzidos com a viscosidade cinemática para posição 3 da \textit {ICV Accupulse ciclo 8} na amostragem 13.\relax }{figure.caption.131}{}}
\@writefile{lof}{\contentsline {figure}{\numberline {12.12}{\ignorespaces Comportamento do \IeC {\'o}leos produzidos com a viscosidade cinem\IeC {\'a}tica para posi\IeC {\c c}\IeC {\~a}o 3 da \textit  {ICV Accupulse ciclo 8} na amostragem 13, sem o maior coeficiente.\relax }}{95}{figure.caption.132}\protected@file@percent }
\newlabel{fig:nu_coeffs_pos3_13_Accupulse_aproxx}{{12.12}{95}{Comportamento do óleos produzidos com a viscosidade cinemática para posição 3 da \textit {ICV Accupulse ciclo 8} na amostragem 13, sem o maior coeficiente.\relax }{figure.caption.132}{}}
\@writefile{lof}{\contentsline {figure}{\numberline {12.13}{\ignorespaces Comportamento do \IeC {\'o}leos produzidos com a viscosidade cinem\IeC {\'a}tica para posi\IeC {\c c}\IeC {\~a}o 3 da \textit  {ICV Accupulse ciclo 8} na amostragem 23.\relax }}{96}{figure.caption.133}\protected@file@percent }
\newlabel{fig:nu_coeffs_pos3_23_Accupulse}{{12.13}{96}{Comportamento do óleos produzidos com a viscosidade cinemática para posição 3 da \textit {ICV Accupulse ciclo 8} na amostragem 23.\relax }{figure.caption.133}{}}
\@writefile{toc}{\contentsline {chapter}{\numberline {13}Resultados - Inje\IeC {\c c}\IeC {\~a}o - \textit  {Accupulse (ciclo 8)} - \IeC {\'A}gua}{97}{chapter.13}\protected@file@percent }
\@writefile{lof}{\addvspace {10\p@ }}
\@writefile{lot}{\addvspace {10\p@ }}
\@writefile{lof}{\contentsline {xchapter}{Resultados - Inje\IeC {\c c}\IeC {\~a}o - \textit  {Accupulse (ciclo 8)} - \IeC {\'A}gua}{97}{chapter.13}\protected@file@percent }
\@writefile{lot}{\contentsline {xchapter}{Resultados - Inje\IeC {\c c}\IeC {\~a}o - \textit  {Accupulse (ciclo 8)} - \IeC {\'A}gua}{97}{chapter.13}\protected@file@percent }
\newlabel{results_agua_accupulse}{{13}{97}{Resultados - Injeção - \textit {Accupulse (ciclo 8)} - Água}{chapter.13}{}}
\@writefile{toc}{\contentsline {section}{\numberline {13.1}Ajuste das perdas de carga pela superf\IeC {\'\i }cie}{97}{section.13.1}\protected@file@percent }
\newlabel{sec:superf_inje_agua}{{13.1}{97}{Ajuste das perdas de carga pela superfície}{section.13.1}{}}
\@writefile{toc}{\contentsline {subsection}{\numberline {13.1.1}Posi\IeC {\c c}\IeC {\~a}o 10 - 100\% de abertura}{97}{subsection.13.1.1}\protected@file@percent }
\@writefile{lot}{\contentsline {table}{\numberline {13.1}{\ignorespaces Constantes de ajuste $\beta $ para $\Delta P_{13}$ e $\Delta P_{23}$ e seus respectivos erros padr\IeC {\~a}o para inje\IeC {\c c}\IeC {\~a}o de \IeC {\'a}gua na posi\IeC {\c c}\IeC {\~a}o 10 da \textit  {ICV Accupulse ciclo 8} - 100\% de abertura.\relax }}{97}{table.caption.134}\protected@file@percent }
\newlabel{tab:consts_pos10_agua_accupulse8}{{13.1}{97}{Constantes de ajuste $\beta $ para $\Delta P_{13}$ e $\Delta P_{23}$ e seus respectivos erros padrão para injeção de água na posição 10 da \textit {ICV Accupulse ciclo 8} - 100\% de abertura.\relax }{table.caption.134}{}}
\@writefile{lof}{\contentsline {figure}{\numberline {13.1}{\ignorespaces Varia\IeC {\c c}\IeC {\~a}o de $\Delta P_{13}$ de acordo com as vaz\IeC {\~o}es para inje\IeC {\c c}\IeC {\~a}o de \IeC {\'a}gua na posi\IeC {\c c}\IeC {\~a}o 10 da \textit  {ICV Accupulse ciclo 8} - abertura de 100\%.\relax }}{98}{figure.caption.135}\protected@file@percent }
\newlabel{fig:pos10_accupulse8_superficie13_inj_agua}{{13.1}{98}{Variação de $\Delta P_{13}$ de acordo com as vazões para injeção de água na posição 10 da \textit {ICV Accupulse ciclo 8} - abertura de 100\%.\relax }{figure.caption.135}{}}
\@writefile{lof}{\contentsline {figure}{\numberline {13.2}{\ignorespaces Varia\IeC {\c c}\IeC {\~a}o de $\Delta P_{23}$ de acordo com as vaz\IeC {\~o}es para inje\IeC {\c c}\IeC {\~a}o de \IeC {\'a}gua na posi\IeC {\c c}\IeC {\~a}o 10 da \textit  {ICV Accupulse ciclo 8} - abertura de 100\%.\relax }}{99}{figure.caption.136}\protected@file@percent }
\newlabel{fig:pos10_accupulse8_superficie23_inj_agua}{{13.2}{99}{Variação de $\Delta P_{23}$ de acordo com as vazões para injeção de água na posição 10 da \textit {ICV Accupulse ciclo 8} - abertura de 100\%.\relax }{figure.caption.136}{}}
\@writefile{lof}{\contentsline {figure}{\numberline {13.3}{\ignorespaces Tabela de press\IeC {\~o}es m\IeC {\'e}dias $\Delta p_{13}$ - inje\IeC {\c c}\IeC {\~a}o de \IeC {\'a}gua com termo linear $ \mu = 0,7465 $ cP e $ \rho = 1043,25$ kg/$m^3$ (Posi\IeC {\c c}\IeC {\~a}o 10 da \textit  {ICV Accupulse ciclo 8}).\relax }}{99}{figure.caption.137}\protected@file@percent }
\newlabel{fig:tab_sup_pos10_accupulse8_13_inj_agua}{{13.3}{99}{Tabela de pressões médias $\Delta p_{13}$ - injeção de água com termo linear $ \mu = 0,7465 $ cP e $ \rho = 1043,25$ kg/$m^3$ (Posição 10 da \textit {ICV Accupulse ciclo 8}).\relax }{figure.caption.137}{}}
\@writefile{lof}{\contentsline {figure}{\numberline {13.4}{\ignorespaces Tabela de press\IeC {\~o}es m\IeC {\'e}dias $\Delta p_{23}$ - produ\IeC {\c c}\IeC {\~a}o com termo linear $ \mu = 0,7465$ cP e $ \rho = 1043,25$ kg/$m^3$ (Posi\IeC {\c c}\IeC {\~a}o 10 da \textit  {ICV Accupulse ciclo 8}).\relax }}{100}{figure.caption.138}\protected@file@percent }
\newlabel{fig:tab_sup_pos10_accupulse8_23_inj_agua}{{13.4}{100}{Tabela de pressões médias $\Delta p_{23}$ - produção com termo linear $ \mu = 0,7465$ cP e $ \rho = 1043,25$ kg/$m^3$ (Posição 10 da \textit {ICV Accupulse ciclo 8}).\relax }{figure.caption.138}{}}
\@writefile{toc}{\contentsline {subsection}{\numberline {13.1.2}Posi\IeC {\c c}\IeC {\~a}o 3 - 2\% de abertura}{101}{subsection.13.1.2}\protected@file@percent }
\@writefile{lot}{\contentsline {table}{\numberline {13.2}{\ignorespaces Constantes de ajuste $\beta $ para $\Delta P_{13}$ e $\Delta P_{23}$ e seus respectivos erros padr\IeC {\~a}o para inje\IeC {\c c}\IeC {\~a}o de \IeC {\'a}gua na posi\IeC {\c c}\IeC {\~a}o 3 da \textit  {ICV Accupulse ciclo 8} - 2\% de abertura.\relax }}{101}{table.caption.139}\protected@file@percent }
\newlabel{tab:consts_pos3_agua_accupulse8}{{13.2}{101}{Constantes de ajuste $\beta $ para $\Delta P_{13}$ e $\Delta P_{23}$ e seus respectivos erros padrão para injeção de água na posição 3 da \textit {ICV Accupulse ciclo 8} - 2\% de abertura.\relax }{table.caption.139}{}}
\@writefile{lof}{\contentsline {figure}{\numberline {13.5}{\ignorespaces Varia\IeC {\c c}\IeC {\~a}o de $\Delta P_{13}$ de acordo com as vaz\IeC {\~o}es para inje\IeC {\c c}\IeC {\~a}o de \IeC {\'a}gua na posi\IeC {\c c}\IeC {\~a}o 3 da \textit  {ICV Accupulse ciclo 8} - abertura de 2\%.\relax }}{101}{figure.caption.140}\protected@file@percent }
\newlabel{fig:pos3superficie13_accupulse8_inj_agua}{{13.5}{101}{Variação de $\Delta P_{13}$ de acordo com as vazões para injeção de água na posição 3 da \textit {ICV Accupulse ciclo 8} - abertura de 2\%.\relax }{figure.caption.140}{}}
\@writefile{lof}{\contentsline {figure}{\numberline {13.6}{\ignorespaces Varia\IeC {\c c}\IeC {\~a}o de $\Delta P_{23}$ de acordo com as vaz\IeC {\~o}es para inje\IeC {\c c}\IeC {\~a}o de \IeC {\'a}gua na posi\IeC {\c c}\IeC {\~a}o 3 da Accupulse ciclo 8 - abertura de 2\%.\relax }}{102}{figure.caption.141}\protected@file@percent }
\newlabel{fig:pos3superficie23_accupulse8_inj_agua}{{13.6}{102}{Variação de $\Delta P_{23}$ de acordo com as vazões para injeção de água na posição 3 da Accupulse ciclo 8 - abertura de 2\%.\relax }{figure.caption.141}{}}
\@writefile{lof}{\contentsline {figure}{\numberline {13.7}{\ignorespaces Tabela de press\IeC {\~o}es m\IeC {\'e}dias $\Delta p_{13}$ - inje\IeC {\c c}\IeC {\~a}o com termo linear $ \mu = 0,7465$ cP e $ \rho = 1043,25$ kg/$m^3$ (Posi\IeC {\c c}\IeC {\~a}o 3 da \textit  {ICV Accupulse ciclo 8}).\relax }}{102}{figure.caption.142}\protected@file@percent }
\newlabel{fig:tab_sup_pos3_accupulse8_13_inj_agua}{{13.7}{102}{Tabela de pressões médias $\Delta p_{13}$ - injeção com termo linear $ \mu = 0,7465$ cP e $ \rho = 1043,25$ kg/$m^3$ (Posição 3 da \textit {ICV Accupulse ciclo 8}).\relax }{figure.caption.142}{}}
\@writefile{lof}{\contentsline {figure}{\numberline {13.8}{\ignorespaces Tabela de press\IeC {\~o}es m\IeC {\'e}dias $\Delta p_{23}$ - produ\IeC {\c c}\IeC {\~a}o com termo linear $ \mu = 0,7465$ cP e $ \rho = 1043,25$ kg/$m^3$ (Posi\IeC {\c c}\IeC {\~a}o 3 da \textit  {ICV Accupulse ciclo 8}).\relax }}{103}{figure.caption.143}\protected@file@percent }
\newlabel{fig:tab_sup_pos3_accupulse8_23_inj_agua}{{13.8}{103}{Tabela de pressões médias $\Delta p_{23}$ - produção com termo linear $ \mu = 0,7465$ cP e $ \rho = 1043,25$ kg/$m^3$ (Posição 3 da \textit {ICV Accupulse ciclo 8}).\relax }{figure.caption.143}{}}
\@writefile{toc}{\contentsline {chapter}{\numberline {14}Resultados - Inje\IeC {\c c}\IeC {\~a}o - \textit  {Accupulse (ciclo8)}: G\IeC {\'a}s}{104}{chapter.14}\protected@file@percent }
\@writefile{lof}{\addvspace {10\p@ }}
\@writefile{lot}{\addvspace {10\p@ }}
\@writefile{lof}{\contentsline {xchapter}{Resultados - Inje\IeC {\c c}\IeC {\~a}o - \textit  {Accupulse (ciclo8)}: G\IeC {\'a}s}{104}{chapter.14}\protected@file@percent }
\@writefile{lot}{\contentsline {xchapter}{Resultados - Inje\IeC {\c c}\IeC {\~a}o - \textit  {Accupulse (ciclo8)}: G\IeC {\'a}s}{104}{chapter.14}\protected@file@percent }
\newlabel{results_gas_accupulse}{{14}{104}{Resultados - Injeção - \textit {Accupulse (ciclo8)}: Gás}{chapter.14}{}}
\@writefile{toc}{\contentsline {section}{\numberline {14.1}Ajuste das perdas de carga pela superf\IeC {\'\i }cie}{104}{section.14.1}\protected@file@percent }
\newlabel{sec:superf_inj_gas}{{14.1}{104}{Ajuste das perdas de carga pela superfície}{section.14.1}{}}
\@writefile{toc}{\contentsline {subsection}{\numberline {14.1.1}Posi\IeC {\c c}\IeC {\~a}o 10 - 100\% de abertura}{104}{subsection.14.1.1}\protected@file@percent }
\@writefile{lot}{\contentsline {table}{\numberline {14.1}{\ignorespaces Constantes de ajuste $\beta $ para $\Delta P_{13}$ e $\Delta P_{23}$ e seus respectivos erros padr\IeC {\~a}o para a inje\IeC {\c c}\IeC {\~a}o de g\IeC {\'a}s na posi\IeC {\c c}\IeC {\~a}o 10 da \textit  {ICV Accupulse ciclo 8} - 100\% de abertura.\relax }}{105}{table.caption.144}\protected@file@percent }
\newlabel{tab:consts_pos10_gas_Accupulse}{{14.1}{105}{Constantes de ajuste $\beta $ para $\Delta P_{13}$ e $\Delta P_{23}$ e seus respectivos erros padrão para a injeção de gás na posição 10 da \textit {ICV Accupulse ciclo 8} - 100\% de abertura.\relax }{table.caption.144}{}}
\@writefile{lof}{\contentsline {figure}{\numberline {14.1}{\ignorespaces Varia\IeC {\c c}\IeC {\~a}o de $\Delta P_{13}$ de acordo com as vaz\IeC {\~o}es para inje\IeC {\c c}\IeC {\~a}o de g\IeC {\'a}s na posi\IeC {\c c}\IeC {\~a}o 10 da \textit  {ICV Accupulse ciclo 8} - abertura de 82,3\%.\relax }}{105}{figure.caption.145}\protected@file@percent }
\newlabel{fig:pos10superficie13_inj_gas_accupulse}{{14.1}{105}{Variação de $\Delta P_{13}$ de acordo com as vazões para injeção de gás na posição 10 da \textit {ICV Accupulse ciclo 8} - abertura de 82,3\%.\relax }{figure.caption.145}{}}
\@writefile{lof}{\contentsline {figure}{\numberline {14.2}{\ignorespaces Varia\IeC {\c c}\IeC {\~a}o de $\Delta P_{23}$ de acordo com as vaz\IeC {\~o}es para inje\IeC {\c c}\IeC {\~a}o de g\IeC {\'a}s na posi\IeC {\c c}\IeC {\~a}o 10 da \textit  {ICV Accupulse ciclo 8} - abertura de 82,3\%.\relax }}{106}{figure.caption.146}\protected@file@percent }
\newlabel{fig:pos10superficie23_inj_gas_accupulse}{{14.2}{106}{Variação de $\Delta P_{23}$ de acordo com as vazões para injeção de gás na posição 10 da \textit {ICV Accupulse ciclo 8} - abertura de 82,3\%.\relax }{figure.caption.146}{}}
\@writefile{lof}{\contentsline {figure}{\numberline {14.3}{\ignorespaces Tabela de press\IeC {\~o}es m\IeC {\'e}dias $\Delta p_{13}$ - inje\IeC {\c c}\IeC {\~a}o de g\IeC {\'a}s para a posi\IeC {\c c}\IeC {\~a}o 10 da \textit  {ICV Accupulse ciclo 8}, com termo linear $ \rho = 499,60$ kg/$m^3$.\relax }}{106}{figure.caption.147}\protected@file@percent }
\newlabel{fig:tab_pos10_13_inj_gas_accupulse}{{14.3}{106}{Tabela de pressões médias $\Delta p_{13}$ - injeção de gás para a posição 10 da \textit {ICV Accupulse ciclo 8}, com termo linear $ \rho = 499,60$ kg/$m^3$.\relax }{figure.caption.147}{}}
\@writefile{lof}{\contentsline {figure}{\numberline {14.4}{\ignorespaces Tabela de press\IeC {\~o}es m\IeC {\'e}dias $\Delta p_{23}$ - inje\IeC {\c c}\IeC {\~a}o de g\IeC {\'a}s para a posi\IeC {\c c}\IeC {\~a}o 10 da \textit  {ICV Accupulse ciclo 8}, com termo linear $ \rho = 499,60$ kg/$m^3$.\relax }}{107}{figure.caption.148}\protected@file@percent }
\newlabel{fig:tab_pos10_23_inj_gas_accupulse}{{14.4}{107}{Tabela de pressões médias $\Delta p_{23}$ - injeção de gás para a posição 10 da \textit {ICV Accupulse ciclo 8}, com termo linear $ \rho = 499,60$ kg/$m^3$.\relax }{figure.caption.148}{}}
\@writefile{toc}{\contentsline {subsection}{\numberline {14.1.2}Posi\IeC {\c c}\IeC {\~a}o 5 - 6\% de abertura}{108}{subsection.14.1.2}\protected@file@percent }
\@writefile{lot}{\contentsline {table}{\numberline {14.2}{\ignorespaces Constantes de ajuste $\beta $ para $\Delta P_{13}$ e $\Delta P_{23}$ e seus respectivos erros padr\IeC {\~a}o para inje\IeC {\c c}\IeC {\~a}o de g\IeC {\'a}s na posi\IeC {\c c}\IeC {\~a}o 5 da \textit  {ICV Accupulse ciclo 8} - 6\% de abertura.\relax }}{108}{table.caption.149}\protected@file@percent }
\newlabel{tab:consts_pos5_gas_Accupulse}{{14.2}{108}{Constantes de ajuste $\beta $ para $\Delta P_{13}$ e $\Delta P_{23}$ e seus respectivos erros padrão para injeção de gás na posição 5 da \textit {ICV Accupulse ciclo 8} - 6\% de abertura.\relax }{table.caption.149}{}}
\@writefile{lof}{\contentsline {figure}{\numberline {14.5}{\ignorespaces Varia\IeC {\c c}\IeC {\~a}o de $\Delta P_{13}$ de acordo com as vaz\IeC {\~o}es para inje\IeC {\c c}\IeC {\~a}o de g\IeC {\'a}s na posi\IeC {\c c}\IeC {\~a}o 5 da \textit  {ICV Accupulse ciclo 8} - abertura de 6\%.\relax }}{109}{figure.caption.150}\protected@file@percent }
\newlabel{fig:pos5superficie13_inj_gas_accupulse}{{14.5}{109}{Variação de $\Delta P_{13}$ de acordo com as vazões para injeção de gás na posição 5 da \textit {ICV Accupulse ciclo 8} - abertura de 6\%.\relax }{figure.caption.150}{}}
\@writefile{lof}{\contentsline {figure}{\numberline {14.6}{\ignorespaces Varia\IeC {\c c}\IeC {\~a}o de $\Delta P_{23}$ de acordo com as vaz\IeC {\~o}es para inje\IeC {\c c}\IeC {\~a}o de g\IeC {\'a}s na posi\IeC {\c c}\IeC {\~a}o 5 da \textit  {ICV Accupulse ciclo 8} - abertura de 6\%.\relax }}{109}{figure.caption.151}\protected@file@percent }
\newlabel{fig:pos5superficie23_inj_gas_accupulse}{{14.6}{109}{Variação de $\Delta P_{23}$ de acordo com as vazões para injeção de gás na posição 5 da \textit {ICV Accupulse ciclo 8} - abertura de 6\%.\relax }{figure.caption.151}{}}
\@writefile{lof}{\contentsline {figure}{\numberline {14.7}{\ignorespaces Tabela de press\IeC {\~o}es m\IeC {\'e}dias $\Delta p_{13}$ - inje\IeC {\c c}\IeC {\~a}o de g\IeC {\'a}s na posi\IeC {\c c}\IeC {\~a}o 5 da \textit  {ICV Accupulse ciclo 8}, com termo linear $ \rho = 499,60$ kg/$m^3$.\relax }}{110}{figure.caption.152}\protected@file@percent }
\newlabel{fig:tab_sup_pos5_13_gas_accupulse}{{14.7}{110}{Tabela de pressões médias $\Delta p_{13}$ - injeção de gás na posição 5 da \textit {ICV Accupulse ciclo 8}, com termo linear $ \rho = 499,60$ kg/$m^3$.\relax }{figure.caption.152}{}}
\@writefile{lof}{\contentsline {figure}{\numberline {14.8}{\ignorespaces Tabela de press\IeC {\~o}es m\IeC {\'e}dias $\Delta p_{23}$ - inje\IeC {\c c}\IeC {\~a}o de g\IeC {\'a}s na posi\IeC {\c c}\IeC {\~a}o 5 da \textit  {ICV Accupulse ciclo 8}, com termo linear$ \rho = 499,60$ kg/$m^3$.\relax }}{110}{figure.caption.153}\protected@file@percent }
\newlabel{fig:tab_sup_pos5_23_gas_accupulse}{{14.8}{110}{Tabela de pressões médias $\Delta p_{23}$ - injeção de gás na posição 5 da \textit {ICV Accupulse ciclo 8}, com termo linear$ \rho = 499,60$ kg/$m^3$.\relax }{figure.caption.153}{}}
\@setckpt{chapters/resultados_accupulse8}{
\setcounter{page}{111}
\setcounter{equation}{0}
\setcounter{enumi}{5}
\setcounter{enumii}{0}
\setcounter{enumiii}{0}
\setcounter{enumiv}{0}
\setcounter{footnote}{0}
\setcounter{mpfootnote}{0}
\setcounter{part}{0}
\setcounter{chapter}{14}
\setcounter{section}{1}
\setcounter{subsection}{2}
\setcounter{subsubsection}{0}
\setcounter{paragraph}{0}
\setcounter{subparagraph}{0}
\setcounter{figure}{8}
\setcounter{table}{2}
\setcounter{parentequation}{0}
\setcounter{caption@flags}{0}
\setcounter{continuedfloat}{0}
\setcounter{subfigure}{0}
\setcounter{subtable}{0}
\setcounter{lstnumber}{1}
\setcounter{mtc}{14}
\setcounter{minitocdepth}{1}
\setcounter{ptc}{0}
\setcounter{parttocdepth}{2}
\setcounter{Item}{14}
\setcounter{Hfootnote}{0}
\setcounter{bookmark@seq@number}{57}
\setcounter{ABCIaux}{0}
\setcounter{ABCImax}{0}
\setcounter{FancyVerbLine}{0}
\setcounter{linenumber}{1}
\setcounter{LN@truepage}{116}
\setcounter{FV@TrueTabGroupLevel}{0}
\setcounter{FV@TrueTabCounter}{0}
\setcounter{FV@HighlightLinesStart}{0}
\setcounter{FV@HighlightLinesStop}{0}
\setcounter{FancyVerbLineBreakLast}{0}
\setcounter{float@type}{16}
\setcounter{minted@FancyVerbLineTemp}{0}
\setcounter{minted@pygmentizecounter}{0}
\setcounter{listing}{0}
\setcounter{mdf@globalstyle@cnt}{0}
\setcounter{mdfcountframes}{0}
\setcounter{mdf@env@i}{0}
\setcounter{mdf@env@ii}{0}
\setcounter{mdf@zref@counter}{0}
\setcounter{AM@survey}{0}
\setcounter{lstlisting}{0}
\setcounter{section@level}{2}
}
