\relax 
\providecommand\hyper@newdestlabel[2]{}
\providecommand\zref@newlabel[2]{}
\@writefile{toc}{\contentsline {chapter}{\numberline {15}Resultados - Produ\IeC {\c c}\IeC {\~a}o - \textit  {SSV Halliburton} - Propriedades m\IeC {\'e}dias do \IeC {\'O}leo}{111}{chapter.15}\protected@file@percent }
\@writefile{lof}{\addvspace {10\p@ }}
\@writefile{lot}{\addvspace {10\p@ }}
\@writefile{lof}{\contentsline {xchapter}{Resultados - Produ\IeC {\c c}\IeC {\~a}o - \textit  {SSV Halliburton} - Propriedades m\IeC {\'e}dias do \IeC {\'O}leo}{111}{chapter.15}\protected@file@percent }
\@writefile{lot}{\contentsline {xchapter}{Resultados - Produ\IeC {\c c}\IeC {\~a}o - \textit  {SSV Halliburton} - Propriedades m\IeC {\'e}dias do \IeC {\'O}leo}{111}{chapter.15}\protected@file@percent }
\newlabel{results_ssv_oil}{{15}{111}{Resultados - Produção - \textit {SSV Halliburton} - Propriedades médias do Óleo}{chapter.15}{}}
\@writefile{toc}{\contentsline {section}{\numberline {15.1}Ajuste das perdas de carga pela superf\IeC {\'\i }cie}{111}{section.15.1}\protected@file@percent }
\newlabel{sec:superf_ssv_oil}{{15.1}{111}{Ajuste das perdas de carga pela superfície}{section.15.1}{}}
\@writefile{lot}{\contentsline {table}{\numberline {15.1}{\ignorespaces Constantes de ajuste $\beta $ para $\Delta P_{13}$ e $\Delta P_{23}$ e seus respectivos erros padr\IeC {\~a}o para produ\IeC {\c c}\IeC {\~a}o de \IeC {\'o}leo da v\IeC {\'a}lvula \textit  {SSV - Halliburton}.\relax }}{112}{table.caption.154}\protected@file@percent }
\newlabel{tab:consts_SSV_oleo}{{15.1}{112}{Constantes de ajuste $\beta $ para $\Delta P_{13}$ e $\Delta P_{23}$ e seus respectivos erros padrão para produção de óleo da válvula \textit {SSV - Halliburton}.\relax }{table.caption.154}{}}
\@writefile{lof}{\contentsline {figure}{\numberline {15.1}{\ignorespaces Varia\IeC {\c c}\IeC {\~a}o de $\Delta P_{13}$ de acordo com as vaz\IeC {\~o}es para a v\IeC {\'a}lvula \textit  {SSV - Halliburton}.\relax }}{112}{figure.caption.155}\protected@file@percent }
\newlabel{fig:SSVsuperficie13}{{15.1}{112}{Variação de $\Delta P_{13}$ de acordo com as vazões para a válvula \textit {SSV - Halliburton}.\relax }{figure.caption.155}{}}
\@writefile{lof}{\contentsline {figure}{\numberline {15.2}{\ignorespaces Varia\IeC {\c c}\IeC {\~a}o de $\Delta P_{23}$ de acordo com as vaz\IeC {\~o}es para a v\IeC {\'a}lvula \textit  {SSV - Halliburton}.\relax }}{113}{figure.caption.156}\protected@file@percent }
\newlabel{fig:SSVsuperficie23}{{15.2}{113}{Variação de $\Delta P_{23}$ de acordo com as vazões para a válvula \textit {SSV - Halliburton}.\relax }{figure.caption.156}{}}
\@writefile{lof}{\contentsline {figure}{\numberline {15.3}{\ignorespaces Tabela de press\IeC {\~o}es m\IeC {\'e}dias $\Delta p_{13}$ - produ\IeC {\c c}\IeC {\~a}o produ\IeC {\c c}\IeC {\~a}o na \textit  {SSV - Halliburton}, com termo linear $ \mu = 3.2$ cP e $ \rho = 800.0$ kg/$m^3$.\relax }}{113}{figure.caption.157}\protected@file@percent }
\newlabel{fig:tab_sup_SSV_13}{{15.3}{113}{Tabela de pressões médias $\Delta p_{13}$ - produção produção na \textit {SSV - Halliburton}, com termo linear $ \mu = 3.2$ cP e $ \rho = 800.0$ kg/$m^3$.\relax }{figure.caption.157}{}}
\@writefile{lof}{\contentsline {figure}{\numberline {15.4}{\ignorespaces Tabela de press\IeC {\~o}es m\IeC {\'e}dias $\Delta p_{23}$ - produ\IeC {\c c}\IeC {\~a}o na \textit  {SSV - Halliburton}, com termo linear $ \mu = 3.2$ cP e $ \rho = 800.0$ kg/$m^3$.\relax }}{114}{figure.caption.158}\protected@file@percent }
\newlabel{fig:tab_sup_SSV_23}{{15.4}{114}{Tabela de pressões médias $\Delta p_{23}$ - produção na \textit {SSV - Halliburton}, com termo linear $ \mu = 3.2$ cP e $ \rho = 800.0$ kg/$m^3$.\relax }{figure.caption.158}{}}
\@writefile{lof}{\contentsline {figure}{\numberline {15.5}{\ignorespaces Comportamento do \IeC {\'o}leos produzidos com a viscosidade cinem\IeC {\'a}tica para \textit  {SSV - Halliburton} na amostragem 13.\relax }}{114}{figure.caption.159}\protected@file@percent }
\newlabel{fig:nu_coeffs_SSV_13}{{15.5}{114}{Comportamento do óleos produzidos com a viscosidade cinemática para \textit {SSV - Halliburton} na amostragem 13.\relax }{figure.caption.159}{}}
\@writefile{lof}{\contentsline {figure}{\numberline {15.6}{\ignorespaces Comportamento do \IeC {\'o}leos produzidos com a viscosidade cinem\IeC {\'a}tica para \textit  {SSV - Halliburton} na amostragem 23.\relax }}{115}{figure.caption.160}\protected@file@percent }
\newlabel{fig:nu_coeffs_SSV_23}{{15.6}{115}{Comportamento do óleos produzidos com a viscosidade cinemática para \textit {SSV - Halliburton} na amostragem 23.\relax }{figure.caption.160}{}}
\@writefile{toc}{\contentsline {chapter}{\numberline {16}Resultados - Inje\IeC {\c c}\IeC {\~a}o - \textit  {SSV Halliburton} - \IeC {\'A}gua}{116}{chapter.16}\protected@file@percent }
\@writefile{lof}{\addvspace {10\p@ }}
\@writefile{lot}{\addvspace {10\p@ }}
\@writefile{lof}{\contentsline {xchapter}{Resultados - Inje\IeC {\c c}\IeC {\~a}o - \textit  {SSV Halliburton} - \IeC {\'A}gua}{116}{chapter.16}\protected@file@percent }
\@writefile{lot}{\contentsline {xchapter}{Resultados - Inje\IeC {\c c}\IeC {\~a}o - \textit  {SSV Halliburton} - \IeC {\'A}gua}{116}{chapter.16}\protected@file@percent }
\newlabel{results_agua_SSV}{{16}{116}{Resultados - Injeção - \textit {SSV Halliburton} - Água}{chapter.16}{}}
\@writefile{toc}{\contentsline {section}{\numberline {16.1}Ajuste das perdas de carga pela superf\IeC {\'\i }cie}{116}{section.16.1}\protected@file@percent }
\newlabel{sec:superf_inj_agua_ssv}{{16.1}{116}{Ajuste das perdas de carga pela superfície}{section.16.1}{}}
\@writefile{lot}{\contentsline {table}{\numberline {16.1}{\ignorespaces Constantes de ajuste $\beta $ para $\Delta P_{13}$ e $\Delta P_{23}$ e seus respectivos erros padr\IeC {\~a}o para inje\IeC {\c c}\IeC {\~a}o de \IeC {\'a}gua na \textit  {SSV - Halliburton}.\relax }}{116}{table.caption.161}\protected@file@percent }
\newlabel{tab:consts_SSV_agua}{{16.1}{116}{Constantes de ajuste $\beta $ para $\Delta P_{13}$ e $\Delta P_{23}$ e seus respectivos erros padrão para injeção de água na \textit {SSV - Halliburton}.\relax }{table.caption.161}{}}
\@writefile{lof}{\contentsline {figure}{\numberline {16.1}{\ignorespaces Varia\IeC {\c c}\IeC {\~a}o de $\Delta P_{13}$ de acordo com as vaz\IeC {\~o}es para inje\IeC {\c c}\IeC {\~a}o de \IeC {\'a}gua na \textit  {SSV - Halliburton}.\relax }}{117}{figure.caption.162}\protected@file@percent }
\newlabel{fig:SSV_superficie13_inj_agua}{{16.1}{117}{Variação de $\Delta P_{13}$ de acordo com as vazões para injeção de água na \textit {SSV - Halliburton}.\relax }{figure.caption.162}{}}
\@writefile{lof}{\contentsline {figure}{\numberline {16.2}{\ignorespaces Varia\IeC {\c c}\IeC {\~a}o de $\Delta P_{23}$ de acordo com as vaz\IeC {\~o}es para inje\IeC {\c c}\IeC {\~a}o de \IeC {\'a}gua na \textit  {SSV - Halliburton}.\relax }}{117}{figure.caption.163}\protected@file@percent }
\newlabel{fig:SSV_superficie23_inj_agua}{{16.2}{117}{Variação de $\Delta P_{23}$ de acordo com as vazões para injeção de água na \textit {SSV - Halliburton}.\relax }{figure.caption.163}{}}
\@writefile{lof}{\contentsline {figure}{\numberline {16.3}{\ignorespaces Tabela de press\IeC {\~o}es m\IeC {\'e}dias $\Delta p_{13}$ inje\IeC {\c c}\IeC {\~a}o de \IeC {\'a}gua para \textit  {SSV - Halliburton}, com termo linear $ \mu = 0,7465 $ cP e $ \rho = 1043,25$ kg/$m^3$.\relax }}{118}{figure.caption.164}\protected@file@percent }
\newlabel{tab:tab_sup_SSV_13_inj_agua}{{16.3}{118}{Tabela de pressões médias $\Delta p_{13}$ injeção de água para \textit {SSV - Halliburton}, com termo linear $ \mu = 0,7465 $ cP e $ \rho = 1043,25$ kg/$m^3$.\relax }{figure.caption.164}{}}
\@writefile{lof}{\contentsline {figure}{\numberline {16.4}{\ignorespaces Tabela de press\IeC {\~o}es m\IeC {\'e}dias $\Delta p_{23}$ - inje\IeC {\c c}\IeC {\~a}o de \IeC {\'a}gua para \textit  {SSV - Halliburton}, com termo linear $ \mu = 0,7465$ cP e $ \rho = 1043,25$ kg/$m^3$.\relax }}{118}{figure.caption.165}\protected@file@percent }
\newlabel{tab:tab_sup_SSV_23_inj_agua}{{16.4}{118}{Tabela de pressões médias $\Delta p_{23}$ - injeção de água para \textit {SSV - Halliburton}, com termo linear $ \mu = 0,7465$ cP e $ \rho = 1043,25$ kg/$m^3$.\relax }{figure.caption.165}{}}
\@writefile{toc}{\contentsline {chapter}{\numberline {17}Resultados - Inje\IeC {\c c}\IeC {\~a}o - \textit  {SSV Halliburton} - G\IeC {\'a}s}{119}{chapter.17}\protected@file@percent }
\@writefile{lof}{\addvspace {10\p@ }}
\@writefile{lot}{\addvspace {10\p@ }}
\@writefile{lof}{\contentsline {xchapter}{Resultados - Inje\IeC {\c c}\IeC {\~a}o - \textit  {SSV Halliburton} - G\IeC {\'a}s}{119}{chapter.17}\protected@file@percent }
\@writefile{lot}{\contentsline {xchapter}{Resultados - Inje\IeC {\c c}\IeC {\~a}o - \textit  {SSV Halliburton} - G\IeC {\'a}s}{119}{chapter.17}\protected@file@percent }
\newlabel{results_SSV_gas}{{17}{119}{Resultados - Injeção - \textit {SSV Halliburton} - Gás}{chapter.17}{}}
\@writefile{toc}{\contentsline {section}{\numberline {17.1}Ajuste das perdas de carga pela superf\IeC {\'\i }cie}{119}{section.17.1}\protected@file@percent }
\newlabel{sec:superf_inj_gas_ssv}{{17.1}{119}{Ajuste das perdas de carga pela superfície}{section.17.1}{}}
\@writefile{lot}{\contentsline {table}{\numberline {17.1}{\ignorespaces Constantes de ajuste $\beta $ para $\Delta P_{13}$ e $\Delta P_{23}$ e seus respectivos erros padr\IeC {\~a}o para a v\IeC {\'a}lvula \textit  {SSV - Halliburton}.\relax }}{120}{table.caption.166}\protected@file@percent }
\newlabel{tab:consts_SSV_gas}{{17.1}{120}{Constantes de ajuste $\beta $ para $\Delta P_{13}$ e $\Delta P_{23}$ e seus respectivos erros padrão para a válvula \textit {SSV - Halliburton}.\relax }{table.caption.166}{}}
\@writefile{lof}{\contentsline {figure}{\numberline {17.1}{\ignorespaces Varia\IeC {\c c}\IeC {\~a}o de $\Delta P_{13}$ de acordo com as vaz\IeC {\~o}es para a inje\IeC {\c c}\IeC {\~a}o de g\IeC {\'a}s na \textit  {SSV - Halliburton}.\relax }}{120}{figure.caption.167}\protected@file@percent }
\newlabel{fig:SSVsuperficie13_inj_gas}{{17.1}{120}{Variação de $\Delta P_{13}$ de acordo com as vazões para a injeção de gás na \textit {SSV - Halliburton}.\relax }{figure.caption.167}{}}
\@writefile{lof}{\contentsline {figure}{\numberline {17.2}{\ignorespaces Varia\IeC {\c c}\IeC {\~a}o de $\Delta P_{23}$ de acordo com as vaz\IeC {\~o}es para a inje\IeC {\c c}\IeC {\~a}o de g\IeC {\'a}s na \textit  {SSV - Halliburton}.\relax }}{121}{figure.caption.168}\protected@file@percent }
\newlabel{fig:SSVsuperficie23_inj_gas}{{17.2}{121}{Variação de $\Delta P_{23}$ de acordo com as vazões para a injeção de gás na \textit {SSV - Halliburton}.\relax }{figure.caption.168}{}}
\@writefile{lof}{\contentsline {figure}{\numberline {17.3}{\ignorespaces Tabela de press\IeC {\~o}es m\IeC {\'e}dias $\Delta p_{13}$ - inje\IeC {\c c}\IeC {\~a}o de g\IeC {\'a}s na \textit  {SSV - Halliburton}, com termo linear $ \rho = 499,60$ kg/$m^3$.\relax }}{121}{figure.caption.169}\protected@file@percent }
\newlabel{tab:tab_sup_SSV_13_inj_gas}{{17.3}{121}{Tabela de pressões médias $\Delta p_{13}$ - injeção de gás na \textit {SSV - Halliburton}, com termo linear $ \rho = 499,60$ kg/$m^3$.\relax }{figure.caption.169}{}}
\@writefile{lof}{\contentsline {figure}{\numberline {17.4}{\ignorespaces Tabela de press\IeC {\~o}es m\IeC {\'e}dias $\Delta p_{23}$ - inje\IeC {\c c}\IeC {\~a}o de g\IeC {\'a}s na \textit  {SSV - Halliburton}, com termo linear $ \rho = 499,60$ kg/$m^3$.\relax }}{122}{figure.caption.170}\protected@file@percent }
\newlabel{tab:tab_sup_SSV_23_inj_gas}{{17.4}{122}{Tabela de pressões médias $\Delta p_{23}$ - injeção de gás na \textit {SSV - Halliburton}, com termo linear $ \rho = 499,60$ kg/$m^3$.\relax }{figure.caption.170}{}}
\@setckpt{chapters/resultados_SSV}{
\setcounter{page}{123}
\setcounter{equation}{0}
\setcounter{enumi}{5}
\setcounter{enumii}{0}
\setcounter{enumiii}{0}
\setcounter{enumiv}{0}
\setcounter{footnote}{0}
\setcounter{mpfootnote}{0}
\setcounter{part}{0}
\setcounter{chapter}{17}
\setcounter{section}{1}
\setcounter{subsection}{0}
\setcounter{subsubsection}{0}
\setcounter{paragraph}{0}
\setcounter{subparagraph}{0}
\setcounter{figure}{4}
\setcounter{table}{1}
\setcounter{parentequation}{0}
\setcounter{caption@flags}{0}
\setcounter{continuedfloat}{0}
\setcounter{subfigure}{0}
\setcounter{subtable}{0}
\setcounter{lstnumber}{1}
\setcounter{mtc}{17}
\setcounter{minitocdepth}{1}
\setcounter{ptc}{0}
\setcounter{parttocdepth}{2}
\setcounter{Item}{14}
\setcounter{Hfootnote}{0}
\setcounter{bookmark@seq@number}{63}
\setcounter{ABCIaux}{0}
\setcounter{ABCImax}{0}
\setcounter{FancyVerbLine}{0}
\setcounter{linenumber}{1}
\setcounter{LN@truepage}{128}
\setcounter{FV@TrueTabGroupLevel}{0}
\setcounter{FV@TrueTabCounter}{0}
\setcounter{FV@HighlightLinesStart}{0}
\setcounter{FV@HighlightLinesStop}{0}
\setcounter{FancyVerbLineBreakLast}{0}
\setcounter{float@type}{16}
\setcounter{minted@FancyVerbLineTemp}{0}
\setcounter{minted@pygmentizecounter}{0}
\setcounter{listing}{0}
\setcounter{mdf@globalstyle@cnt}{0}
\setcounter{mdfcountframes}{0}
\setcounter{mdf@env@i}{0}
\setcounter{mdf@env@ii}{0}
\setcounter{mdf@zref@counter}{0}
\setcounter{AM@survey}{0}
\setcounter{lstlisting}{0}
\setcounter{section@level}{1}
}
