\relax 
\providecommand\hyper@newdestlabel[2]{}
\providecommand\zref@newlabel[2]{}
\@writefile{toc}{\contentsline {chapter}{\numberline {8}\textit  {SSV} da \textit  {Halliburton}}{58}{chapter.8}\protected@file@percent }
\@writefile{lof}{\addvspace {10\p@ }}
\@writefile{lot}{\addvspace {10\p@ }}
\@writefile{lof}{\contentsline {xchapter}{\textit  {SSV} da \textit  {Halliburton}}{58}{chapter.8}\protected@file@percent }
\@writefile{lot}{\contentsline {xchapter}{\textit  {SSV} da \textit  {Halliburton}}{58}{chapter.8}\protected@file@percent }
\newlabel{chap:SSV_geom_mesh}{{8}{58}{\textit {SSV} da \textit {Halliburton}}{chapter.8}{}}
\@writefile{toc}{\contentsline {section}{\numberline {8.1}Geometria}{58}{section.8.1}\protected@file@percent }
\@writefile{lof}{\contentsline {figure}{\numberline {8.1}{\ignorespaces Detalhes das comunica\IeC {\c c}\IeC {\~o}es e parte m\IeC {\'o}vel interna da v\IeC {\'a}lvula (\textit  {SSV - Halliburton}).\relax }}{58}{figure.caption.78}\protected@file@percent }
\newlabel{fig:SSV_detail}{{8.1}{58}{Detalhes das comunicações e parte móvel interna da válvula (\textit {SSV - Halliburton}).\relax }{figure.caption.78}{}}
\@writefile{lof}{\contentsline {figure}{\numberline {8.2}{\ignorespaces Detalhe da parte externa da comunica\IeC {\c c}\IeC {\~a}o (\textit  {SSV - Halliburton}).\relax }}{59}{figure.caption.79}\protected@file@percent }
\newlabel{fig:SSV_chock_ext}{{8.2}{59}{Detalhe da parte externa da comunicação (\textit {SSV - Halliburton}).\relax }{figure.caption.79}{}}
\citation{isa75}
\@writefile{lof}{\contentsline {figure}{\numberline {8.3}{\ignorespaces V\IeC {\'a}lvula posicionada no po\IeC {\c c}o de 8,5" (\textit  {SSV - Halliburton}).\relax }}{60}{figure.caption.80}\protected@file@percent }
\newlabel{fig:SSV_poco}{{8.3}{60}{Válvula posicionada no poço de 8,5" (\textit {SSV - Halliburton}).\relax }{figure.caption.80}{}}
\@writefile{lof}{\contentsline {figure}{\numberline {8.4}{\ignorespaces Raios das entradas do anular e da coluna (\textit  {SSV - Halliburton}).\relax }}{60}{figure.caption.81}\protected@file@percent }
\newlabel{fig:SSV_cota}{{8.4}{60}{Raios das entradas do anular e da coluna (\textit {SSV - Halliburton}).\relax }{figure.caption.81}{}}
\@writefile{toc}{\contentsline {section}{\numberline {8.2}Malha Computacional}{60}{section.8.2}\protected@file@percent }
\citation{PowerBI}
\@writefile{lof}{\contentsline {figure}{\numberline {8.5}{\ignorespaces Malha computacional da v\IeC {\'a}lvula \textit  {SSV - Halliburton} utilizada para baterias de simula\IeC {\c c}\IeC {\~o}es.\relax }}{61}{figure.caption.82}\protected@file@percent }
\newlabel{fig:malha_SSV}{{8.5}{61}{Malha computacional da válvula \textit {SSV - Halliburton} utilizada para baterias de simulações.\relax }{figure.caption.82}{}}
\@setckpt{chapters/SSV}{
\setcounter{page}{62}
\setcounter{equation}{0}
\setcounter{enumi}{2}
\setcounter{enumii}{0}
\setcounter{enumiii}{0}
\setcounter{enumiv}{0}
\setcounter{footnote}{0}
\setcounter{mpfootnote}{0}
\setcounter{part}{0}
\setcounter{chapter}{8}
\setcounter{section}{2}
\setcounter{subsection}{0}
\setcounter{subsubsection}{0}
\setcounter{paragraph}{0}
\setcounter{subparagraph}{0}
\setcounter{figure}{5}
\setcounter{table}{0}
\setcounter{parentequation}{0}
\setcounter{caption@flags}{0}
\setcounter{continuedfloat}{0}
\setcounter{subfigure}{0}
\setcounter{subtable}{0}
\setcounter{lstnumber}{1}
\setcounter{mtc}{8}
\setcounter{minitocdepth}{1}
\setcounter{ptc}{0}
\setcounter{parttocdepth}{2}
\setcounter{Item}{9}
\setcounter{Hfootnote}{0}
\setcounter{bookmark@seq@number}{33}
\setcounter{ABCIaux}{0}
\setcounter{ABCImax}{0}
\setcounter{FancyVerbLine}{0}
\setcounter{linenumber}{1}
\setcounter{LN@truepage}{67}
\setcounter{FV@TrueTabGroupLevel}{0}
\setcounter{FV@TrueTabCounter}{0}
\setcounter{FV@HighlightLinesStart}{0}
\setcounter{FV@HighlightLinesStop}{0}
\setcounter{FancyVerbLineBreakLast}{0}
\setcounter{float@type}{16}
\setcounter{minted@FancyVerbLineTemp}{0}
\setcounter{minted@pygmentizecounter}{0}
\setcounter{listing}{0}
\setcounter{mdf@globalstyle@cnt}{0}
\setcounter{mdfcountframes}{0}
\setcounter{mdf@env@i}{0}
\setcounter{mdf@env@ii}{0}
\setcounter{mdf@zref@counter}{0}
\setcounter{AM@survey}{0}
\setcounter{lstlisting}{0}
\setcounter{section@level}{1}
}
